%!PS-Adobe-3.0 EPSF-3.0
%%DocumentNeededResources: font Helvetica
%%+ font Helvetica-Bold
%%+ font Helvetica-Oblique
%%+ font Helvetica-BoldOblique
%%+ font Symbol
%%Title: R Graphics Output
%%Creator: R Software
%%Pages: (atend)
%%BoundingBox: 0 0 375 258
%%EndComments
%%BeginProlog
/bp  { gs sRGB gs } def
% begin .ps.prolog
/gs  { gsave } bind def
/gr  { grestore } bind def
/ep  { showpage gr gr } bind def
/m   { moveto } bind def
/l  { rlineto } bind def
/np  { newpath } bind def
/cp  { closepath } bind def
/f   { fill } bind def
/o   { stroke } bind def
/c   { newpath 0 360 arc } bind def
/r   { 4 2 roll moveto 1 copy 3 -1 roll exch 0 exch rlineto 0 rlineto -1 mul 0 exch rlineto closepath } bind def
/p1  { stroke } bind def
/p2  { gsave bg fill grestore newpath } bind def
/p3  { gsave bg fill grestore stroke } bind def
/p6  { gsave bg eofill grestore newpath } bind def
/p7  { gsave bg eofill grestore stroke } bind def
/t   { 5 -2 roll moveto gsave rotate
       1 index stringwidth pop
       mul neg 0 rmoveto show grestore } bind def
/ta  { 4 -2 roll moveto gsave rotate show } bind def
/tb  { 2 -1 roll 0 rmoveto show } bind def
/cl  { grestore gsave newpath 3 index 3 index moveto 1 index
       4 -1 roll lineto  exch 1 index lineto lineto
       closepath clip newpath } bind def
/rgb { setrgbcolor } bind def
/s   { scalefont setfont } bind def
% end   .ps.prolog
/sRGB { [ /CIEBasedABC
          << /DecodeLMN
               [ { dup 0.03928 le
                        {12.92321 div}
                        {0.055 add 1.055 div 2.4 exp }
                     ifelse
                 } bind dup dup
               ]
             /MatrixLMN [0.412457 0.212673 0.019334
                         0.357576 0.715152 0.119192
                         0.180437 0.072175 0.950301]
             /WhitePoint [0.9505 1.0 1.0890]
           >>
         ] setcolorspace } bind def
/srgb { setcolor } bind def
%%IncludeResource: font Helvetica
/Helvetica findfont
dup length dict begin
  {1 index /FID ne {def} {pop pop} ifelse} forall
  /Encoding ISOLatin1Encoding def
  currentdict
  end
/Font1 exch definefont pop
%%IncludeResource: font Helvetica-Bold
/Helvetica-Bold findfont
dup length dict begin
  {1 index /FID ne {def} {pop pop} ifelse} forall
  /Encoding ISOLatin1Encoding def
  currentdict
  end
/Font2 exch definefont pop
%%IncludeResource: font Helvetica-Oblique
/Helvetica-Oblique findfont
dup length dict begin
  {1 index /FID ne {def} {pop pop} ifelse} forall
  /Encoding ISOLatin1Encoding def
  currentdict
  end
/Font3 exch definefont pop
%%IncludeResource: font Helvetica-BoldOblique
/Helvetica-BoldOblique findfont
dup length dict begin
  {1 index /FID ne {def} {pop pop} ifelse} forall
  /Encoding ISOLatin1Encoding def
  currentdict
  end
/Font4 exch definefont pop
%%IncludeResource: font Symbol
/Symbol findfont
dup length dict begin
  {1 index /FID ne {def} {pop pop} ifelse} forall
  currentdict
  end
/Font5 exch definefont pop
%%EndProlog
%%Page: 1 1
bp
/bg { 1 1 1 srgb } def
0.00 0.00 375.00 258.00 r p2
59.04 73.44 344.76 198.96 cl
1 0 0 srgb
0.75 setlinewidth
[] 0 setdash
1 setlinecap
1 setlinejoin
10.00 setmiterlimit
np
69.62 78.09 m
0.09 0 l
0.09 0.01 l
0.09 0 l
0.08 0.01 l
0.09 0 l
0.09 0.01 l
0.09 0.01 l
0.09 0 l
0.09 0.01 l
0.08 0 l
0.09 0.01 l
0.09 0 l
0.09 0.01 l
0.09 0 l
0.08 0.01 l
0.09 0.01 l
0.09 0 l
0.09 0.01 l
0.09 0 l
0.09 0.01 l
0.08 0.01 l
0.09 0 l
0.09 0.01 l
0.09 0 l
0.09 0.01 l
0.09 0.01 l
0.08 0 l
0.09 0.01 l
0.09 0.01 l
0.09 0 l
0.09 0.01 l
0.08 0.01 l
0.09 0 l
0.09 0.01 l
0.09 0.01 l
0.09 0.01 l
0.09 0 l
0.08 0.01 l
0.09 0.01 l
0.09 0 l
0.09 0.01 l
0.09 0.01 l
0.08 0.01 l
0.09 0 l
0.09 0.01 l
0.09 0.01 l
0.09 0.01 l
0.09 0.01 l
0.08 0 l
0.09 0.01 l
0.09 0.01 l
0.09 0.01 l
0.09 0.01 l
0.08 0.01 l
0.09 0 l
0.09 0.01 l
0.09 0.01 l
0.09 0.01 l
0.09 0.01 l
0.08 0.01 l
0.09 0.01 l
0.09 0.01 l
0.09 0 l
0.09 0.01 l
0.08 0.01 l
0.09 0.01 l
0.09 0.01 l
0.09 0.01 l
0.09 0.01 l
0.09 0.01 l
0.08 0.01 l
0.09 0.01 l
0.09 0.01 l
0.09 0.01 l
0.09 0.01 l
0.08 0.01 l
0.09 0.01 l
0.09 0.01 l
0.09 0.01 l
0.09 0.01 l
0.09 0.02 l
0.08 0.01 l
0.09 0.01 l
0.09 0.01 l
0.09 0.01 l
0.09 0.01 l
0.08 0.01 l
0.09 0.01 l
0.09 0.02 l
0.09 0.01 l
0.09 0.01 l
0.09 0.01 l
0.08 0.01 l
0.09 0.02 l
0.09 0.01 l
0.09 0.01 l
0.09 0.01 l
0.08 0.02 l
0.09 0.01 l
78.44 78.93 lineto
0.09 0.01 l
0.09 0.02 l
0.09 0.01 l
0.08 0.01 l
0.09 0.02 l
0.09 0.01 l
0.09 0.01 l
0.09 0.02 l
0.08 0.01 l
0.09 0.02 l
0.09 0.01 l
0.09 0.01 l
0.09 0.02 l
0.09 0.01 l
0.08 0.02 l
0.09 0.01 l
0.09 0.02 l
0.09 0.01 l
0.09 0.02 l
0.08 0.01 l
0.09 0.02 l
0.09 0.01 l
0.09 0.02 l
0.09 0.02 l
0.09 0.01 l
0.08 0.02 l
0.09 0.01 l
0.09 0.02 l
0.09 0.02 l
0.09 0.01 l
0.08 0.02 l
0.09 0.02 l
0.09 0.01 l
0.09 0.02 l
0.09 0.02 l
0.09 0.02 l
0.08 0.01 l
0.09 0.02 l
0.09 0.02 l
0.09 0.02 l
0.09 0.02 l
0.08 0.02 l
0.09 0.01 l
0.09 0.02 l
0.09 0.02 l
0.09 0.02 l
0.09 0.02 l
0.08 0.02 l
0.09 0.02 l
0.09 0.02 l
0.09 0.02 l
0.09 0.02 l
0.08 0.02 l
0.09 0.02 l
0.09 0.02 l
0.09 0.02 l
0.09 0.02 l
0.09 0.02 l
0.08 0.02 l
0.09 0.03 l
0.09 0.02 l
0.09 0.02 l
0.09 0.02 l
0.08 0.02 l
0.09 0.03 l
0.09 0.02 l
0.09 0.02 l
0.09 0.02 l
0.09 0.03 l
0.08 0.02 l
0.09 0.02 l
0.09 0.03 l
0.09 0.02 l
0.09 0.02 l
0.08 0.03 l
0.09 0.02 l
0.09 0.03 l
0.09 0.02 l
0.09 0.03 l
0.09 0.02 l
0.08 0.03 l
0.09 0.02 l
0.09 0.03 l
0.09 0.03 l
0.09 0.02 l
0.08 0.03 l
0.09 0.02 l
0.09 0.03 l
0.09 0.03 l
0.09 0.03 l
0.09 0.02 l
0.08 0.03 l
0.09 0.03 l
0.09 0.03 l
0.09 0.02 l
0.09 0.03 l
0.08 0.03 l
0.09 0.03 l
0.09 0.03 l
87.26 80.96 lineto
0.09 0.03 l
0.09 0.03 l
0.08 0.03 l
0.09 0.03 l
0.09 0.03 l
0.09 0.03 l
0.09 0.03 l
0.08 0.03 l
0.09 0.03 l
0.09 0.04 l
0.09 0.03 l
0.09 0.03 l
0.09 0.03 l
0.08 0.04 l
0.09 0.03 l
0.09 0.03 l
0.09 0.03 l
0.09 0.04 l
0.08 0.03 l
0.09 0.04 l
0.09 0.03 l
0.09 0.04 l
0.09 0.03 l
0.09 0.04 l
0.08 0.03 l
0.09 0.04 l
0.09 0.03 l
0.09 0.04 l
0.09 0.04 l
0.08 0.03 l
0.09 0.04 l
0.09 0.04 l
0.09 0.03 l
0.09 0.04 l
0.09 0.04 l
0.08 0.04 l
0.09 0.04 l
0.09 0.04 l
0.09 0.04 l
0.09 0.03 l
0.08 0.04 l
0.09 0.04 l
0.09 0.04 l
0.09 0.05 l
0.09 0.04 l
0.09 0.04 l
0.08 0.04 l
0.09 0.04 l
0.09 0.04 l
0.09 0.05 l
0.09 0.04 l
0.08 0.04 l
0.09 0.04 l
0.09 0.05 l
0.09 0.04 l
0.09 0.05 l
0.09 0.04 l
0.08 0.05 l
0.09 0.04 l
0.09 0.05 l
0.09 0.04 l
0.09 0.05 l
0.08 0.04 l
0.09 0.05 l
0.09 0.05 l
0.09 0.05 l
0.09 0.04 l
0.09 0.05 l
0.08 0.05 l
0.09 0.05 l
0.09 0.05 l
0.09 0.05 l
0.09 0.05 l
0.08 0.05 l
0.09 0.05 l
0.09 0.05 l
0.09 0.05 l
0.09 0.05 l
0.09 0.05 l
0.08 0.05 l
0.09 0.06 l
0.09 0.05 l
0.09 0.05 l
0.09 0.05 l
0.08 0.06 l
0.09 0.05 l
0.09 0.06 l
0.09 0.05 l
0.09 0.06 l
0.09 0.05 l
0.08 0.06 l
0.09 0.05 l
0.09 0.06 l
0.09 0.06 l
0.09 0.06 l
0.09 0.05 l
0.08 0.06 l
0.09 0.06 l
0.09 0.06 l
96.08 85.28 lineto
0.09 0.06 l
0.08 0.06 l
0.09 0.06 l
0.09 0.06 l
0.09 0.06 l
0.09 0.06 l
0.09 0.06 l
0.08 0.07 l
0.09 0.06 l
0.09 0.06 l
0.09 0.06 l
0.09 0.07 l
0.08 0.06 l
0.09 0.07 l
0.09 0.06 l
0.09 0.07 l
0.09 0.06 l
0.09 0.07 l
0.08 0.07 l
0.09 0.06 l
0.09 0.07 l
0.09 0.07 l
0.09 0.07 l
0.08 0.07 l
0.09 0.07 l
0.09 0.06 l
0.09 0.07 l
0.09 0.08 l
0.09 0.07 l
0.08 0.07 l
0.09 0.07 l
0.09 0.07 l
0.09 0.07 l
0.09 0.08 l
0.08 0.07 l
0.09 0.07 l
0.09 0.08 l
0.09 0.07 l
0.09 0.08 l
0.09 0.07 l
0.08 0.08 l
0.09 0.08 l
0.09 0.07 l
0.09 0.08 l
0.09 0.08 l
0.08 0.08 l
0.09 0.07 l
0.09 0.08 l
0.09 0.08 l
0.09 0.08 l
0.09 0.08 l
0.08 0.08 l
0.09 0.09 l
0.09 0.08 l
0.09 0.08 l
0.09 0.08 l
0.08 0.09 l
0.09 0.08 l
0.09 0.08 l
0.09 0.09 l
0.09 0.08 l
0.09 0.09 l
0.08 0.09 l
0.09 0.08 l
0.09 0.09 l
0.09 0.09 l
0.09 0.09 l
0.08 0.08 l
0.09 0.09 l
0.09 0.09 l
0.09 0.09 l
0.09 0.09 l
0.09 0.09 l
0.08 0.09 l
0.09 0.10 l
0.09 0.09 l
0.09 0.09 l
0.09 0.10 l
0.08 0.09 l
0.09 0.09 l
0.09 0.10 l
0.09 0.09 l
0.09 0.10 l
0.09 0.10 l
0.08 0.09 l
0.09 0.10 l
0.09 0.10 l
0.09 0.10 l
0.09 0.10 l
0.08 0.09 l
0.09 0.10 l
0.09 0.11 l
0.09 0.10 l
0.09 0.10 l
0.09 0.10 l
0.08 0.10 l
0.09 0.11 l
0.09 0.10 l
0.09 0.10 l
104.90 93.37 lineto
0.08 0.10 l
0.09 0.11 l
0.09 0.10 l
0.09 0.11 l
0.09 0.11 l
0.09 0.11 l
0.08 0.10 l
0.09 0.11 l
0.09 0.11 l
0.09 0.11 l
0.09 0.11 l
0.08 0.11 l
0.09 0.12 l
0.09 0.11 l
0.09 0.11 l
0.09 0.11 l
0.09 0.12 l
0.08 0.11 l
0.09 0.12 l
0.09 0.11 l
0.09 0.12 l
0.09 0.11 l
0.08 0.12 l
0.09 0.12 l
0.09 0.12 l
0.09 0.11 l
0.09 0.12 l
0.09 0.12 l
0.08 0.12 l
0.09 0.12 l
0.09 0.12 l
0.09 0.13 l
0.09 0.12 l
0.08 0.12 l
0.09 0.13 l
0.09 0.12 l
0.09 0.12 l
0.09 0.13 l
0.09 0.13 l
0.08 0.12 l
0.09 0.13 l
0.09 0.13 l
0.09 0.12 l
0.09 0.13 l
0.08 0.13 l
0.09 0.13 l
0.09 0.13 l
0.09 0.13 l
0.09 0.13 l
0.09 0.14 l
0.08 0.13 l
0.09 0.13 l
0.09 0.14 l
0.09 0.13 l
0.09 0.14 l
0.08 0.13 l
0.09 0.14 l
0.09 0.13 l
0.09 0.14 l
0.09 0.14 l
0.09 0.14 l
0.08 0.14 l
0.09 0.13 l
0.09 0.14 l
0.09 0.15 l
0.09 0.14 l
0.08 0.14 l
0.09 0.14 l
0.09 0.14 l
0.09 0.15 l
0.09 0.14 l
0.09 0.15 l
0.08 0.14 l
0.09 0.15 l
0.09 0.14 l
0.09 0.15 l
0.09 0.15 l
0.08 0.14 l
0.09 0.15 l
0.09 0.15 l
0.09 0.15 l
0.09 0.15 l
0.09 0.15 l
0.08 0.16 l
0.09 0.15 l
0.09 0.15 l
0.09 0.15 l
0.09 0.16 l
0.08 0.15 l
0.09 0.16 l
0.09 0.15 l
0.09 0.16 l
0.09 0.15 l
0.09 0.16 l
0.08 0.16 l
0.09 0.16 l
0.09 0.16 l
0.09 0.16 l
0.09 0.16 l
113.71 106.62 lineto
0.09 0.16 l
0.09 0.16 l
0.09 0.16 l
0.09 0.17 l
0.09 0.16 l
0.08 0.16 l
0.09 0.17 l
0.09 0.16 l
0.09 0.17 l
0.09 0.17 l
0.08 0.16 l
0.09 0.17 l
0.09 0.17 l
0.09 0.17 l
0.09 0.17 l
0.09 0.17 l
0.08 0.17 l
0.09 0.17 l
0.09 0.17 l
0.09 0.17 l
0.09 0.17 l
0.08 0.18 l
0.09 0.17 l
0.09 0.18 l
0.09 0.17 l
0.09 0.18 l
0.09 0.17 l
0.08 0.18 l
0.09 0.18 l
0.09 0.17 l
0.09 0.18 l
0.09 0.18 l
0.08 0.18 l
0.09 0.18 l
0.09 0.18 l
0.09 0.18 l
0.09 0.18 l
0.09 0.18 l
0.08 0.19 l
0.09 0.18 l
0.09 0.18 l
0.09 0.19 l
0.09 0.18 l
0.08 0.19 l
0.09 0.18 l
0.09 0.19 l
0.09 0.19 l
0.09 0.18 l
0.09 0.19 l
0.08 0.19 l
0.09 0.19 l
0.09 0.19 l
0.09 0.19 l
0.09 0.19 l
0.08 0.19 l
0.09 0.19 l
0.09 0.19 l
0.09 0.19 l
0.09 0.20 l
0.09 0.19 l
0.08 0.20 l
0.09 0.19 l
0.09 0.20 l
0.09 0.19 l
0.09 0.20 l
0.08 0.19 l
0.09 0.20 l
0.09 0.20 l
0.09 0.20 l
0.09 0.19 l
0.09 0.20 l
0.08 0.20 l
0.09 0.20 l
0.09 0.20 l
0.09 0.20 l
0.09 0.21 l
0.09 0.20 l
0.08 0.20 l
0.09 0.20 l
0.09 0.21 l
0.09 0.20 l
0.09 0.20 l
0.08 0.21 l
0.09 0.20 l
0.09 0.21 l
0.09 0.21 l
0.09 0.20 l
0.09 0.21 l
0.08 0.21 l
0.09 0.21 l
0.09 0.20 l
0.09 0.21 l
0.09 0.21 l
0.08 0.21 l
0.09 0.21 l
0.09 0.21 l
0.09 0.21 l
0.09 0.21 l
0.09 0.22 l
122.53 125.42 lineto
0.09 0.21 l
0.09 0.21 l
0.09 0.22 l
0.09 0.21 l
0.08 0.21 l
0.09 0.22 l
0.09 0.21 l
0.09 0.22 l
0.09 0.22 l
0.09 0.21 l
0.08 0.22 l
0.09 0.22 l
0.09 0.21 l
0.09 0.22 l
0.09 0.22 l
0.08 0.22 l
0.09 0.22 l
0.09 0.21 l
0.09 0.22 l
0.09 0.22 l
0.09 0.22 l
0.08 0.22 l
0.09 0.23 l
0.09 0.22 l
0.09 0.22 l
0.09 0.22 l
0.08 0.22 l
0.09 0.23 l
0.09 0.22 l
0.09 0.22 l
0.09 0.22 l
0.09 0.23 l
0.08 0.22 l
0.09 0.23 l
0.09 0.22 l
0.09 0.23 l
0.09 0.22 l
0.08 0.23 l
0.09 0.22 l
0.09 0.23 l
0.09 0.23 l
0.09 0.22 l
0.09 0.23 l
0.08 0.23 l
0.09 0.23 l
0.09 0.22 l
0.09 0.23 l
0.09 0.23 l
0.08 0.23 l
0.09 0.23 l
0.09 0.23 l
0.09 0.22 l
0.09 0.23 l
0.09 0.23 l
0.08 0.23 l
0.09 0.23 l
0.09 0.23 l
0.09 0.23 l
0.09 0.24 l
0.08 0.23 l
0.09 0.23 l
0.09 0.23 l
0.09 0.23 l
0.09 0.23 l
0.09 0.23 l
0.08 0.24 l
0.09 0.23 l
0.09 0.23 l
0.09 0.23 l
0.09 0.24 l
0.08 0.23 l
0.09 0.23 l
0.09 0.24 l
0.09 0.23 l
0.09 0.23 l
0.09 0.24 l
0.08 0.23 l
0.09 0.23 l
0.09 0.24 l
0.09 0.23 l
0.09 0.23 l
0.08 0.24 l
0.09 0.23 l
0.09 0.24 l
0.09 0.23 l
0.09 0.24 l
0.09 0.23 l
0.08 0.24 l
0.09 0.23 l
0.09 0.24 l
0.09 0.23 l
0.09 0.24 l
0.08 0.23 l
0.09 0.24 l
0.09 0.23 l
0.09 0.24 l
0.09 0.23 l
0.09 0.24 l
0.08 0.23 l
131.35 148.14 lineto
0.09 0.23 l
0.09 0.24 l
0.09 0.23 l
0.08 0.24 l
0.09 0.23 l
0.09 0.24 l
0.09 0.23 l
0.09 0.24 l
0.09 0.23 l
0.08 0.24 l
0.09 0.23 l
0.09 0.24 l
0.09 0.23 l
0.09 0.23 l
0.08 0.24 l
0.09 0.23 l
0.09 0.24 l
0.09 0.23 l
0.09 0.24 l
0.09 0.23 l
0.08 0.23 l
0.09 0.24 l
0.09 0.23 l
0.09 0.24 l
0.09 0.23 l
0.08 0.23 l
0.09 0.24 l
0.09 0.23 l
0.09 0.23 l
0.09 0.24 l
0.09 0.23 l
0.08 0.23 l
0.09 0.23 l
0.09 0.23 l
0.09 0.24 l
0.09 0.23 l
0.08 0.23 l
0.09 0.23 l
0.09 0.23 l
0.09 0.23 l
0.09 0.23 l
0.09 0.23 l
0.08 0.24 l
0.09 0.23 l
0.09 0.23 l
0.09 0.22 l
0.09 0.23 l
0.08 0.23 l
0.09 0.23 l
0.09 0.23 l
0.09 0.23 l
0.09 0.23 l
0.09 0.22 l
0.08 0.23 l
0.09 0.23 l
0.09 0.23 l
0.09 0.22 l
0.09 0.23 l
0.08 0.22 l
0.09 0.23 l
0.09 0.22 l
0.09 0.23 l
0.09 0.22 l
0.09 0.23 l
0.08 0.22 l
0.09 0.23 l
0.09 0.22 l
0.09 0.22 l
0.09 0.22 l
0.08 0.23 l
0.09 0.22 l
0.09 0.22 l
0.09 0.22 l
0.09 0.22 l
0.09 0.22 l
0.08 0.22 l
0.09 0.22 l
0.09 0.22 l
0.09 0.21 l
0.09 0.22 l
0.08 0.22 l
0.09 0.22 l
0.09 0.21 l
0.09 0.22 l
0.09 0.21 l
0.09 0.22 l
0.08 0.21 l
0.09 0.22 l
0.09 0.21 l
0.09 0.21 l
0.09 0.22 l
0.08 0.21 l
0.09 0.21 l
0.09 0.21 l
0.09 0.21 l
0.09 0.21 l
0.09 0.21 l
0.08 0.21 l
0.09 0.21 l
140.17 170.73 lineto
0.09 0.21 l
0.09 0.21 l
0.08 0.20 l
0.09 0.21 l
0.09 0.20 l
0.09 0.21 l
0.09 0.20 l
0.09 0.20 l
0.08 0.21 l
0.09 0.20 l
0.09 0.20 l
0.09 0.20 l
0.09 0.20 l
0.08 0.20 l
0.09 0.20 l
0.09 0.19 l
0.09 0.20 l
0.09 0.20 l
0.09 0.19 l
0.08 0.20 l
0.09 0.19 l
0.09 0.20 l
0.09 0.19 l
0.09 0.19 l
0.08 0.19 l
0.09 0.20 l
0.09 0.19 l
0.09 0.18 l
0.09 0.19 l
0.09 0.19 l
0.08 0.19 l
0.09 0.19 l
0.09 0.18 l
0.09 0.19 l
0.09 0.18 l
0.08 0.18 l
0.09 0.19 l
0.09 0.18 l
0.09 0.18 l
0.09 0.18 l
0.09 0.18 l
0.08 0.18 l
0.09 0.18 l
0.09 0.17 l
0.09 0.18 l
0.09 0.18 l
0.09 0.17 l
0.08 0.18 l
0.09 0.17 l
0.09 0.17 l
0.09 0.17 l
0.09 0.17 l
0.08 0.17 l
0.09 0.17 l
0.09 0.17 l
0.09 0.17 l
0.09 0.16 l
0.09 0.17 l
0.08 0.16 l
0.09 0.17 l
0.09 0.16 l
0.09 0.16 l
0.09 0.16 l
0.08 0.16 l
0.09 0.16 l
0.09 0.16 l
0.09 0.16 l
0.09 0.15 l
0.09 0.16 l
0.08 0.15 l
0.09 0.16 l
0.09 0.15 l
0.09 0.15 l
0.09 0.15 l
0.08 0.15 l
0.09 0.15 l
0.09 0.15 l
0.09 0.15 l
0.09 0.14 l
0.09 0.15 l
0.08 0.14 l
0.09 0.14 l
0.09 0.14 l
0.09 0.15 l
0.09 0.14 l
0.08 0.13 l
0.09 0.14 l
0.09 0.14 l
0.09 0.14 l
0.09 0.13 l
0.09 0.13 l
0.08 0.14 l
0.09 0.13 l
0.09 0.13 l
0.09 0.13 l
0.09 0.13 l
0.08 0.12 l
0.09 0.13 l
0.09 0.13 l
148.99 187.71 lineto
0.09 0.12 l
0.09 0.13 l
0.08 0.12 l
0.09 0.12 l
0.09 0.12 l
0.09 0.12 l
0.09 0.11 l
0.08 0.12 l
0.09 0.11 l
0.09 0.12 l
0.09 0.11 l
0.09 0.11 l
0.09 0.11 l
0.08 0.11 l
0.09 0.11 l
0.09 0.10 l
0.09 0.11 l
0.09 0.10 l
0.08 0.11 l
0.09 0.10 l
0.09 0.10 l
0.09 0.10 l
0.09 0.10 l
0.09 0.10 l
0.08 0.10 l
0.09 0.09 l
0.09 0.10 l
0.09 0.09 l
0.09 0.09 l
0.08 0.09 l
0.09 0.09 l
0.09 0.09 l
0.09 0.09 l
0.09 0.08 l
0.09 0.09 l
0.08 0.08 l
0.09 0.09 l
0.09 0.08 l
0.09 0.08 l
0.09 0.08 l
0.08 0.07 l
0.09 0.08 l
0.09 0.08 l
0.09 0.07 l
0.09 0.07 l
0.09 0.08 l
0.08 0.07 l
0.09 0.07 l
0.09 0.07 l
0.09 0.06 l
0.09 0.07 l
0.08 0.06 l
0.09 0.07 l
0.09 0.06 l
0.09 0.06 l
0.09 0.06 l
0.09 0.06 l
0.08 0.06 l
0.09 0.05 l
0.09 0.06 l
0.09 0.05 l
0.09 0.06 l
0.08 0.05 l
0.09 0.05 l
0.09 0.05 l
0.09 0.04 l
0.09 0.05 l
0.09 0.05 l
0.08 0.04 l
0.09 0.04 l
0.09 0.04 l
0.09 0.04 l
0.09 0.04 l
0.08 0.04 l
0.09 0.04 l
0.09 0.03 l
0.09 0.04 l
0.09 0.03 l
0.09 0.03 l
0.08 0.03 l
0.09 0.03 l
0.09 0.03 l
0.09 0.03 l
0.09 0.02 l
0.08 0.03 l
0.09 0.02 l
0.09 0.02 l
0.09 0.02 l
0.09 0.02 l
0.09 0.02 l
0.08 0.02 l
0.09 0.01 l
0.09 0.02 l
0.09 0.01 l
0.09 0.01 l
0.08 0.01 l
0.09 0.01 l
0.09 0.01 l
0.09 0.01 l
currentpoint o m
157.81 194.30 lineto
0.09 0.01 l
0.08 0 l
0.09 0 l
0.09 0 l
0.09 0 l
0.09 0 l
0.08 0 l
0.09 -0.01 l
0.09 0 l
0.09 -0.01 l
0.09 -0.01 l
0.09 -0.01 l
0.08 -0.01 l
0.09 -0.01 l
0.09 -0.01 l
0.09 -0.02 l
0.09 -0.01 l
0.08 -0.02 l
0.09 -0.02 l
0.09 -0.02 l
0.09 -0.02 l
0.09 -0.02 l
0.09 -0.02 l
0.08 -0.03 l
0.09 -0.02 l
0.09 -0.03 l
0.09 -0.02 l
0.09 -0.03 l
0.08 -0.03 l
0.09 -0.03 l
0.09 -0.04 l
0.09 -0.03 l
0.09 -0.04 l
0.09 -0.03 l
0.08 -0.04 l
0.09 -0.04 l
0.09 -0.04 l
0.09 -0.04 l
0.09 -0.04 l
0.08 -0.04 l
0.09 -0.05 l
0.09 -0.04 l
0.09 -0.05 l
0.09 -0.05 l
0.09 -0.05 l
0.08 -0.05 l
0.09 -0.05 l
0.09 -0.05 l
0.09 -0.05 l
0.09 -0.06 l
0.08 -0.06 l
0.09 -0.05 l
0.09 -0.06 l
0.09 -0.06 l
0.09 -0.06 l
0.09 -0.06 l
0.08 -0.07 l
0.09 -0.06 l
0.09 -0.07 l
0.09 -0.06 l
0.09 -0.07 l
0.08 -0.07 l
0.09 -0.07 l
0.09 -0.07 l
0.09 -0.07 l
0.09 -0.07 l
0.09 -0.08 l
0.08 -0.07 l
0.09 -0.08 l
0.09 -0.08 l
0.09 -0.08 l
0.09 -0.08 l
0.08 -0.08 l
0.09 -0.08 l
0.09 -0.08 l
0.09 -0.09 l
0.09 -0.08 l
0.09 -0.09 l
0.08 -0.08 l
0.09 -0.09 l
0.09 -0.09 l
0.09 -0.09 l
0.09 -0.09 l
0.08 -0.10 l
0.09 -0.09 l
0.09 -0.10 l
0.09 -0.09 l
0.09 -0.10 l
0.09 -0.10 l
0.08 -0.09 l
0.09 -0.10 l
0.09 -0.11 l
0.09 -0.10 l
0.09 -0.10 l
0.08 -0.10 l
0.09 -0.11 l
0.09 -0.10 l
0.09 -0.11 l
0.09 -0.11 l
166.63 188.86 lineto
0.08 -0.11 l
0.09 -0.11 l
0.09 -0.11 l
0.09 -0.11 l
0.09 -0.12 l
0.08 -0.11 l
0.09 -0.12 l
0.09 -0.11 l
0.09 -0.12 l
0.09 -0.12 l
0.09 -0.12 l
0.08 -0.12 l
0.09 -0.12 l
0.09 -0.12 l
0.09 -0.12 l
0.09 -0.13 l
0.08 -0.12 l
0.09 -0.13 l
0.09 -0.12 l
0.09 -0.13 l
0.09 -0.13 l
0.09 -0.13 l
0.08 -0.13 l
0.09 -0.13 l
0.09 -0.13 l
0.09 -0.13 l
0.09 -0.13 l
0.09 -0.14 l
0.08 -0.13 l
0.09 -0.14 l
0.09 -0.14 l
0.09 -0.13 l
0.09 -0.14 l
0.08 -0.14 l
0.09 -0.14 l
0.09 -0.14 l
0.09 -0.14 l
0.09 -0.14 l
0.09 -0.15 l
0.08 -0.14 l
0.09 -0.14 l
0.09 -0.15 l
0.09 -0.14 l
0.09 -0.15 l
0.08 -0.15 l
0.09 -0.15 l
0.09 -0.14 l
0.09 -0.15 l
0.09 -0.15 l
0.09 -0.15 l
0.08 -0.16 l
0.09 -0.15 l
0.09 -0.15 l
0.09 -0.15 l
0.09 -0.16 l
0.08 -0.15 l
0.09 -0.16 l
0.09 -0.15 l
0.09 -0.16 l
0.09 -0.16 l
0.09 -0.16 l
0.08 -0.16 l
0.09 -0.15 l
0.09 -0.16 l
0.09 -0.17 l
0.09 -0.16 l
0.08 -0.16 l
0.09 -0.16 l
0.09 -0.16 l
0.09 -0.17 l
0.09 -0.16 l
0.09 -0.16 l
0.08 -0.17 l
0.09 -0.17 l
0.09 -0.16 l
0.09 -0.17 l
0.09 -0.16 l
0.08 -0.17 l
0.09 -0.17 l
0.09 -0.17 l
0.09 -0.17 l
0.09 -0.17 l
0.09 -0.17 l
0.08 -0.17 l
0.09 -0.17 l
0.09 -0.17 l
0.09 -0.17 l
0.09 -0.18 l
0.08 -0.17 l
0.09 -0.17 l
0.09 -0.17 l
0.09 -0.18 l
0.09 -0.17 l
0.09 -0.18 l
0.08 -0.17 l
0.09 -0.18 l
0.09 -0.18 l
0.09 -0.17 l
0.09 -0.18 l
175.44 174.01 lineto
0.09 -0.17 l
0.09 -0.18 l
0.09 -0.18 l
0.09 -0.18 l
0.09 -0.18 l
0.08 -0.18 l
0.09 -0.17 l
0.09 -0.18 l
0.09 -0.18 l
0.09 -0.18 l
0.08 -0.19 l
0.09 -0.18 l
0.09 -0.18 l
0.09 -0.18 l
0.09 -0.18 l
0.09 -0.18 l
0.08 -0.18 l
0.09 -0.19 l
0.09 -0.18 l
0.09 -0.18 l
0.09 -0.18 l
0.08 -0.19 l
0.09 -0.18 l
0.09 -0.18 l
0.09 -0.19 l
0.09 -0.18 l
0.09 -0.19 l
0.08 -0.18 l
0.09 -0.18 l
0.09 -0.19 l
0.09 -0.18 l
0.09 -0.19 l
0.08 -0.18 l
0.09 -0.19 l
0.09 -0.18 l
0.09 -0.19 l
0.09 -0.18 l
0.09 -0.19 l
0.08 -0.18 l
0.09 -0.19 l
0.09 -0.18 l
0.09 -0.19 l
0.09 -0.18 l
0.08 -0.19 l
0.09 -0.19 l
0.09 -0.18 l
0.09 -0.19 l
0.09 -0.18 l
0.09 -0.19 l
0.08 -0.18 l
0.09 -0.19 l
0.09 -0.18 l
0.09 -0.19 l
0.09 -0.19 l
0.08 -0.18 l
0.09 -0.19 l
0.09 -0.18 l
0.09 -0.19 l
0.09 -0.18 l
0.09 -0.19 l
0.08 -0.18 l
0.09 -0.19 l
0.09 -0.18 l
0.09 -0.19 l
0.09 -0.18 l
0.08 -0.18 l
0.09 -0.19 l
0.09 -0.18 l
0.09 -0.19 l
0.09 -0.18 l
0.09 -0.18 l
0.08 -0.19 l
0.09 -0.18 l
0.09 -0.18 l
0.09 -0.19 l
0.09 -0.18 l
0.08 -0.18 l
0.09 -0.18 l
0.09 -0.19 l
0.09 -0.18 l
0.09 -0.18 l
0.09 -0.18 l
0.08 -0.18 l
0.09 -0.18 l
0.09 -0.18 l
0.09 -0.18 l
0.09 -0.18 l
0.08 -0.18 l
0.09 -0.18 l
0.09 -0.18 l
0.09 -0.18 l
0.09 -0.18 l
0.09 -0.18 l
0.08 -0.18 l
0.09 -0.17 l
0.09 -0.18 l
0.09 -0.18 l
0.09 -0.17 l
0.08 -0.18 l
184.26 155.76 lineto
0.09 -0.17 l
0.09 -0.18 l
0.09 -0.17 l
0.09 -0.17 l
0.08 -0.18 l
0.09 -0.17 l
0.09 -0.18 l
0.09 -0.17 l
0.09 -0.17 l
0.08 -0.17 l
0.09 -0.17 l
0.09 -0.17 l
0.09 -0.17 l
0.09 -0.17 l
0.09 -0.17 l
0.08 -0.17 l
0.09 -0.17 l
0.09 -0.17 l
0.09 -0.17 l
0.09 -0.16 l
0.08 -0.17 l
0.09 -0.16 l
0.09 -0.17 l
0.09 -0.16 l
0.09 -0.17 l
0.09 -0.16 l
0.08 -0.17 l
0.09 -0.16 l
0.09 -0.16 l
0.09 -0.16 l
0.09 -0.16 l
0.08 -0.16 l
0.09 -0.16 l
0.09 -0.16 l
0.09 -0.16 l
0.09 -0.16 l
0.09 -0.16 l
0.08 -0.15 l
0.09 -0.16 l
0.09 -0.15 l
0.09 -0.16 l
0.09 -0.15 l
0.08 -0.16 l
0.09 -0.15 l
0.09 -0.15 l
0.09 -0.15 l
0.09 -0.16 l
0.09 -0.15 l
0.08 -0.15 l
0.09 -0.14 l
0.09 -0.15 l
0.09 -0.15 l
0.09 -0.15 l
0.08 -0.14 l
0.09 -0.15 l
0.09 -0.14 l
0.09 -0.15 l
0.09 -0.14 l
0.09 -0.14 l
0.08 -0.14 l
0.09 -0.15 l
0.09 -0.14 l
0.09 -0.14 l
0.09 -0.13 l
0.08 -0.14 l
0.09 -0.14 l
0.09 -0.14 l
0.09 -0.13 l
0.09 -0.14 l
0.09 -0.13 l
0.08 -0.13 l
0.09 -0.14 l
0.09 -0.13 l
0.09 -0.13 l
0.09 -0.13 l
0.08 -0.13 l
0.09 -0.13 l
0.09 -0.12 l
0.09 -0.13 l
0.09 -0.13 l
0.09 -0.12 l
0.08 -0.12 l
0.09 -0.13 l
0.09 -0.12 l
0.09 -0.12 l
0.09 -0.12 l
0.08 -0.12 l
0.09 -0.12 l
0.09 -0.12 l
0.09 -0.12 l
0.09 -0.11 l
0.09 -0.12 l
0.08 -0.11 l
0.09 -0.11 l
0.09 -0.12 l
0.09 -0.11 l
0.09 -0.11 l
0.08 -0.11 l
0.09 -0.11 l
193.08 141.14 lineto
0.09 -0.10 l
0.09 -0.11 l
0.09 -0.10 l
0.08 -0.11 l
0.09 -0.10 l
0.09 -0.10 l
0.09 -0.11 l
0.09 -0.10 l
0.09 -0.10 l
0.08 -0.09 l
0.09 -0.10 l
0.09 -0.10 l
0.09 -0.09 l
0.09 -0.10 l
0.08 -0.09 l
0.09 -0.09 l
0.09 -0.10 l
0.09 -0.09 l
0.09 -0.09 l
0.09 -0.08 l
0.08 -0.09 l
0.09 -0.09 l
0.09 -0.08 l
0.09 -0.09 l
0.09 -0.08 l
0.08 -0.08 l
0.09 -0.08 l
0.09 -0.09 l
0.09 -0.07 l
0.09 -0.08 l
0.09 -0.08 l
0.08 -0.08 l
0.09 -0.07 l
0.09 -0.08 l
0.09 -0.07 l
0.09 -0.07 l
0.08 -0.07 l
0.09 -0.07 l
0.09 -0.07 l
0.09 -0.07 l
0.09 -0.06 l
0.09 -0.07 l
0.08 -0.06 l
0.09 -0.07 l
0.09 -0.06 l
0.09 -0.06 l
0.09 -0.06 l
0.08 -0.06 l
0.09 -0.06 l
0.09 -0.06 l
0.09 -0.05 l
0.09 -0.06 l
0.09 -0.05 l
0.08 -0.05 l
0.09 -0.05 l
0.09 -0.05 l
0.09 -0.05 l
0.09 -0.05 l
0.08 -0.05 l
0.09 -0.04 l
0.09 -0.05 l
0.09 -0.04 l
0.09 -0.04 l
0.09 -0.05 l
0.08 -0.04 l
0.09 -0.04 l
0.09 -0.03 l
0.09 -0.04 l
0.09 -0.04 l
0.08 -0.03 l
0.09 -0.03 l
0.09 -0.04 l
0.09 -0.03 l
0.09 -0.03 l
0.09 -0.03 l
0.08 -0.03 l
0.09 -0.02 l
0.09 -0.03 l
0.09 -0.02 l
0.09 -0.03 l
0.08 -0.02 l
0.09 -0.02 l
0.09 -0.02 l
0.09 -0.02 l
0.09 -0.02 l
0.09 -0.01 l
0.08 -0.02 l
0.09 -0.01 l
0.09 -0.02 l
0.09 -0.01 l
0.09 -0.01 l
0.08 -0.01 l
0.09 -0.01 l
0.09 0 l
0.09 -0.01 l
0.09 -0.01 l
0.09 0 l
0.08 0 l
0.09 0 l
201.90 135.60 lineto
0.09 0 l
0.09 0 l
0.08 0 l
0.09 0 l
0.09 0.01 l
0.09 0.01 l
0.09 0 l
0.09 0.01 l
0.08 0.01 l
0.09 0.01 l
0.09 0.01 l
0.09 0.02 l
0.09 0.01 l
0.08 0.02 l
0.09 0.01 l
0.09 0.02 l
0.09 0.02 l
0.09 0.02 l
0.09 0.02 l
0.08 0.02 l
0.09 0.03 l
0.09 0.02 l
0.09 0.03 l
0.09 0.02 l
0.08 0.03 l
0.09 0.03 l
0.09 0.03 l
0.09 0.03 l
0.09 0.04 l
0.09 0.03 l
0.08 0.03 l
0.09 0.04 l
0.09 0.04 l
0.09 0.03 l
0.09 0.04 l
0.08 0.04 l
0.09 0.05 l
0.09 0.04 l
0.09 0.04 l
0.09 0.05 l
0.09 0.04 l
0.08 0.05 l
0.09 0.05 l
0.09 0.05 l
0.09 0.05 l
0.09 0.05 l
0.08 0.05 l
0.09 0.05 l
0.09 0.06 l
0.09 0.05 l
0.09 0.06 l
0.09 0.06 l
0.08 0.06 l
0.09 0.06 l
0.09 0.06 l
0.09 0.06 l
0.09 0.07 l
0.08 0.06 l
0.09 0.07 l
0.09 0.06 l
0.09 0.07 l
0.09 0.07 l
0.09 0.07 l
0.08 0.07 l
0.09 0.07 l
0.09 0.07 l
0.09 0.08 l
0.09 0.07 l
0.08 0.08 l
0.09 0.08 l
0.09 0.08 l
0.09 0.07 l
0.09 0.09 l
0.09 0.08 l
0.08 0.08 l
0.09 0.08 l
0.09 0.09 l
0.09 0.08 l
0.09 0.09 l
0.08 0.09 l
0.09 0.08 l
0.09 0.09 l
0.09 0.09 l
0.09 0.10 l
0.09 0.09 l
0.08 0.09 l
0.09 0.10 l
0.09 0.09 l
0.09 0.10 l
0.09 0.10 l
0.08 0.09 l
0.09 0.10 l
0.09 0.10 l
0.09 0.11 l
0.09 0.10 l
0.09 0.10 l
0.08 0.11 l
0.09 0.10 l
0.09 0.11 l
210.72 141.14 lineto
0.09 0.11 l
0.08 0.11 l
0.09 0.11 l
0.09 0.11 l
0.09 0.11 l
0.09 0.12 l
0.09 0.11 l
0.08 0.11 l
0.09 0.12 l
0.09 0.11 l
0.09 0.12 l
0.09 0.12 l
0.08 0.12 l
0.09 0.12 l
0.09 0.12 l
0.09 0.12 l
0.09 0.12 l
0.09 0.13 l
0.08 0.12 l
0.09 0.12 l
0.09 0.13 l
0.09 0.13 l
0.09 0.12 l
0.08 0.13 l
0.09 0.13 l
0.09 0.13 l
0.09 0.13 l
0.09 0.13 l
0.09 0.14 l
0.08 0.13 l
0.09 0.13 l
0.09 0.14 l
0.09 0.13 l
0.09 0.14 l
0.08 0.14 l
0.09 0.14 l
0.09 0.13 l
0.09 0.14 l
0.09 0.14 l
0.09 0.15 l
0.08 0.14 l
0.09 0.14 l
0.09 0.14 l
0.09 0.15 l
0.09 0.14 l
0.08 0.15 l
0.09 0.14 l
0.09 0.15 l
0.09 0.15 l
0.09 0.15 l
0.09 0.14 l
0.08 0.15 l
0.09 0.15 l
0.09 0.16 l
0.09 0.15 l
0.09 0.15 l
0.08 0.15 l
0.09 0.16 l
0.09 0.15 l
0.09 0.16 l
0.09 0.15 l
0.09 0.16 l
0.08 0.15 l
0.09 0.16 l
0.09 0.16 l
0.09 0.16 l
0.09 0.16 l
0.08 0.16 l
0.09 0.16 l
0.09 0.16 l
0.09 0.16 l
0.09 0.16 l
0.09 0.16 l
0.08 0.17 l
0.09 0.16 l
0.09 0.17 l
0.09 0.16 l
0.09 0.17 l
0.09 0.16 l
0.08 0.17 l
0.09 0.16 l
0.09 0.17 l
0.09 0.17 l
0.09 0.17 l
0.08 0.17 l
0.09 0.17 l
0.09 0.17 l
0.09 0.17 l
0.09 0.17 l
0.09 0.17 l
0.08 0.17 l
0.09 0.17 l
0.09 0.17 l
0.09 0.18 l
0.09 0.17 l
0.08 0.18 l
0.09 0.17 l
0.09 0.17 l
0.09 0.18 l
219.54 155.76 lineto
0.09 0.18 l
0.08 0.18 l
0.09 0.17 l
0.09 0.18 l
0.09 0.18 l
0.09 0.17 l
0.08 0.18 l
0.09 0.18 l
0.09 0.18 l
0.09 0.18 l
0.09 0.18 l
0.09 0.18 l
0.08 0.18 l
0.09 0.18 l
0.09 0.18 l
0.09 0.18 l
0.09 0.18 l
0.08 0.18 l
0.09 0.18 l
0.09 0.18 l
0.09 0.18 l
0.09 0.19 l
0.09 0.18 l
0.08 0.18 l
0.09 0.18 l
0.09 0.19 l
0.09 0.18 l
0.09 0.18 l
0.08 0.19 l
0.09 0.18 l
0.09 0.18 l
0.09 0.19 l
0.09 0.18 l
0.09 0.19 l
0.08 0.18 l
0.09 0.18 l
0.09 0.19 l
0.09 0.18 l
0.09 0.19 l
0.08 0.18 l
0.09 0.19 l
0.09 0.18 l
0.09 0.19 l
0.09 0.18 l
0.09 0.19 l
0.08 0.18 l
0.09 0.19 l
0.09 0.19 l
0.09 0.18 l
0.09 0.19 l
0.08 0.18 l
0.09 0.19 l
0.09 0.18 l
0.09 0.19 l
0.09 0.18 l
0.09 0.19 l
0.08 0.19 l
0.09 0.18 l
0.09 0.19 l
0.09 0.18 l
0.09 0.19 l
0.08 0.18 l
0.09 0.19 l
0.09 0.18 l
0.09 0.19 l
0.09 0.18 l
0.09 0.19 l
0.08 0.18 l
0.09 0.19 l
0.09 0.18 l
0.09 0.19 l
0.09 0.18 l
0.08 0.18 l
0.09 0.19 l
0.09 0.18 l
0.09 0.19 l
0.09 0.18 l
0.09 0.18 l
0.08 0.19 l
0.09 0.18 l
0.09 0.18 l
0.09 0.18 l
0.09 0.19 l
0.08 0.18 l
0.09 0.18 l
0.09 0.18 l
0.09 0.18 l
0.09 0.18 l
0.09 0.18 l
0.08 0.19 l
0.09 0.18 l
0.09 0.18 l
0.09 0.18 l
0.09 0.17 l
0.08 0.18 l
0.09 0.18 l
0.09 0.18 l
0.09 0.18 l
0.09 0.18 l
228.36 174.01 lineto
0.08 0.18 l
0.09 0.18 l
0.09 0.17 l
0.09 0.18 l
0.09 0.18 l
0.08 0.17 l
0.09 0.18 l
0.09 0.17 l
0.09 0.18 l
0.09 0.17 l
0.09 0.17 l
0.08 0.17 l
0.09 0.18 l
0.09 0.17 l
0.09 0.17 l
0.09 0.17 l
0.08 0.17 l
0.09 0.17 l
0.09 0.17 l
0.09 0.17 l
0.09 0.17 l
0.09 0.17 l
0.08 0.17 l
0.09 0.16 l
0.09 0.17 l
0.09 0.16 l
0.09 0.17 l
0.08 0.17 l
0.09 0.16 l
0.09 0.16 l
0.09 0.17 l
0.09 0.16 l
0.09 0.16 l
0.08 0.16 l
0.09 0.16 l
0.09 0.17 l
0.09 0.16 l
0.09 0.15 l
0.08 0.16 l
0.09 0.16 l
0.09 0.16 l
0.09 0.16 l
0.09 0.15 l
0.09 0.16 l
0.08 0.15 l
0.09 0.16 l
0.09 0.15 l
0.09 0.15 l
0.09 0.15 l
0.08 0.16 l
0.09 0.15 l
0.09 0.15 l
0.09 0.15 l
0.09 0.14 l
0.09 0.15 l
0.08 0.15 l
0.09 0.15 l
0.09 0.14 l
0.09 0.15 l
0.09 0.14 l
0.08 0.14 l
0.09 0.15 l
0.09 0.14 l
0.09 0.14 l
0.09 0.14 l
0.09 0.14 l
0.08 0.14 l
0.09 0.14 l
0.09 0.13 l
0.09 0.14 l
0.09 0.14 l
0.08 0.13 l
0.09 0.14 l
0.09 0.13 l
0.09 0.13 l
0.09 0.13 l
0.09 0.13 l
0.08 0.13 l
0.09 0.13 l
0.09 0.13 l
0.09 0.13 l
0.09 0.12 l
0.08 0.13 l
0.09 0.12 l
0.09 0.13 l
0.09 0.12 l
0.09 0.12 l
0.09 0.12 l
0.08 0.12 l
0.09 0.12 l
0.09 0.12 l
0.09 0.12 l
0.09 0.11 l
0.08 0.12 l
0.09 0.11 l
0.09 0.12 l
0.09 0.11 l
0.09 0.11 l
0.09 0.11 l
237.17 188.86 lineto
0.09 0.11 l
0.09 0.11 l
0.09 0.11 l
0.09 0.10 l
0.08 0.11 l
0.09 0.10 l
0.09 0.10 l
0.09 0.10 l
0.09 0.11 l
0.09 0.10 l
0.08 0.09 l
0.09 0.10 l
0.09 0.10 l
0.09 0.09 l
0.09 0.10 l
0.08 0.09 l
0.09 0.10 l
0.09 0.09 l
0.09 0.09 l
0.09 0.09 l
0.09 0.09 l
0.08 0.08 l
0.09 0.09 l
0.09 0.08 l
0.09 0.09 l
0.09 0.08 l
0.08 0.08 l
0.09 0.08 l
0.09 0.08 l
0.09 0.08 l
0.09 0.08 l
0.09 0.08 l
0.08 0.07 l
0.09 0.08 l
0.09 0.07 l
0.09 0.07 l
0.09 0.07 l
0.08 0.07 l
0.09 0.07 l
0.09 0.07 l
0.09 0.06 l
0.09 0.07 l
0.09 0.06 l
0.08 0.07 l
0.09 0.06 l
0.09 0.06 l
0.09 0.06 l
0.09 0.06 l
0.08 0.05 l
0.09 0.06 l
0.09 0.06 l
0.09 0.05 l
0.09 0.05 l
0.09 0.05 l
0.08 0.05 l
0.09 0.05 l
0.09 0.05 l
0.09 0.05 l
0.09 0.04 l
0.09 0.05 l
0.08 0.04 l
0.09 0.04 l
0.09 0.04 l
0.09 0.04 l
0.09 0.04 l
0.08 0.04 l
0.09 0.03 l
0.09 0.04 l
0.09 0.03 l
0.09 0.04 l
0.09 0.03 l
0.08 0.03 l
0.09 0.03 l
0.09 0.02 l
0.09 0.03 l
0.09 0.02 l
0.08 0.03 l
0.09 0.02 l
0.09 0.02 l
0.09 0.02 l
0.09 0.02 l
0.09 0.02 l
0.08 0.02 l
0.09 0.01 l
0.09 0.02 l
0.09 0.01 l
0.09 0.01 l
0.08 0.01 l
0.09 0.01 l
0.09 0.01 l
0.09 0.01 l
0.09 0 l
0.09 0.01 l
0.08 0 l
0.09 0 l
0.09 0 l
0.09 0 l
0.09 0 l
0.08 0 l
currentpoint o m
245.99 194.30 lineto
0.09 0 l
0.09 -0.01 l
0.09 -0.01 l
0.09 -0.01 l
0.08 -0.01 l
0.09 -0.01 l
0.09 -0.01 l
0.09 -0.02 l
0.09 -0.01 l
0.08 -0.02 l
0.09 -0.02 l
0.09 -0.02 l
0.09 -0.02 l
0.09 -0.02 l
0.09 -0.02 l
0.08 -0.03 l
0.09 -0.02 l
0.09 -0.03 l
0.09 -0.03 l
0.09 -0.03 l
0.08 -0.03 l
0.09 -0.03 l
0.09 -0.03 l
0.09 -0.04 l
0.09 -0.03 l
0.09 -0.04 l
0.08 -0.04 l
0.09 -0.04 l
0.09 -0.04 l
0.09 -0.04 l
0.09 -0.04 l
0.08 -0.04 l
0.09 -0.05 l
0.09 -0.05 l
0.09 -0.04 l
0.09 -0.05 l
0.09 -0.05 l
0.08 -0.05 l
0.09 -0.06 l
0.09 -0.05 l
0.09 -0.06 l
0.09 -0.05 l
0.08 -0.06 l
0.09 -0.06 l
0.09 -0.06 l
0.09 -0.06 l
0.09 -0.06 l
0.09 -0.07 l
0.08 -0.06 l
0.09 -0.07 l
0.09 -0.06 l
0.09 -0.07 l
0.09 -0.07 l
0.08 -0.07 l
0.09 -0.08 l
0.09 -0.07 l
0.09 -0.07 l
0.09 -0.08 l
0.09 -0.08 l
0.08 -0.07 l
0.09 -0.08 l
0.09 -0.08 l
0.09 -0.08 l
0.09 -0.09 l
0.08 -0.08 l
0.09 -0.09 l
0.09 -0.08 l
0.09 -0.09 l
0.09 -0.09 l
0.09 -0.09 l
0.08 -0.09 l
0.09 -0.09 l
0.09 -0.09 l
0.09 -0.10 l
0.09 -0.09 l
0.08 -0.10 l
0.09 -0.10 l
0.09 -0.10 l
0.09 -0.10 l
0.09 -0.10 l
0.09 -0.10 l
0.08 -0.11 l
0.09 -0.10 l
0.09 -0.11 l
0.09 -0.10 l
0.09 -0.11 l
0.08 -0.11 l
0.09 -0.11 l
0.09 -0.11 l
0.09 -0.11 l
0.09 -0.12 l
0.09 -0.11 l
0.08 -0.12 l
0.09 -0.11 l
0.09 -0.12 l
0.09 -0.12 l
0.09 -0.12 l
0.08 -0.12 l
0.09 -0.13 l
254.81 187.71 lineto
0.09 -0.12 l
0.09 -0.13 l
0.09 -0.13 l
0.08 -0.12 l
0.09 -0.13 l
0.09 -0.13 l
0.09 -0.13 l
0.09 -0.13 l
0.08 -0.14 l
0.09 -0.13 l
0.09 -0.13 l
0.09 -0.14 l
0.09 -0.14 l
0.09 -0.14 l
0.08 -0.13 l
0.09 -0.14 l
0.09 -0.15 l
0.09 -0.14 l
0.09 -0.14 l
0.08 -0.14 l
0.09 -0.15 l
0.09 -0.14 l
0.09 -0.15 l
0.09 -0.15 l
0.09 -0.15 l
0.08 -0.15 l
0.09 -0.15 l
0.09 -0.15 l
0.09 -0.15 l
0.09 -0.16 l
0.08 -0.15 l
0.09 -0.16 l
0.09 -0.15 l
0.09 -0.16 l
0.09 -0.16 l
0.09 -0.16 l
0.08 -0.16 l
0.09 -0.16 l
0.09 -0.16 l
0.09 -0.16 l
0.09 -0.17 l
0.08 -0.16 l
0.09 -0.17 l
0.09 -0.16 l
0.09 -0.17 l
0.09 -0.17 l
0.09 -0.17 l
0.08 -0.17 l
0.09 -0.17 l
0.09 -0.17 l
0.09 -0.17 l
0.09 -0.17 l
0.08 -0.18 l
0.09 -0.17 l
0.09 -0.18 l
0.09 -0.18 l
0.09 -0.17 l
0.09 -0.18 l
0.08 -0.18 l
0.09 -0.18 l
0.09 -0.18 l
0.09 -0.18 l
0.09 -0.18 l
0.08 -0.19 l
0.09 -0.18 l
0.09 -0.18 l
0.09 -0.19 l
0.09 -0.18 l
0.09 -0.19 l
0.08 -0.19 l
0.09 -0.19 l
0.09 -0.19 l
0.09 -0.18 l
0.09 -0.19 l
0.08 -0.20 l
0.09 -0.19 l
0.09 -0.19 l
0.09 -0.19 l
0.09 -0.20 l
0.09 -0.19 l
0.08 -0.20 l
0.09 -0.19 l
0.09 -0.20 l
0.09 -0.20 l
0.09 -0.19 l
0.08 -0.20 l
0.09 -0.20 l
0.09 -0.20 l
0.09 -0.20 l
0.09 -0.20 l
0.09 -0.20 l
0.08 -0.21 l
0.09 -0.20 l
0.09 -0.20 l
0.09 -0.21 l
0.09 -0.20 l
0.08 -0.21 l
0.09 -0.20 l
0.09 -0.21 l
263.63 170.73 lineto
0.09 -0.20 l
0.09 -0.21 l
0.08 -0.21 l
0.09 -0.21 l
0.09 -0.21 l
0.09 -0.21 l
0.09 -0.21 l
0.08 -0.21 l
0.09 -0.21 l
0.09 -0.22 l
0.09 -0.21 l
0.09 -0.21 l
0.09 -0.22 l
0.08 -0.21 l
0.09 -0.22 l
0.09 -0.21 l
0.09 -0.22 l
0.09 -0.21 l
0.08 -0.22 l
0.09 -0.22 l
0.09 -0.22 l
0.09 -0.21 l
0.09 -0.22 l
0.09 -0.22 l
0.08 -0.22 l
0.09 -0.22 l
0.09 -0.22 l
0.09 -0.22 l
0.09 -0.22 l
0.09 -0.22 l
0.08 -0.23 l
0.09 -0.22 l
0.09 -0.22 l
0.09 -0.22 l
0.09 -0.23 l
0.08 -0.22 l
0.09 -0.23 l
0.09 -0.22 l
0.09 -0.23 l
0.09 -0.22 l
0.09 -0.23 l
0.08 -0.22 l
0.09 -0.23 l
0.09 -0.22 l
0.09 -0.23 l
0.09 -0.23 l
0.08 -0.23 l
0.09 -0.22 l
0.09 -0.23 l
0.09 -0.23 l
0.09 -0.23 l
0.09 -0.23 l
0.08 -0.23 l
0.09 -0.23 l
0.09 -0.22 l
0.09 -0.23 l
0.09 -0.23 l
0.08 -0.24 l
0.09 -0.23 l
0.09 -0.23 l
0.09 -0.23 l
0.09 -0.23 l
0.09 -0.23 l
0.08 -0.23 l
0.09 -0.23 l
0.09 -0.24 l
0.09 -0.23 l
0.09 -0.23 l
0.08 -0.23 l
0.09 -0.23 l
0.09 -0.24 l
0.09 -0.23 l
0.09 -0.23 l
0.09 -0.24 l
0.08 -0.23 l
0.09 -0.23 l
0.09 -0.24 l
0.09 -0.23 l
0.09 -0.24 l
0.08 -0.23 l
0.09 -0.23 l
0.09 -0.24 l
0.09 -0.23 l
0.09 -0.24 l
0.09 -0.23 l
0.08 -0.24 l
0.09 -0.23 l
0.09 -0.23 l
0.09 -0.24 l
0.09 -0.23 l
0.08 -0.24 l
0.09 -0.23 l
0.09 -0.24 l
0.09 -0.23 l
0.09 -0.24 l
0.09 -0.23 l
0.08 -0.24 l
0.09 -0.23 l
0.09 -0.24 l
272.45 148.14 lineto
0.09 -0.24 l
0.08 -0.23 l
0.09 -0.24 l
0.09 -0.23 l
0.09 -0.24 l
0.09 -0.23 l
0.09 -0.24 l
0.08 -0.23 l
0.09 -0.24 l
0.09 -0.23 l
0.09 -0.24 l
0.09 -0.23 l
0.08 -0.24 l
0.09 -0.23 l
0.09 -0.24 l
0.09 -0.23 l
0.09 -0.24 l
0.09 -0.23 l
0.08 -0.24 l
0.09 -0.23 l
0.09 -0.23 l
0.09 -0.24 l
0.09 -0.23 l
0.08 -0.23 l
0.09 -0.24 l
0.09 -0.23 l
0.09 -0.23 l
0.09 -0.24 l
0.09 -0.23 l
0.08 -0.23 l
0.09 -0.24 l
0.09 -0.23 l
0.09 -0.23 l
0.09 -0.23 l
0.08 -0.24 l
0.09 -0.23 l
0.09 -0.23 l
0.09 -0.23 l
0.09 -0.23 l
0.09 -0.23 l
0.08 -0.23 l
0.09 -0.24 l
0.09 -0.23 l
0.09 -0.23 l
0.09 -0.23 l
0.08 -0.23 l
0.09 -0.23 l
0.09 -0.23 l
0.09 -0.22 l
0.09 -0.23 l
0.09 -0.23 l
0.08 -0.23 l
0.09 -0.23 l
0.09 -0.23 l
0.09 -0.22 l
0.09 -0.23 l
0.08 -0.23 l
0.09 -0.23 l
0.09 -0.22 l
0.09 -0.23 l
0.09 -0.23 l
0.09 -0.22 l
0.08 -0.23 l
0.09 -0.22 l
0.09 -0.23 l
0.09 -0.22 l
0.09 -0.23 l
0.08 -0.22 l
0.09 -0.23 l
0.09 -0.22 l
0.09 -0.22 l
0.09 -0.22 l
0.09 -0.23 l
0.08 -0.22 l
0.09 -0.22 l
0.09 -0.22 l
0.09 -0.22 l
0.09 -0.23 l
0.08 -0.22 l
0.09 -0.22 l
0.09 -0.22 l
0.09 -0.22 l
0.09 -0.21 l
0.09 -0.22 l
0.08 -0.22 l
0.09 -0.22 l
0.09 -0.22 l
0.09 -0.21 l
0.09 -0.22 l
0.08 -0.22 l
0.09 -0.21 l
0.09 -0.22 l
0.09 -0.22 l
0.09 -0.21 l
0.09 -0.22 l
0.08 -0.21 l
0.09 -0.21 l
0.09 -0.22 l
0.09 -0.21 l
281.27 125.42 lineto
0.08 -0.21 l
0.09 -0.22 l
0.09 -0.21 l
0.09 -0.21 l
0.09 -0.21 l
0.09 -0.21 l
0.08 -0.21 l
0.09 -0.21 l
0.09 -0.21 l
0.09 -0.20 l
0.09 -0.21 l
0.08 -0.21 l
0.09 -0.21 l
0.09 -0.20 l
0.09 -0.21 l
0.09 -0.21 l
0.09 -0.20 l
0.08 -0.21 l
0.09 -0.20 l
0.09 -0.20 l
0.09 -0.21 l
0.09 -0.20 l
0.08 -0.20 l
0.09 -0.20 l
0.09 -0.21 l
0.09 -0.20 l
0.09 -0.20 l
0.09 -0.20 l
0.08 -0.20 l
0.09 -0.20 l
0.09 -0.19 l
0.09 -0.20 l
0.09 -0.20 l
0.08 -0.20 l
0.09 -0.19 l
0.09 -0.20 l
0.09 -0.19 l
0.09 -0.20 l
0.09 -0.19 l
0.08 -0.20 l
0.09 -0.19 l
0.09 -0.20 l
0.09 -0.19 l
0.09 -0.19 l
0.08 -0.19 l
0.09 -0.19 l
0.09 -0.19 l
0.09 -0.19 l
0.09 -0.19 l
0.09 -0.19 l
0.08 -0.19 l
0.09 -0.19 l
0.09 -0.18 l
0.09 -0.19 l
0.09 -0.19 l
0.08 -0.18 l
0.09 -0.19 l
0.09 -0.18 l
0.09 -0.19 l
0.09 -0.18 l
0.09 -0.18 l
0.08 -0.19 l
0.09 -0.18 l
0.09 -0.18 l
0.09 -0.18 l
0.09 -0.18 l
0.08 -0.18 l
0.09 -0.18 l
0.09 -0.18 l
0.09 -0.18 l
0.09 -0.17 l
0.09 -0.18 l
0.08 -0.18 l
0.09 -0.17 l
0.09 -0.18 l
0.09 -0.17 l
0.09 -0.18 l
0.08 -0.17 l
0.09 -0.18 l
0.09 -0.17 l
0.09 -0.17 l
0.09 -0.17 l
0.09 -0.17 l
0.08 -0.17 l
0.09 -0.17 l
0.09 -0.17 l
0.09 -0.17 l
0.09 -0.17 l
0.08 -0.17 l
0.09 -0.16 l
0.09 -0.17 l
0.09 -0.17 l
0.09 -0.16 l
0.09 -0.17 l
0.08 -0.16 l
0.09 -0.16 l
0.09 -0.17 l
0.09 -0.16 l
0.09 -0.16 l
290.08 106.62 lineto
0.09 -0.16 l
0.09 -0.16 l
0.09 -0.16 l
0.09 -0.16 l
0.09 -0.16 l
0.08 -0.16 l
0.09 -0.16 l
0.09 -0.15 l
0.09 -0.16 l
0.09 -0.15 l
0.09 -0.16 l
0.08 -0.15 l
0.09 -0.16 l
0.09 -0.15 l
0.09 -0.15 l
0.09 -0.15 l
0.08 -0.16 l
0.09 -0.15 l
0.09 -0.15 l
0.09 -0.15 l
0.09 -0.15 l
0.09 -0.15 l
0.08 -0.14 l
0.09 -0.15 l
0.09 -0.15 l
0.09 -0.14 l
0.09 -0.15 l
0.08 -0.14 l
0.09 -0.15 l
0.09 -0.14 l
0.09 -0.15 l
0.09 -0.14 l
0.09 -0.14 l
0.08 -0.14 l
0.09 -0.14 l
0.09 -0.15 l
0.09 -0.14 l
0.09 -0.13 l
0.08 -0.14 l
0.09 -0.14 l
0.09 -0.14 l
0.09 -0.14 l
0.09 -0.13 l
0.09 -0.14 l
0.08 -0.13 l
0.09 -0.14 l
0.09 -0.13 l
0.09 -0.14 l
0.09 -0.13 l
0.08 -0.13 l
0.09 -0.14 l
0.09 -0.13 l
0.09 -0.13 l
0.09 -0.13 l
0.09 -0.13 l
0.08 -0.13 l
0.09 -0.13 l
0.09 -0.12 l
0.09 -0.13 l
0.09 -0.13 l
0.08 -0.12 l
0.09 -0.13 l
0.09 -0.13 l
0.09 -0.12 l
0.09 -0.12 l
0.09 -0.13 l
0.08 -0.12 l
0.09 -0.12 l
0.09 -0.13 l
0.09 -0.12 l
0.09 -0.12 l
0.08 -0.12 l
0.09 -0.12 l
0.09 -0.12 l
0.09 -0.11 l
0.09 -0.12 l
0.09 -0.12 l
0.08 -0.12 l
0.09 -0.11 l
0.09 -0.12 l
0.09 -0.11 l
0.09 -0.12 l
0.08 -0.11 l
0.09 -0.12 l
0.09 -0.11 l
0.09 -0.11 l
0.09 -0.11 l
0.09 -0.12 l
0.08 -0.11 l
0.09 -0.11 l
0.09 -0.11 l
0.09 -0.11 l
0.09 -0.11 l
0.08 -0.10 l
0.09 -0.11 l
0.09 -0.11 l
0.09 -0.11 l
0.09 -0.10 l
0.09 -0.11 l
298.90 93.37 lineto
0.09 -0.11 l
0.09 -0.10 l
0.09 -0.10 l
0.09 -0.11 l
0.08 -0.10 l
0.09 -0.10 l
0.09 -0.10 l
0.09 -0.10 l
0.09 -0.11 l
0.09 -0.10 l
0.08 -0.09 l
0.09 -0.10 l
0.09 -0.10 l
0.09 -0.10 l
0.09 -0.10 l
0.08 -0.09 l
0.09 -0.10 l
0.09 -0.10 l
0.09 -0.09 l
0.09 -0.10 l
0.09 -0.09 l
0.08 -0.09 l
0.09 -0.10 l
0.09 -0.09 l
0.09 -0.09 l
0.09 -0.10 l
0.08 -0.09 l
0.09 -0.09 l
0.09 -0.09 l
0.09 -0.09 l
0.09 -0.09 l
0.09 -0.09 l
0.08 -0.08 l
0.09 -0.09 l
0.09 -0.09 l
0.09 -0.09 l
0.09 -0.08 l
0.08 -0.09 l
0.09 -0.09 l
0.09 -0.08 l
0.09 -0.09 l
0.09 -0.08 l
0.09 -0.08 l
0.08 -0.09 l
0.09 -0.08 l
0.09 -0.08 l
0.09 -0.08 l
0.09 -0.09 l
0.08 -0.08 l
0.09 -0.08 l
0.09 -0.08 l
0.09 -0.08 l
0.09 -0.08 l
0.09 -0.07 l
0.08 -0.08 l
0.09 -0.08 l
0.09 -0.08 l
0.09 -0.07 l
0.09 -0.08 l
0.08 -0.08 l
0.09 -0.07 l
0.09 -0.08 l
0.09 -0.07 l
0.09 -0.08 l
0.09 -0.07 l
0.08 -0.07 l
0.09 -0.08 l
0.09 -0.07 l
0.09 -0.07 l
0.09 -0.07 l
0.08 -0.07 l
0.09 -0.07 l
0.09 -0.08 l
0.09 -0.07 l
0.09 -0.06 l
0.09 -0.07 l
0.08 -0.07 l
0.09 -0.07 l
0.09 -0.07 l
0.09 -0.07 l
0.09 -0.06 l
0.08 -0.07 l
0.09 -0.07 l
0.09 -0.06 l
0.09 -0.07 l
0.09 -0.06 l
0.09 -0.07 l
0.08 -0.06 l
0.09 -0.07 l
0.09 -0.06 l
0.09 -0.06 l
0.09 -0.06 l
0.08 -0.07 l
0.09 -0.06 l
0.09 -0.06 l
0.09 -0.06 l
0.09 -0.06 l
0.09 -0.06 l
0.08 -0.06 l
307.72 85.28 lineto
0.09 -0.06 l
0.09 -0.06 l
0.09 -0.06 l
0.08 -0.06 l
0.09 -0.05 l
0.09 -0.06 l
0.09 -0.06 l
0.09 -0.06 l
0.09 -0.05 l
0.08 -0.06 l
0.09 -0.05 l
0.09 -0.06 l
0.09 -0.05 l
0.09 -0.06 l
0.08 -0.05 l
0.09 -0.06 l
0.09 -0.05 l
0.09 -0.05 l
0.09 -0.05 l
0.09 -0.06 l
0.08 -0.05 l
0.09 -0.05 l
0.09 -0.05 l
0.09 -0.05 l
0.09 -0.05 l
0.08 -0.05 l
0.09 -0.05 l
0.09 -0.05 l
0.09 -0.05 l
0.09 -0.05 l
0.09 -0.05 l
0.08 -0.05 l
0.09 -0.05 l
0.09 -0.04 l
0.09 -0.05 l
0.09 -0.05 l
0.08 -0.05 l
0.09 -0.04 l
0.09 -0.05 l
0.09 -0.04 l
0.09 -0.05 l
0.09 -0.04 l
0.08 -0.05 l
0.09 -0.04 l
0.09 -0.05 l
0.09 -0.04 l
0.09 -0.05 l
0.08 -0.04 l
0.09 -0.04 l
0.09 -0.04 l
0.09 -0.05 l
0.09 -0.04 l
0.09 -0.04 l
0.08 -0.04 l
0.09 -0.04 l
0.09 -0.04 l
0.09 -0.05 l
0.09 -0.04 l
0.08 -0.04 l
0.09 -0.04 l
0.09 -0.03 l
0.09 -0.04 l
0.09 -0.04 l
0.09 -0.04 l
0.08 -0.04 l
0.09 -0.04 l
0.09 -0.04 l
0.09 -0.03 l
0.09 -0.04 l
0.08 -0.04 l
0.09 -0.03 l
0.09 -0.04 l
0.09 -0.04 l
0.09 -0.03 l
0.09 -0.04 l
0.08 -0.03 l
0.09 -0.04 l
0.09 -0.03 l
0.09 -0.04 l
0.09 -0.03 l
0.09 -0.04 l
0.08 -0.03 l
0.09 -0.04 l
0.09 -0.03 l
0.09 -0.03 l
0.09 -0.03 l
0.08 -0.04 l
0.09 -0.03 l
0.09 -0.03 l
0.09 -0.03 l
0.09 -0.04 l
0.09 -0.03 l
0.08 -0.03 l
0.09 -0.03 l
0.09 -0.03 l
0.09 -0.03 l
0.09 -0.03 l
0.08 -0.03 l
0.09 -0.03 l
316.54 80.96 lineto
0.09 -0.03 l
0.09 -0.03 l
0.09 -0.03 l
0.08 -0.03 l
0.09 -0.03 l
0.09 -0.02 l
0.09 -0.03 l
0.09 -0.03 l
0.08 -0.03 l
0.09 -0.02 l
0.09 -0.03 l
0.09 -0.03 l
0.09 -0.03 l
0.09 -0.02 l
0.08 -0.03 l
0.09 -0.02 l
0.09 -0.03 l
0.09 -0.03 l
0.09 -0.02 l
0.08 -0.03 l
0.09 -0.02 l
0.09 -0.03 l
0.09 -0.02 l
0.09 -0.03 l
0.09 -0.02 l
0.08 -0.03 l
0.09 -0.02 l
0.09 -0.02 l
0.09 -0.03 l
0.09 -0.02 l
0.08 -0.02 l
0.09 -0.03 l
0.09 -0.02 l
0.09 -0.02 l
0.09 -0.02 l
0.09 -0.03 l
0.08 -0.02 l
0.09 -0.02 l
0.09 -0.02 l
0.09 -0.02 l
0.09 -0.03 l
0.08 -0.02 l
0.09 -0.02 l
0.09 -0.02 l
0.09 -0.02 l
0.09 -0.02 l
0.09 -0.02 l
0.08 -0.02 l
0.09 -0.02 l
0.09 -0.02 l
0.09 -0.02 l
0.09 -0.02 l
0.08 -0.02 l
0.09 -0.02 l
0.09 -0.02 l
0.09 -0.02 l
0.09 -0.02 l
0.09 -0.01 l
0.08 -0.02 l
0.09 -0.02 l
0.09 -0.02 l
0.09 -0.02 l
0.09 -0.02 l
0.08 -0.01 l
0.09 -0.02 l
0.09 -0.02 l
0.09 -0.02 l
0.09 -0.01 l
0.09 -0.02 l
0.08 -0.02 l
0.09 -0.01 l
0.09 -0.02 l
0.09 -0.02 l
0.09 -0.01 l
0.08 -0.02 l
0.09 -0.01 l
0.09 -0.02 l
0.09 -0.02 l
0.09 -0.01 l
0.09 -0.02 l
0.08 -0.01 l
0.09 -0.02 l
0.09 -0.01 l
0.09 -0.02 l
0.09 -0.01 l
0.08 -0.02 l
0.09 -0.01 l
0.09 -0.02 l
0.09 -0.01 l
0.09 -0.01 l
0.09 -0.02 l
0.08 -0.01 l
0.09 -0.02 l
0.09 -0.01 l
0.09 -0.01 l
0.09 -0.02 l
0.08 -0.01 l
0.09 -0.01 l
0.09 -0.02 l
325.36 78.93 lineto
0.09 -0.01 l
0.09 -0.01 l
0.08 -0.02 l
0.09 -0.01 l
0.09 -0.01 l
0.09 -0.01 l
0.09 -0.02 l
0.08 -0.01 l
0.09 -0.01 l
0.09 -0.01 l
0.09 -0.01 l
0.09 -0.02 l
0.09 -0.01 l
0.08 -0.01 l
0.09 -0.01 l
0.09 -0.01 l
0.09 -0.01 l
0.09 -0.01 l
0.08 -0.01 l
0.09 -0.02 l
0.09 -0.01 l
0.09 -0.01 l
0.09 -0.01 l
0.09 -0.01 l
0.08 -0.01 l
0.09 -0.01 l
0.09 -0.01 l
0.09 -0.01 l
0.09 -0.01 l
0.08 -0.01 l
0.09 -0.01 l
0.09 -0.01 l
0.09 -0.01 l
0.09 -0.01 l
0.09 -0.01 l
0.08 -0.01 l
0.09 -0.01 l
0.09 0 l
0.09 -0.01 l
0.09 -0.01 l
0.08 -0.01 l
0.09 -0.01 l
0.09 -0.01 l
0.09 -0.01 l
0.09 -0.01 l
0.09 0 l
0.08 -0.01 l
0.09 -0.01 l
0.09 -0.01 l
0.09 -0.01 l
0.09 -0.01 l
0.08 0 l
0.09 -0.01 l
0.09 -0.01 l
0.09 -0.01 l
0.09 -0.01 l
0.09 0 l
0.08 -0.01 l
0.09 -0.01 l
0.09 -0.01 l
0.09 0 l
0.09 -0.01 l
0.08 -0.01 l
0.09 0 l
0.09 -0.01 l
0.09 -0.01 l
0.09 -0.01 l
0.09 0 l
0.08 -0.01 l
0.09 -0.01 l
0.09 0 l
0.09 -0.01 l
0.09 -0.01 l
0.08 0 l
0.09 -0.01 l
0.09 -0.01 l
0.09 0 l
0.09 -0.01 l
0.09 0 l
0.08 -0.01 l
0.09 -0.01 l
0.09 0 l
0.09 -0.01 l
0.09 0 l
0.08 -0.01 l
0.09 -0.01 l
0.09 0 l
0.09 -0.01 l
0.09 0 l
0.09 -0.01 l
0.08 0 l
0.09 -0.01 l
0.09 0 l
0.09 -0.01 l
0.09 -0.01 l
0.08 0 l
0.09 -0.01 l
0.09 0 l
0.09 -0.01 l
currentpoint o m
334.18 78.09 lineto
o
0.00 0.00 375.00 258.00 cl
0 0 0 srgb
0.75 setlinewidth
[] 0 setdash
1 setlinecap
1 setlinejoin
10.00 setmiterlimit
np
69.62 73.44 m
264.56 0 l
o
np
69.62 73.44 m
0 -7.20 l
o
np
113.71 73.44 m
0 -7.20 l
o
np
157.81 73.44 m
0 -7.20 l
o
np
201.90 73.44 m
0 -7.20 l
o
np
245.99 73.44 m
0 -7.20 l
o
np
290.08 73.44 m
0 -7.20 l
o
np
334.18 73.44 m
0 -7.20 l
o
/Font1 findfont 12 s
69.62 47.52 (-15) .5 0 t
113.71 47.52 (-10) .5 0 t
157.81 47.52 (-5) .5 0 t
201.90 47.52 (0) .5 0 t
245.99 47.52 (5) .5 0 t
290.08 47.52 (10) .5 0 t
334.18 47.52 (15) .5 0 t
np
59.04 77.64 m
0 104.87 l
o
np
59.04 77.64 m
-7.20 0 l
o
np
59.04 95.12 m
-7.20 0 l
o
np
59.04 112.60 m
-7.20 0 l
o
np
59.04 130.07 m
-7.20 0 l
o
np
59.04 147.55 m
-7.20 0 l
o
np
59.04 165.03 m
-7.20 0 l
o
np
59.04 182.51 m
-7.20 0 l
o
41.76 77.64 (0.00) .5 90 t
41.76 112.60 (0.02) .5 90 t
41.76 147.55 (0.04) .5 90 t
41.76 182.51 (0.06) .5 90 t
np
59.04 73.44 m
285.72 0 l
0 125.52 l
-285.72 0 l
0 -125.52 l
o
0.00 0.00 375.00 258.00 cl
/Font2 findfont 14 s
0 0 0 srgb
138.49 223.45 (Pr) 0 ta
-0.280 (obability Density) tb gr
/Font1 findfont 12 s
201.90 18.72 (x) .5 0 t
12.96 100.19 (Prob) 90 ta
-0.480 (. Density) tb gr
ep
%%Trailer
%%Pages: 1
%%EOF
