%!PS-Adobe-3.0 EPSF-3.0
%%DocumentNeededResources: font Helvetica
%%+ font Helvetica-Bold
%%+ font Helvetica-Oblique
%%+ font Helvetica-BoldOblique
%%+ font Symbol
%%Title: R Graphics Output
%%Creator: R Software
%%Pages: (atend)
%%BoundingBox: 0 0 375 258
%%EndComments
%%BeginProlog
/bp  { gs sRGB gs } def
% begin .ps.prolog
/gs  { gsave } bind def
/gr  { grestore } bind def
/ep  { showpage gr gr } bind def
/m   { moveto } bind def
/l  { rlineto } bind def
/np  { newpath } bind def
/cp  { closepath } bind def
/f   { fill } bind def
/o   { stroke } bind def
/c   { newpath 0 360 arc } bind def
/r   { 4 2 roll moveto 1 copy 3 -1 roll exch 0 exch rlineto 0 rlineto -1 mul 0 exch rlineto closepath } bind def
/p1  { stroke } bind def
/p2  { gsave bg fill grestore newpath } bind def
/p3  { gsave bg fill grestore stroke } bind def
/p6  { gsave bg eofill grestore newpath } bind def
/p7  { gsave bg eofill grestore stroke } bind def
/t   { 5 -2 roll moveto gsave rotate
       1 index stringwidth pop
       mul neg 0 rmoveto show grestore } bind def
/ta  { 4 -2 roll moveto gsave rotate show } bind def
/tb  { 2 -1 roll 0 rmoveto show } bind def
/cl  { grestore gsave newpath 3 index 3 index moveto 1 index
       4 -1 roll lineto  exch 1 index lineto lineto
       closepath clip newpath } bind def
/rgb { setrgbcolor } bind def
/s   { scalefont setfont } bind def
% end   .ps.prolog
/sRGB { [ /CIEBasedABC
          << /DecodeLMN
               [ { dup 0.03928 le
                        {12.92321 div}
                        {0.055 add 1.055 div 2.4 exp }
                     ifelse
                 } bind dup dup
               ]
             /MatrixLMN [0.412457 0.212673 0.019334
                         0.357576 0.715152 0.119192
                         0.180437 0.072175 0.950301]
             /WhitePoint [0.9505 1.0 1.0890]
           >>
         ] setcolorspace } bind def
/srgb { setcolor } bind def
%%IncludeResource: font Helvetica
/Helvetica findfont
dup length dict begin
  {1 index /FID ne {def} {pop pop} ifelse} forall
  /Encoding ISOLatin1Encoding def
  currentdict
  end
/Font1 exch definefont pop
%%IncludeResource: font Helvetica-Bold
/Helvetica-Bold findfont
dup length dict begin
  {1 index /FID ne {def} {pop pop} ifelse} forall
  /Encoding ISOLatin1Encoding def
  currentdict
  end
/Font2 exch definefont pop
%%IncludeResource: font Helvetica-Oblique
/Helvetica-Oblique findfont
dup length dict begin
  {1 index /FID ne {def} {pop pop} ifelse} forall
  /Encoding ISOLatin1Encoding def
  currentdict
  end
/Font3 exch definefont pop
%%IncludeResource: font Helvetica-BoldOblique
/Helvetica-BoldOblique findfont
dup length dict begin
  {1 index /FID ne {def} {pop pop} ifelse} forall
  /Encoding ISOLatin1Encoding def
  currentdict
  end
/Font4 exch definefont pop
%%IncludeResource: font Symbol
/Symbol findfont
dup length dict begin
  {1 index /FID ne {def} {pop pop} ifelse} forall
  currentdict
  end
/Font5 exch definefont pop
%%EndProlog
%%Page: 1 1
bp
/bg { 1 1 1 srgb } def
0.00 0.00 375.00 258.00 r p2
59.04 73.44 344.76 198.96 cl
1 0 0 srgb
0.75 setlinewidth
[] 0 setdash
1 setlinecap
1 setlinejoin
10.00 setmiterlimit
np
69.62 78.09 m
0.18 0.01 l
0.17 0.01 l
0.18 0.01 l
0.18 0.01 l
0.17 0.01 l
0.18 0.01 l
0.18 0.01 l
0.17 0.01 l
0.18 0.01 l
0.18 0.02 l
0.17 0.01 l
0.18 0.01 l
0.18 0.01 l
0.17 0.01 l
0.18 0.01 l
0.17 0.01 l
0.18 0.02 l
0.18 0.01 l
0.17 0.01 l
0.18 0.01 l
0.18 0.01 l
0.17 0.02 l
0.18 0.01 l
0.18 0.01 l
0.17 0.01 l
0.18 0.02 l
0.17 0.01 l
0.18 0.01 l
0.18 0.01 l
0.17 0.02 l
0.18 0.01 l
0.18 0.01 l
0.17 0.02 l
0.18 0.01 l
0.18 0.01 l
0.17 0.02 l
0.18 0.01 l
0.17 0.01 l
0.18 0.02 l
0.18 0.01 l
0.17 0.01 l
0.18 0.02 l
0.18 0.01 l
0.17 0.02 l
0.18 0.01 l
0.18 0.02 l
0.17 0.01 l
0.18 0.02 l
0.17 0.01 l
0.18 0.02 l
0.18 0.01 l
0.17 0.02 l
0.18 0.01 l
0.18 0.02 l
0.17 0.01 l
0.18 0.02 l
0.18 0.01 l
0.17 0.02 l
0.18 0.01 l
0.17 0.02 l
0.18 0.02 l
0.18 0.01 l
0.17 0.02 l
0.18 0.02 l
0.18 0.01 l
0.17 0.02 l
0.18 0.02 l
0.18 0.01 l
0.17 0.02 l
0.18 0.02 l
0.17 0.01 l
0.18 0.02 l
0.18 0.02 l
0.17 0.02 l
0.18 0.02 l
0.18 0.01 l
0.17 0.02 l
0.18 0.02 l
0.18 0.02 l
0.17 0.02 l
0.18 0.01 l
0.17 0.02 l
0.18 0.02 l
0.18 0.02 l
0.17 0.02 l
0.18 0.02 l
0.18 0.02 l
0.17 0.02 l
0.18 0.02 l
0.18 0.02 l
0.17 0.02 l
0.18 0.02 l
0.17 0.02 l
0.18 0.02 l
0.18 0.02 l
0.17 0.02 l
0.18 0.02 l
0.18 0.02 l
0.17 0.02 l
87.26 79.61 lineto
0.18 0.02 l
0.17 0.03 l
0.18 0.02 l
0.17 0.02 l
0.18 0.02 l
0.18 0.02 l
0.17 0.02 l
0.18 0.03 l
0.18 0.02 l
0.17 0.02 l
0.18 0.02 l
0.18 0.03 l
0.17 0.02 l
0.18 0.02 l
0.17 0.03 l
0.18 0.02 l
0.18 0.02 l
0.17 0.03 l
0.18 0.02 l
0.18 0.03 l
0.17 0.02 l
0.18 0.02 l
0.18 0.03 l
0.17 0.02 l
0.18 0.03 l
0.17 0.02 l
0.18 0.03 l
0.18 0.02 l
0.17 0.03 l
0.18 0.03 l
0.18 0.02 l
0.17 0.03 l
0.18 0.02 l
0.18 0.03 l
0.17 0.03 l
0.18 0.02 l
0.17 0.03 l
0.18 0.03 l
0.18 0.02 l
0.17 0.03 l
0.18 0.03 l
0.18 0.03 l
0.17 0.03 l
0.18 0.02 l
0.18 0.03 l
0.17 0.03 l
0.18 0.03 l
0.18 0.03 l
0.17 0.03 l
0.18 0.03 l
0.17 0.02 l
0.18 0.03 l
0.18 0.03 l
0.17 0.03 l
0.18 0.03 l
0.18 0.03 l
0.17 0.03 l
0.18 0.03 l
0.18 0.04 l
0.17 0.03 l
0.18 0.03 l
0.17 0.03 l
0.18 0.03 l
0.18 0.03 l
0.17 0.03 l
0.18 0.04 l
0.18 0.03 l
0.17 0.03 l
0.18 0.03 l
0.18 0.04 l
0.17 0.03 l
0.18 0.03 l
0.17 0.04 l
0.18 0.03 l
0.18 0.03 l
0.17 0.04 l
0.18 0.03 l
0.18 0.04 l
0.17 0.03 l
0.18 0.03 l
0.18 0.04 l
0.17 0.03 l
0.18 0.04 l
0.17 0.04 l
0.18 0.03 l
0.18 0.04 l
0.17 0.03 l
0.18 0.04 l
0.18 0.04 l
0.17 0.03 l
0.18 0.04 l
0.18 0.04 l
0.17 0.04 l
0.18 0.03 l
0.17 0.04 l
0.18 0.04 l
0.18 0.04 l
0.17 0.04 l
0.18 0.03 l
104.90 82.56 lineto
0.17 0.04 l
0.18 0.04 l
0.18 0.04 l
0.17 0.04 l
0.18 0.04 l
0.17 0.04 l
0.18 0.04 l
0.18 0.04 l
0.17 0.04 l
0.18 0.05 l
0.18 0.04 l
0.17 0.04 l
0.18 0.04 l
0.18 0.04 l
0.17 0.04 l
0.18 0.05 l
0.17 0.04 l
0.18 0.04 l
0.18 0.05 l
0.17 0.04 l
0.18 0.04 l
0.18 0.05 l
0.17 0.04 l
0.18 0.05 l
0.18 0.04 l
0.17 0.04 l
0.18 0.05 l
0.17 0.05 l
0.18 0.04 l
0.18 0.05 l
0.17 0.04 l
0.18 0.05 l
0.18 0.05 l
0.17 0.04 l
0.18 0.05 l
0.18 0.05 l
0.17 0.04 l
0.18 0.05 l
0.17 0.05 l
0.18 0.05 l
0.18 0.05 l
0.17 0.05 l
0.18 0.04 l
0.18 0.05 l
0.17 0.05 l
0.18 0.05 l
0.18 0.05 l
0.17 0.05 l
0.18 0.05 l
0.17 0.05 l
0.18 0.06 l
0.18 0.05 l
0.17 0.05 l
0.18 0.05 l
0.18 0.05 l
0.17 0.05 l
0.18 0.06 l
0.18 0.05 l
0.17 0.05 l
0.18 0.06 l
0.17 0.05 l
0.18 0.05 l
0.18 0.06 l
0.17 0.05 l
0.18 0.06 l
0.18 0.05 l
0.17 0.06 l
0.18 0.05 l
0.18 0.06 l
0.17 0.05 l
0.18 0.06 l
0.17 0.06 l
0.18 0.05 l
0.18 0.06 l
0.17 0.06 l
0.18 0.05 l
0.18 0.06 l
0.17 0.06 l
0.18 0.06 l
0.18 0.06 l
0.17 0.06 l
0.18 0.06 l
0.17 0.06 l
0.18 0.06 l
0.18 0.06 l
0.17 0.06 l
0.18 0.06 l
0.18 0.06 l
0.17 0.06 l
0.18 0.06 l
0.18 0.06 l
0.17 0.06 l
0.18 0.07 l
0.18 0.06 l
0.17 0.06 l
0.18 0.06 l
0.17 0.07 l
0.18 0.06 l
0.18 0.07 l
122.53 87.68 lineto
0.18 0.06 l
0.18 0.07 l
0.17 0.06 l
0.18 0.07 l
0.18 0.07 l
0.17 0.06 l
0.18 0.07 l
0.17 0.06 l
0.18 0.07 l
0.18 0.07 l
0.17 0.07 l
0.18 0.06 l
0.18 0.07 l
0.17 0.07 l
0.18 0.07 l
0.18 0.07 l
0.17 0.07 l
0.18 0.07 l
0.17 0.07 l
0.18 0.07 l
0.18 0.07 l
0.17 0.07 l
0.18 0.07 l
0.18 0.07 l
0.17 0.07 l
0.18 0.07 l
0.18 0.08 l
0.17 0.07 l
0.18 0.07 l
0.17 0.07 l
0.18 0.08 l
0.18 0.07 l
0.17 0.07 l
0.18 0.08 l
0.18 0.07 l
0.17 0.08 l
0.18 0.07 l
0.18 0.08 l
0.17 0.07 l
0.18 0.08 l
0.17 0.08 l
0.18 0.07 l
0.18 0.08 l
0.17 0.08 l
0.18 0.08 l
0.18 0.07 l
0.17 0.08 l
0.18 0.08 l
0.18 0.08 l
0.17 0.08 l
0.18 0.08 l
0.17 0.08 l
0.18 0.08 l
0.18 0.08 l
0.17 0.08 l
0.18 0.08 l
0.18 0.08 l
0.17 0.08 l
0.18 0.09 l
0.18 0.08 l
0.17 0.08 l
0.18 0.08 l
0.17 0.09 l
0.18 0.08 l
0.18 0.08 l
0.17 0.09 l
0.18 0.08 l
0.18 0.09 l
0.17 0.08 l
0.18 0.09 l
0.18 0.08 l
0.17 0.09 l
0.18 0.09 l
0.17 0.08 l
0.18 0.09 l
0.18 0.09 l
0.17 0.08 l
0.18 0.09 l
0.18 0.09 l
0.17 0.09 l
0.18 0.09 l
0.18 0.09 l
0.17 0.09 l
0.18 0.09 l
0.17 0.09 l
0.18 0.09 l
0.18 0.09 l
0.17 0.09 l
0.18 0.09 l
0.18 0.09 l
0.17 0.09 l
0.18 0.10 l
0.18 0.09 l
0.17 0.09 l
0.18 0.10 l
0.17 0.09 l
0.18 0.09 l
0.18 0.10 l
0.17 0.09 l
140.17 95.63 lineto
0.18 0.09 l
0.17 0.10 l
0.18 0.09 l
0.18 0.10 l
0.17 0.10 l
0.18 0.09 l
0.17 0.10 l
0.18 0.10 l
0.18 0.09 l
0.17 0.10 l
0.18 0.10 l
0.18 0.10 l
0.17 0.10 l
0.18 0.10 l
0.18 0.10 l
0.17 0.10 l
0.18 0.10 l
0.17 0.10 l
0.18 0.10 l
0.18 0.10 l
0.17 0.10 l
0.18 0.10 l
0.18 0.11 l
0.17 0.10 l
0.18 0.10 l
0.18 0.10 l
0.17 0.11 l
0.18 0.10 l
0.18 0.11 l
0.17 0.10 l
0.18 0.10 l
0.17 0.11 l
0.18 0.11 l
0.18 0.10 l
0.17 0.11 l
0.18 0.10 l
0.18 0.11 l
0.17 0.11 l
0.18 0.10 l
0.18 0.11 l
0.17 0.11 l
0.18 0.11 l
0.17 0.11 l
0.18 0.10 l
0.18 0.11 l
0.17 0.11 l
0.18 0.11 l
0.18 0.11 l
0.17 0.11 l
0.18 0.11 l
0.18 0.11 l
0.17 0.11 l
0.18 0.12 l
0.17 0.11 l
0.18 0.11 l
0.18 0.11 l
0.17 0.12 l
0.18 0.11 l
0.18 0.11 l
0.17 0.12 l
0.18 0.11 l
0.18 0.11 l
0.17 0.12 l
0.18 0.11 l
0.17 0.12 l
0.18 0.11 l
0.18 0.12 l
0.17 0.12 l
0.18 0.11 l
0.18 0.12 l
0.17 0.12 l
0.18 0.11 l
0.18 0.12 l
0.17 0.12 l
0.18 0.12 l
0.17 0.11 l
0.18 0.12 l
0.18 0.12 l
0.17 0.12 l
0.18 0.12 l
0.18 0.12 l
0.17 0.12 l
0.18 0.12 l
0.18 0.12 l
0.17 0.12 l
0.18 0.12 l
0.17 0.13 l
0.18 0.12 l
0.18 0.12 l
0.17 0.12 l
0.18 0.13 l
0.18 0.12 l
0.17 0.12 l
0.18 0.13 l
0.18 0.12 l
0.17 0.12 l
0.18 0.13 l
0.17 0.12 l
0.18 0.13 l
157.81 106.68 lineto
0.17 0.13 l
0.18 0.12 l
0.18 0.13 l
0.17 0.13 l
0.18 0.12 l
0.18 0.13 l
0.17 0.13 l
0.18 0.13 l
0.17 0.12 l
0.18 0.13 l
0.18 0.13 l
0.17 0.13 l
0.18 0.13 l
0.18 0.13 l
0.17 0.13 l
0.18 0.13 l
0.18 0.13 l
0.17 0.13 l
0.18 0.13 l
0.17 0.13 l
0.18 0.13 l
0.18 0.13 l
0.17 0.13 l
0.18 0.13 l
0.18 0.14 l
0.17 0.13 l
0.18 0.13 l
0.18 0.13 l
0.17 0.14 l
0.18 0.13 l
0.17 0.13 l
0.18 0.14 l
0.18 0.13 l
0.17 0.14 l
0.18 0.13 l
0.18 0.13 l
0.17 0.14 l
0.18 0.13 l
0.18 0.14 l
0.17 0.14 l
0.18 0.13 l
0.17 0.14 l
0.18 0.14 l
0.18 0.13 l
0.17 0.14 l
0.18 0.14 l
0.18 0.13 l
0.17 0.14 l
0.18 0.14 l
0.18 0.14 l
0.17 0.14 l
0.18 0.13 l
0.17 0.14 l
0.18 0.14 l
0.18 0.14 l
0.17 0.14 l
0.18 0.14 l
0.18 0.14 l
0.17 0.14 l
0.18 0.14 l
0.18 0.14 l
0.17 0.14 l
0.18 0.14 l
0.18 0.15 l
0.17 0.14 l
0.18 0.14 l
0.17 0.14 l
0.18 0.14 l
0.18 0.14 l
0.17 0.15 l
0.18 0.14 l
0.18 0.14 l
0.17 0.15 l
0.18 0.14 l
0.18 0.14 l
0.17 0.15 l
0.18 0.14 l
0.17 0.15 l
0.18 0.14 l
0.18 0.14 l
0.17 0.15 l
0.18 0.14 l
0.18 0.15 l
0.17 0.14 l
0.18 0.15 l
0.18 0.15 l
0.17 0.14 l
0.18 0.15 l
0.17 0.14 l
0.18 0.15 l
0.18 0.15 l
0.17 0.14 l
0.18 0.15 l
0.18 0.15 l
0.17 0.14 l
0.18 0.15 l
0.18 0.15 l
0.17 0.15 l
0.18 0.15 l
175.44 120.46 lineto
0.18 0.15 l
0.18 0.15 l
0.17 0.15 l
0.18 0.15 l
0.18 0.15 l
0.17 0.15 l
0.18 0.15 l
0.18 0.14 l
0.17 0.15 l
0.18 0.15 l
0.17 0.15 l
0.18 0.15 l
0.18 0.15 l
0.17 0.15 l
0.18 0.15 l
0.18 0.16 l
0.17 0.15 l
0.18 0.15 l
0.18 0.15 l
0.17 0.15 l
0.18 0.15 l
0.17 0.15 l
0.18 0.15 l
0.18 0.15 l
0.17 0.16 l
0.18 0.15 l
0.18 0.15 l
0.17 0.15 l
0.18 0.16 l
0.18 0.15 l
0.17 0.15 l
0.18 0.15 l
0.17 0.16 l
0.18 0.15 l
0.18 0.15 l
0.17 0.15 l
0.18 0.16 l
0.18 0.15 l
0.17 0.15 l
0.18 0.16 l
0.18 0.15 l
0.17 0.16 l
0.18 0.15 l
0.17 0.15 l
0.18 0.16 l
0.18 0.15 l
0.17 0.16 l
0.18 0.15 l
0.18 0.15 l
0.17 0.16 l
0.18 0.15 l
0.18 0.16 l
0.17 0.15 l
0.18 0.16 l
0.17 0.15 l
0.18 0.16 l
0.18 0.15 l
0.17 0.16 l
0.18 0.15 l
0.18 0.16 l
0.17 0.15 l
0.18 0.16 l
0.18 0.15 l
0.17 0.16 l
0.18 0.16 l
0.17 0.15 l
0.18 0.16 l
0.18 0.15 l
0.17 0.16 l
0.18 0.15 l
0.18 0.16 l
0.17 0.16 l
0.18 0.15 l
0.18 0.16 l
0.17 0.15 l
0.18 0.16 l
0.17 0.16 l
0.18 0.15 l
0.18 0.16 l
0.17 0.16 l
0.18 0.15 l
0.18 0.16 l
0.17 0.15 l
0.18 0.16 l
0.18 0.16 l
0.17 0.15 l
0.18 0.16 l
0.17 0.16 l
0.18 0.15 l
0.18 0.16 l
0.17 0.16 l
0.18 0.15 l
0.18 0.16 l
0.17 0.16 l
0.18 0.15 l
0.18 0.16 l
0.17 0.16 l
0.18 0.15 l
0.17 0.16 l
193.08 135.85 lineto
0.18 0.15 l
0.17 0.16 l
0.18 0.16 l
0.18 0.15 l
0.17 0.16 l
0.18 0.16 l
0.18 0.15 l
0.17 0.16 l
0.18 0.16 l
0.18 0.15 l
0.17 0.16 l
0.18 0.16 l
0.17 0.15 l
0.18 0.16 l
0.18 0.16 l
0.17 0.15 l
0.18 0.16 l
0.18 0.16 l
0.17 0.15 l
0.18 0.16 l
0.18 0.16 l
0.17 0.15 l
0.18 0.16 l
0.17 0.15 l
0.18 0.16 l
0.18 0.16 l
0.17 0.15 l
0.18 0.16 l
0.18 0.15 l
0.17 0.16 l
0.18 0.16 l
0.18 0.15 l
0.17 0.16 l
0.18 0.15 l
0.17 0.16 l
0.18 0.15 l
0.18 0.16 l
0.17 0.16 l
0.18 0.15 l
0.18 0.16 l
0.17 0.15 l
0.18 0.16 l
0.18 0.15 l
0.17 0.16 l
0.18 0.15 l
0.17 0.16 l
0.18 0.15 l
0.18 0.16 l
0.17 0.15 l
0.18 0.16 l
0.18 0.15 l
0.17 0.15 l
0.18 0.16 l
0.18 0.15 l
0.17 0.16 l
0.18 0.15 l
0.17 0.16 l
0.18 0.15 l
0.18 0.15 l
0.17 0.16 l
0.18 0.15 l
0.18 0.15 l
0.17 0.16 l
0.18 0.15 l
0.18 0.15 l
0.17 0.16 l
0.18 0.15 l
0.17 0.15 l
0.18 0.15 l
0.18 0.16 l
0.17 0.15 l
0.18 0.15 l
0.18 0.15 l
0.17 0.16 l
0.18 0.15 l
0.18 0.15 l
0.17 0.15 l
0.18 0.15 l
0.17 0.15 l
0.18 0.16 l
0.18 0.15 l
0.17 0.15 l
0.18 0.15 l
0.18 0.15 l
0.17 0.15 l
0.18 0.15 l
0.18 0.15 l
0.17 0.15 l
0.18 0.15 l
0.17 0.15 l
0.18 0.15 l
0.18 0.15 l
0.17 0.15 l
0.18 0.15 l
0.18 0.15 l
0.17 0.15 l
0.18 0.15 l
0.18 0.14 l
0.17 0.15 l
210.72 151.23 lineto
0.17 0.15 l
0.18 0.15 l
0.18 0.14 l
0.17 0.15 l
0.18 0.15 l
0.18 0.15 l
0.17 0.14 l
0.18 0.15 l
0.18 0.15 l
0.17 0.14 l
0.18 0.15 l
0.17 0.15 l
0.18 0.14 l
0.18 0.15 l
0.17 0.14 l
0.18 0.15 l
0.18 0.15 l
0.17 0.14 l
0.18 0.15 l
0.18 0.14 l
0.17 0.15 l
0.18 0.14 l
0.17 0.14 l
0.18 0.15 l
0.18 0.14 l
0.17 0.14 l
0.18 0.15 l
0.18 0.14 l
0.17 0.14 l
0.18 0.15 l
0.18 0.14 l
0.17 0.14 l
0.18 0.14 l
0.17 0.15 l
0.18 0.14 l
0.18 0.14 l
0.17 0.14 l
0.18 0.14 l
0.18 0.14 l
0.17 0.14 l
0.18 0.14 l
0.18 0.14 l
0.17 0.14 l
0.18 0.14 l
0.18 0.14 l
0.17 0.14 l
0.18 0.14 l
0.17 0.14 l
0.18 0.14 l
0.18 0.14 l
0.17 0.14 l
0.18 0.13 l
0.18 0.14 l
0.17 0.14 l
0.18 0.14 l
0.18 0.13 l
0.17 0.14 l
0.18 0.14 l
0.17 0.13 l
0.18 0.14 l
0.18 0.13 l
0.17 0.14 l
0.18 0.14 l
0.18 0.13 l
0.17 0.13 l
0.18 0.14 l
0.18 0.13 l
0.17 0.14 l
0.18 0.13 l
0.17 0.14 l
0.18 0.13 l
0.18 0.13 l
0.17 0.13 l
0.18 0.14 l
0.18 0.13 l
0.17 0.13 l
0.18 0.13 l
0.18 0.13 l
0.17 0.14 l
0.18 0.13 l
0.17 0.13 l
0.18 0.13 l
0.18 0.13 l
0.17 0.13 l
0.18 0.13 l
0.18 0.13 l
0.17 0.13 l
0.18 0.13 l
0.18 0.12 l
0.17 0.13 l
0.18 0.13 l
0.17 0.13 l
0.18 0.13 l
0.18 0.12 l
0.17 0.13 l
0.18 0.13 l
0.18 0.12 l
0.17 0.13 l
0.18 0.13 l
228.36 165.01 lineto
0.17 0.13 l
0.18 0.12 l
0.17 0.13 l
0.18 0.12 l
0.18 0.12 l
0.17 0.13 l
0.18 0.12 l
0.18 0.13 l
0.17 0.12 l
0.18 0.12 l
0.18 0.12 l
0.17 0.13 l
0.18 0.12 l
0.17 0.12 l
0.18 0.12 l
0.18 0.12 l
0.17 0.12 l
0.18 0.12 l
0.18 0.12 l
0.17 0.12 l
0.18 0.12 l
0.18 0.12 l
0.17 0.12 l
0.18 0.12 l
0.17 0.12 l
0.18 0.12 l
0.18 0.11 l
0.17 0.12 l
0.18 0.12 l
0.18 0.12 l
0.17 0.11 l
0.18 0.12 l
0.18 0.12 l
0.17 0.11 l
0.18 0.12 l
0.17 0.11 l
0.18 0.12 l
0.18 0.11 l
0.17 0.12 l
0.18 0.11 l
0.18 0.11 l
0.17 0.12 l
0.18 0.11 l
0.18 0.11 l
0.17 0.11 l
0.18 0.12 l
0.17 0.11 l
0.18 0.11 l
0.18 0.11 l
0.17 0.11 l
0.18 0.11 l
0.18 0.11 l
0.17 0.11 l
0.18 0.11 l
0.18 0.11 l
0.17 0.11 l
0.18 0.11 l
0.17 0.11 l
0.18 0.11 l
0.18 0.10 l
0.17 0.11 l
0.18 0.11 l
0.18 0.11 l
0.17 0.10 l
0.18 0.11 l
0.18 0.10 l
0.17 0.11 l
0.18 0.10 l
0.17 0.11 l
0.18 0.10 l
0.18 0.11 l
0.17 0.10 l
0.18 0.11 l
0.18 0.10 l
0.17 0.10 l
0.18 0.11 l
0.18 0.10 l
0.17 0.10 l
0.18 0.10 l
0.18 0.10 l
0.17 0.11 l
0.18 0.10 l
0.17 0.10 l
0.18 0.10 l
0.18 0.10 l
0.17 0.10 l
0.18 0.10 l
0.18 0.09 l
0.17 0.10 l
0.18 0.10 l
0.18 0.10 l
0.17 0.10 l
0.18 0.09 l
0.17 0.10 l
0.18 0.10 l
0.18 0.10 l
0.17 0.09 l
0.18 0.10 l
0.18 0.09 l
currentpoint o m
245.99 176.07 lineto
0.18 0.09 l
0.18 0.10 l
0.17 0.09 l
0.18 0.10 l
0.17 0.09 l
0.18 0.09 l
0.18 0.10 l
0.17 0.09 l
0.18 0.09 l
0.18 0.09 l
0.17 0.09 l
0.18 0.10 l
0.18 0.09 l
0.17 0.09 l
0.18 0.09 l
0.17 0.09 l
0.18 0.09 l
0.18 0.09 l
0.17 0.09 l
0.18 0.09 l
0.18 0.08 l
0.17 0.09 l
0.18 0.09 l
0.18 0.09 l
0.17 0.08 l
0.18 0.09 l
0.17 0.09 l
0.18 0.08 l
0.18 0.09 l
0.17 0.09 l
0.18 0.08 l
0.18 0.09 l
0.17 0.08 l
0.18 0.09 l
0.18 0.08 l
0.17 0.08 l
0.18 0.09 l
0.17 0.08 l
0.18 0.08 l
0.18 0.09 l
0.17 0.08 l
0.18 0.08 l
0.18 0.08 l
0.17 0.08 l
0.18 0.09 l
0.18 0.08 l
0.17 0.08 l
0.18 0.08 l
0.17 0.08 l
0.18 0.08 l
0.18 0.07 l
0.17 0.08 l
0.18 0.08 l
0.18 0.08 l
0.17 0.08 l
0.18 0.08 l
0.18 0.07 l
0.17 0.08 l
0.18 0.08 l
0.17 0.07 l
0.18 0.08 l
0.18 0.08 l
0.17 0.07 l
0.18 0.08 l
0.18 0.07 l
0.17 0.08 l
0.18 0.07 l
0.18 0.07 l
0.17 0.08 l
0.18 0.07 l
0.17 0.07 l
0.18 0.08 l
0.18 0.07 l
0.17 0.07 l
0.18 0.07 l
0.18 0.08 l
0.17 0.07 l
0.18 0.07 l
0.18 0.07 l
0.17 0.07 l
0.18 0.07 l
0.17 0.07 l
0.18 0.07 l
0.18 0.07 l
0.17 0.07 l
0.18 0.06 l
0.18 0.07 l
0.17 0.07 l
0.18 0.07 l
0.18 0.07 l
0.17 0.06 l
0.18 0.07 l
0.17 0.07 l
0.18 0.06 l
0.18 0.07 l
0.17 0.06 l
0.18 0.07 l
0.18 0.07 l
0.17 0.06 l
263.63 184.01 lineto
0.18 0.07 l
0.17 0.06 l
0.18 0.07 l
0.17 0.06 l
0.18 0.06 l
0.18 0.07 l
0.17 0.06 l
0.18 0.06 l
0.18 0.06 l
0.17 0.06 l
0.18 0.07 l
0.18 0.06 l
0.17 0.06 l
0.18 0.06 l
0.18 0.06 l
0.17 0.06 l
0.18 0.06 l
0.17 0.06 l
0.18 0.06 l
0.18 0.06 l
0.17 0.06 l
0.18 0.05 l
0.18 0.06 l
0.17 0.06 l
0.18 0.06 l
0.18 0.05 l
0.17 0.06 l
0.18 0.06 l
0.17 0.05 l
0.18 0.06 l
0.18 0.06 l
0.17 0.05 l
0.18 0.06 l
0.18 0.05 l
0.17 0.06 l
0.18 0.05 l
0.18 0.06 l
0.17 0.05 l
0.18 0.06 l
0.17 0.05 l
0.18 0.05 l
0.18 0.06 l
0.17 0.05 l
0.18 0.05 l
0.18 0.05 l
0.17 0.05 l
0.18 0.06 l
0.18 0.05 l
0.17 0.05 l
0.18 0.05 l
0.17 0.05 l
0.18 0.05 l
0.18 0.05 l
0.17 0.05 l
0.18 0.05 l
0.18 0.05 l
0.17 0.05 l
0.18 0.05 l
0.18 0.05 l
0.17 0.05 l
0.18 0.04 l
0.17 0.05 l
0.18 0.05 l
0.18 0.05 l
0.17 0.05 l
0.18 0.04 l
0.18 0.05 l
0.17 0.05 l
0.18 0.04 l
0.18 0.05 l
0.17 0.04 l
0.18 0.05 l
0.17 0.04 l
0.18 0.05 l
0.18 0.04 l
0.17 0.05 l
0.18 0.04 l
0.18 0.05 l
0.17 0.04 l
0.18 0.05 l
0.18 0.04 l
0.17 0.04 l
0.18 0.04 l
0.17 0.05 l
0.18 0.04 l
0.18 0.04 l
0.17 0.04 l
0.18 0.05 l
0.18 0.04 l
0.17 0.04 l
0.18 0.04 l
0.18 0.04 l
0.17 0.04 l
0.18 0.04 l
0.17 0.04 l
0.18 0.04 l
0.18 0.04 l
0.17 0.04 l
0.18 0.04 l
281.27 189.13 lineto
0.17 0.04 l
0.18 0.04 l
0.18 0.04 l
0.17 0.04 l
0.18 0.03 l
0.17 0.04 l
0.18 0.04 l
0.18 0.04 l
0.17 0.03 l
0.18 0.04 l
0.18 0.04 l
0.17 0.03 l
0.18 0.04 l
0.18 0.04 l
0.17 0.03 l
0.18 0.04 l
0.17 0.03 l
0.18 0.04 l
0.18 0.04 l
0.17 0.03 l
0.18 0.03 l
0.18 0.04 l
0.17 0.03 l
0.18 0.04 l
0.18 0.03 l
0.17 0.04 l
0.18 0.03 l
0.17 0.03 l
0.18 0.04 l
0.18 0.03 l
0.17 0.03 l
0.18 0.03 l
0.18 0.04 l
0.17 0.03 l
0.18 0.03 l
0.18 0.03 l
0.17 0.03 l
0.18 0.04 l
0.17 0.03 l
0.18 0.03 l
0.18 0.03 l
0.17 0.03 l
0.18 0.03 l
0.18 0.03 l
0.17 0.03 l
0.18 0.03 l
0.18 0.03 l
0.17 0.03 l
0.18 0.03 l
0.17 0.03 l
0.18 0.03 l
0.18 0.03 l
0.17 0.03 l
0.18 0.02 l
0.18 0.03 l
0.17 0.03 l
0.18 0.03 l
0.18 0.03 l
0.17 0.03 l
0.18 0.02 l
0.18 0.03 l
0.17 0.03 l
0.18 0.02 l
0.17 0.03 l
0.18 0.03 l
0.18 0.02 l
0.17 0.03 l
0.18 0.03 l
0.18 0.02 l
0.17 0.03 l
0.18 0.02 l
0.18 0.03 l
0.17 0.03 l
0.18 0.02 l
0.17 0.03 l
0.18 0.02 l
0.18 0.02 l
0.17 0.03 l
0.18 0.02 l
0.18 0.03 l
0.17 0.02 l
0.18 0.03 l
0.18 0.02 l
0.17 0.02 l
0.18 0.03 l
0.17 0.02 l
0.18 0.02 l
0.18 0.03 l
0.17 0.02 l
0.18 0.02 l
0.18 0.02 l
0.17 0.03 l
0.18 0.02 l
0.18 0.02 l
0.17 0.02 l
0.18 0.03 l
0.17 0.02 l
0.18 0.02 l
0.18 0.02 l
298.90 192.08 lineto
0.18 0.02 l
0.18 0.02 l
0.17 0.02 l
0.18 0.03 l
0.18 0.02 l
0.17 0.02 l
0.18 0.02 l
0.17 0.02 l
0.18 0.02 l
0.18 0.02 l
0.17 0.02 l
0.18 0.02 l
0.18 0.02 l
0.17 0.01 l
0.18 0.02 l
0.18 0.02 l
0.17 0.02 l
0.18 0.02 l
0.17 0.02 l
0.18 0.02 l
0.18 0.02 l
0.17 0.02 l
0.18 0.01 l
0.18 0.02 l
0.17 0.02 l
0.18 0.02 l
0.18 0.01 l
0.17 0.02 l
0.18 0.02 l
0.17 0.02 l
0.18 0.01 l
0.18 0.02 l
0.17 0.02 l
0.18 0.02 l
0.18 0.01 l
0.17 0.02 l
0.18 0.02 l
0.18 0.01 l
0.17 0.02 l
0.18 0.01 l
0.17 0.02 l
0.18 0.02 l
0.18 0.01 l
0.17 0.02 l
0.18 0.01 l
0.18 0.02 l
0.17 0.01 l
0.18 0.02 l
0.18 0.01 l
0.17 0.02 l
0.18 0.01 l
0.17 0.02 l
0.18 0.01 l
0.18 0.02 l
0.17 0.01 l
0.18 0.02 l
0.18 0.01 l
0.17 0.02 l
0.18 0.01 l
0.18 0.01 l
0.17 0.02 l
0.18 0.01 l
0.17 0.02 l
0.18 0.01 l
0.18 0.01 l
0.17 0.02 l
0.18 0.01 l
0.18 0.01 l
0.17 0.02 l
0.18 0.01 l
0.18 0.01 l
0.17 0.01 l
0.18 0.02 l
0.17 0.01 l
0.18 0.01 l
0.18 0.01 l
0.17 0.02 l
0.18 0.01 l
0.18 0.01 l
0.17 0.01 l
0.18 0.01 l
0.18 0.02 l
0.17 0.01 l
0.18 0.01 l
0.17 0.01 l
0.18 0.01 l
0.18 0.01 l
0.17 0.02 l
0.18 0.01 l
0.18 0.01 l
0.17 0.01 l
0.18 0.01 l
0.18 0.01 l
0.17 0.01 l
0.18 0.01 l
0.18 0.01 l
0.17 0.01 l
0.18 0.01 l
0.17 0.02 l
316.54 193.61 lineto
0.18 0.01 l
0.17 0.01 l
0.18 0.01 l
0.18 0.01 l
0.17 0.01 l
0.18 0.01 l
0.18 0.01 l
0.17 0.01 l
0.18 0.01 l
0.17 0 l
0.18 0.01 l
0.18 0.01 l
0.17 0.01 l
0.18 0.01 l
0.18 0.01 l
0.17 0.01 l
0.18 0.01 l
0.18 0.01 l
0.17 0.01 l
0.18 0.01 l
0.17 0.01 l
0.18 0 l
0.18 0.01 l
0.17 0.01 l
0.18 0.01 l
0.18 0.01 l
0.17 0.01 l
0.18 0 l
0.18 0.01 l
0.17 0.01 l
0.18 0.01 l
0.17 0.01 l
0.18 0 l
0.18 0.01 l
0.17 0.01 l
0.18 0.01 l
0.18 0.01 l
0.17 0 l
0.18 0.01 l
0.18 0.01 l
0.17 0.01 l
0.18 0 l
0.17 0.01 l
0.18 0.01 l
0.18 0.01 l
0.17 0 l
0.18 0.01 l
0.18 0.01 l
0.17 0 l
0.18 0.01 l
0.18 0.01 l
0.17 0 l
0.18 0.01 l
0.17 0.01 l
0.18 0 l
0.18 0.01 l
0.17 0.01 l
0.18 0 l
0.18 0.01 l
0.17 0.01 l
0.18 0 l
0.18 0.01 l
0.17 0.01 l
0.18 0 l
0.17 0.01 l
0.18 0 l
0.18 0.01 l
0.17 0.01 l
0.18 0 l
0.18 0.01 l
0.17 0 l
0.18 0.01 l
0.18 0 l
0.17 0.01 l
0.18 0.01 l
0.17 0 l
0.18 0.01 l
0.18 0 l
0.17 0.01 l
0.18 0 l
0.18 0.01 l
0.17 0 l
0.18 0.01 l
0.18 0 l
0.17 0.01 l
0.18 0 l
0.17 0.01 l
0.18 0 l
0.18 0.01 l
0.17 0 l
0.18 0.01 l
0.18 0 l
0.17 0.01 l
0.18 0 l
0.18 0.01 l
0.17 0 l
0.18 0.01 l
0.17 0 l
0.18 0.01 l
334.18 194.31 lineto
o
0.00 0.00 375.00 258.00 cl
0 0 0 srgb
0.75 setlinewidth
[] 0 setdash
1 setlinecap
1 setlinejoin
10.00 setmiterlimit
np
69.62 73.44 m
264.56 0 l
o
np
69.62 73.44 m
0 -7.20 l
o
np
157.81 73.44 m
0 -7.20 l
o
np
245.99 73.44 m
0 -7.20 l
o
np
334.18 73.44 m
0 -7.20 l
o
/Font1 findfont 12 s
69.62 47.52 (-5) .5 0 t
157.81 47.52 (0) .5 0 t
245.99 47.52 (5) .5 0 t
334.18 47.52 (10) .5 0 t
np
59.04 76.93 m
0 117.83 l
o
np
59.04 76.93 m
-7.20 0 l
o
np
59.04 100.50 m
-7.20 0 l
o
np
59.04 124.06 m
-7.20 0 l
o
np
59.04 147.63 m
-7.20 0 l
o
np
59.04 171.20 m
-7.20 0 l
o
np
59.04 194.76 m
-7.20 0 l
o
41.76 76.93 (0.0) .5 90 t
41.76 124.06 (0.4) .5 90 t
41.76 171.20 (0.8) .5 90 t
np
59.04 73.44 m
285.72 0 l
0 125.52 l
-285.72 0 l
0 -125.52 l
o
0.00 0.00 375.00 258.00 cl
/Font2 findfont 14 s
0 0 0 srgb
201.90 223.45 (CDF Plot) .5 0 t
/Font1 findfont 12 s
201.90 18.72 (x) .5 0 t
12.96 136.20 (P\(N<x\)) .5 90 t
0.00 0.00 375.00 258.00 cl
0 0 0 srgb
0.75 setlinewidth
[] 0 setdash
1 setlinecap
1 setlinejoin
10.00 setmiterlimit
np
69.62 73.44 m
264.56 0 l
o
np
69.62 73.44 m
0 -7.20 l
o
np
87.26 73.44 m
0 -7.20 l
o
np
104.90 73.44 m
0 -7.20 l
o
np
122.53 73.44 m
0 -7.20 l
o
np
140.17 73.44 m
0 -7.20 l
o
np
157.81 73.44 m
0 -7.20 l
o
np
175.44 73.44 m
0 -7.20 l
o
np
193.08 73.44 m
0 -7.20 l
o
np
210.72 73.44 m
0 -7.20 l
o
np
228.36 73.44 m
0 -7.20 l
o
np
245.99 73.44 m
0 -7.20 l
o
np
263.63 73.44 m
0 -7.20 l
o
np
281.27 73.44 m
0 -7.20 l
o
np
298.90 73.44 m
0 -7.20 l
o
np
316.54 73.44 m
0 -7.20 l
o
np
334.18 73.44 m
0 -7.20 l
o
/Font1 findfont 12 s
69.62 47.52 (-5) .5 0 t
104.90 47.52 (-3) .5 0 t
140.17 47.52 (-1) .5 0 t
175.44 47.52 (1) .5 0 t
193.08 47.52 (2) .5 0 t
210.72 47.52 (3) .5 0 t
228.36 47.52 (4) .5 0 t
245.99 47.52 (5) .5 0 t
263.63 47.52 (6) .5 0 t
281.27 47.52 (7) .5 0 t
298.90 47.52 (8) .5 0 t
316.54 47.52 (9) .5 0 t
ep
%%Trailer
%%Pages: 1
%%EOF
