%!PS-Adobe-3.0 EPSF-3.0
%%DocumentNeededResources: font Helvetica
%%+ font Helvetica-Bold
%%+ font Helvetica-Oblique
%%+ font Helvetica-BoldOblique
%%+ font Symbol
%%Title: R Graphics Output
%%Creator: R Software
%%Pages: (atend)
%%BoundingBox: 0 0 375 258
%%EndComments
%%BeginProlog
/bp  { gs sRGB gs } def
% begin .ps.prolog
/gs  { gsave } bind def
/gr  { grestore } bind def
/ep  { showpage gr gr } bind def
/m   { moveto } bind def
/l  { rlineto } bind def
/np  { newpath } bind def
/cp  { closepath } bind def
/f   { fill } bind def
/o   { stroke } bind def
/c   { newpath 0 360 arc } bind def
/r   { 4 2 roll moveto 1 copy 3 -1 roll exch 0 exch rlineto 0 rlineto -1 mul 0 exch rlineto closepath } bind def
/p1  { stroke } bind def
/p2  { gsave bg fill grestore newpath } bind def
/p3  { gsave bg fill grestore stroke } bind def
/p6  { gsave bg eofill grestore newpath } bind def
/p7  { gsave bg eofill grestore stroke } bind def
/t   { 5 -2 roll moveto gsave rotate
       1 index stringwidth pop
       mul neg 0 rmoveto show grestore } bind def
/ta  { 4 -2 roll moveto gsave rotate show } bind def
/tb  { 2 -1 roll 0 rmoveto show } bind def
/cl  { grestore gsave newpath 3 index 3 index moveto 1 index
       4 -1 roll lineto  exch 1 index lineto lineto
       closepath clip newpath } bind def
/rgb { setrgbcolor } bind def
/s   { scalefont setfont } bind def
% end   .ps.prolog
/sRGB { [ /CIEBasedABC
          << /DecodeLMN
               [ { dup 0.03928 le
                        {12.92321 div}
                        {0.055 add 1.055 div 2.4 exp }
                     ifelse
                 } bind dup dup
               ]
             /MatrixLMN [0.412457 0.212673 0.019334
                         0.357576 0.715152 0.119192
                         0.180437 0.072175 0.950301]
             /WhitePoint [0.9505 1.0 1.0890]
           >>
         ] setcolorspace } bind def
/srgb { setcolor } bind def
%%IncludeResource: font Helvetica
/Helvetica findfont
dup length dict begin
  {1 index /FID ne {def} {pop pop} ifelse} forall
  /Encoding ISOLatin1Encoding def
  currentdict
  end
/Font1 exch definefont pop
%%IncludeResource: font Helvetica-Bold
/Helvetica-Bold findfont
dup length dict begin
  {1 index /FID ne {def} {pop pop} ifelse} forall
  /Encoding ISOLatin1Encoding def
  currentdict
  end
/Font2 exch definefont pop
%%IncludeResource: font Helvetica-Oblique
/Helvetica-Oblique findfont
dup length dict begin
  {1 index /FID ne {def} {pop pop} ifelse} forall
  /Encoding ISOLatin1Encoding def
  currentdict
  end
/Font3 exch definefont pop
%%IncludeResource: font Helvetica-BoldOblique
/Helvetica-BoldOblique findfont
dup length dict begin
  {1 index /FID ne {def} {pop pop} ifelse} forall
  /Encoding ISOLatin1Encoding def
  currentdict
  end
/Font4 exch definefont pop
%%IncludeResource: font Symbol
/Symbol findfont
dup length dict begin
  {1 index /FID ne {def} {pop pop} ifelse} forall
  currentdict
  end
/Font5 exch definefont pop
%%EndProlog
%%Page: 1 1
bp
/bg { 1 1 1 srgb } def
0.00 0.00 375.00 258.00 r p2
59.04 73.44 344.76 198.96 cl
0 0 0 srgb
0.75 setlinewidth
[] 0 setdash
1 setlinecap
1 setlinejoin
10.00 setmiterlimit
212.93 147.48 2.70 c p1
161.37 111.61 2.70 c p1
222.38 151.91 2.70 c p1
302.55 177.40 2.70 c p1
235.73 157.33 2.70 c p1
198.68 137.82 2.70 c p1
218.26 149.29 2.70 c p1
209.00 143.86 2.70 c p1
131.43 102.61 2.70 c p1
171.20 115.70 2.70 c p1
159.59 111.43 2.70 c p1
231.07 153.63 2.70 c p1
127.98 100.26 2.70 c p1
185.54 125.61 2.70 c p1
216.91 149.03 2.70 c p1
178.60 119.07 2.70 c p1
211.61 147.30 2.70 c p1
269.20 168.70 2.70 c p1
221.00 151.90 2.70 c p1
174.23 116.49 2.70 c p1
266.27 167.34 2.70 c p1
215.58 148.81 2.70 c p1
260.97 166.91 2.70 c p1
240.69 158.62 2.70 c p1
294.95 176.19 2.70 c p1
192.19 130.65 2.70 c p1
149.76 106.43 2.70 c p1
137.52 104.12 2.70 c p1
186.89 125.65 2.70 c p1
206.41 142.57 2.70 c p1
153.91 109.44 2.70 c p1
258.55 166.40 2.70 c p1
155.86 110.15 2.70 c p1
239.00 158.36 2.70 c p1
101.25 95.24 2.70 c p1
275.82 169.76 2.70 c p1
175.71 116.59 2.70 c p1
214.25 148.15 2.70 c p1
180.02 120.16 2.70 c p1
225.20 152.19 2.70 c p1
219.62 151.39 2.70 c p1
229.57 153.17 2.70 c p1
194.80 131.56 2.70 c p1
69.62 78.09 2.70 c p1
108.85 98.20 2.70 c p1
313.34 182.80 2.70 c p1
177.16 117.78 2.70 c p1
234.15 155.84 2.70 c p1
189.55 128.12 2.70 c p1
210.30 145.07 2.70 c p1
164.80 112.69 2.70 c p1
197.39 133.78 2.70 c p1
247.94 163.75 2.70 c p1
193.50 130.76 2.70 c p1
237.35 158.07 2.70 c p1
272.37 168.98 2.70 c p1
142.83 105.45 2.70 c p1
228.09 152.79 2.70 c p1
114.84 98.27 2.70 c p1
172.73 116.39 2.70 c p1
166.45 113.93 2.70 c p1
140.26 104.75 2.70 c p1
279.65 171.74 2.70 c p1
188.22 127.52 2.70 c p1
223.78 152.06 2.70 c p1
190.87 128.94 2.70 c p1
244.21 160.76 2.70 c p1
254.04 165.43 2.70 c p1
242.43 159.01 2.70 c p1
256.24 165.51 2.70 c p1
184.18 125.10 2.70 c p1
169.65 115.06 2.70 c p1
232.60 155.72 2.70 c p1
246.04 161.04 2.70 c p1
251.92 163.98 2.70 c p1
288.96 175.31 2.70 c p1
199.97 138.45 2.70 c p1
202.54 141.48 2.70 c p1
181.42 123.58 2.70 c p1
182.80 124.04 2.70 c p1
283.97 173.18 2.70 c p1
151.88 108.21 2.70 c p1
205.12 142.42 2.70 c p1
196.09 132.24 2.70 c p1
119.83 98.96 2.70 c p1
263.54 167.14 2.70 c p1
145.25 105.69 2.70 c p1
168.07 114.05 2.70 c p1
134.60 103.05 2.70 c p1
334.18 194.31 2.70 c p1
201.26 139.39 2.70 c p1
90.46 90.09 2.70 c p1
207.70 143.01 2.70 c p1
157.76 111.40 2.70 c p1
124.15 100.03 2.70 c p1
163.11 111.87 2.70 c p1
226.64 152.62 2.70 c p1
203.83 141.92 2.70 c p1
249.89 163.77 2.70 c p1
147.56 106.36 2.70 c p1
0.00 0.00 375.00 258.00 cl
0 0 0 srgb
0.75 setlinewidth
[] 0 setdash
1 setlinecap
1 setlinejoin
10.00 setmiterlimit
np
99.19 73.44 m
205.42 0 l
o
np
99.19 73.44 m
0 -7.20 l
o
np
150.55 73.44 m
0 -7.20 l
o
np
201.90 73.44 m
0 -7.20 l
o
np
253.25 73.44 m
0 -7.20 l
o
np
304.61 73.44 m
0 -7.20 l
o
/Font1 findfont 12 s
99.19 47.52 (-2) .5 0 t
150.55 47.52 (-1) .5 0 t
201.90 47.52 (0) .5 0 t
253.25 47.52 (1) .5 0 t
304.61 47.52 (2) .5 0 t
np
59.04 89.55 m
0 93.05 l
o
np
59.04 89.55 m
-7.20 0 l
o
np
59.04 112.81 m
-7.20 0 l
o
np
59.04 136.07 m
-7.20 0 l
o
np
59.04 159.34 m
-7.20 0 l
o
np
59.04 182.60 m
-7.20 0 l
o
41.76 89.55 (-4) .5 90 t
41.76 136.07 (0) .5 90 t
41.76 159.34 (2) .5 90 t
41.76 182.60 (4) .5 90 t
np
59.04 73.44 m
285.72 0 l
0 125.52 l
-285.72 0 l
0 -125.52 l
o
0.00 0.00 375.00 258.00 cl
/Font2 findfont 14 s
0 0 0 srgb
201.90 223.45 (Normal Q-Q Plot) .5 0 t
/Font1 findfont 12 s
201.90 18.72 (Theoretical Quantiles) .5 0 t
12.96 136.20 (Sample Quantiles) .5 90 t
59.04 73.44 344.76 198.96 cl
1 0 0 srgb
0.75 setlinewidth
[] 0 setdash
1 setlinecap
1 setlinejoin
10.00 setmiterlimit
np
59.04 46.07 m
285.72 179.40 l
o
ep
%%Trailer
%%Pages: 1
%%EOF
