CLIFFNO,ALTITUDE,POPSIZE,MOLVAR
1,468,147,59.8
2,589,209,24.4
3,700,28,42.2
4,664,177,59.5
5,876,248,65.8
6,909,53,17.7
7,1032,33,12.5
8,952,114,27.6
9,832,217,35.9
10,1099,10,13.3
11,982,8,3.6
12,1053,15,3.2
