JUMPER,DISTANCE,ERROR
1,5.3,0.09
2,5.55,0.17
3,5.47,0.19
4,5.45,0.24
5,5.07,0.16
6,5.32,0.22
7,6.15,0.09
8,4.7,0.12
9,5.22,0.09
10,5.77,0.09
11,5.12,0.13
12,5.77,0.16
13,6.22,0.03
14,5.82,0.5
15,5.15,0.13
16,4.92,0.04
17,5.2,0.07
18,5.42,0.04
