TRAPSPACING,COOPERATIVE,CATCH,SEARCHFREQ
93,BT,9998,18
99,BT,7767,14
105,BT,8764,4
94,BT,9077,18
82,BT,8343,9
70,BT,9222,5
86,BT,6827,8
118,PA,2785,35
94,PA,6535,21
106,PA,6695,26
72,PA,4891,29
90,PA,4937,23
66,PA,5727,17
153,PA,7019,21
98,PA,5735,20
