RNA,MNSOD,PLD
0,401,80
0,336,83
0,337,75
0.33,711,132
0.33,637,148
0.33,602,115
0.5,985,147
0.5,650,142
0.5,747,146
0.67,904,146
0.67,1007,150
0.67,1047,184
0.8,1151,173
0.8,1098,201
0.8,1061,181
1,1261,193
1,1272,187
1,1256,199
