Letter,BoardProp,ElecFreq
A,0.09,39
B,0.02,18
C,0.02,30
D,0.04,30
E,0.12,31
F,0.02,21
G,0.03,35
H,0.02,21
I,0.09,25
J,0.01,17
K,0.01,27
L,0.04,18
M,0.02,31
N,0.06,36
O,0.08,20
P,0.02,27
Q,0.01,13
R,0.06,27
S,0.04,29
T,0.06,27
U,0.04,21
V,0.02,33
W,0.02,29
X,0.01,15
Y,0.02,32
Z,0.01,14
# (blank),0.02,34
