INDEX,MN47
70,ABOVE
70,ABOVE
68,ABOVE
67,ABOVE
67,ABOVE
66,ABOVE
65,ABOVE
63,ABOVE
63,ABOVE
59,ABOVE
57,ABOVE
57,ABOVE
57,ABOVE
55,ABOVE
55,ABOVE
54,ABOVE
52,ABOVE
52,ABOVE
51,ABOVE
46,BELOW
46,BELOW
44,BELOW
37,BELOW
