"","Harden","Westbrook"
"1",1,1
"2",4,2
"3",3,5
"4",5,0
"5",5,2
"6",4,4
"7",3,1
"8",1,3
"9",2,3
"10",4,0
"11",1,0
"12",3,2
"13",4,0
"14",2,2
"15",3,4
"16",3,1
"17",5,3
"18",2,0
"19",2,2
"20",1,1
"21",3,2
"22",4,3
"23",2,0
"24",2,2
"25",4,2
"26",3,2
"27",6,1
"28",3,3
"29",1,2
"30",5,5
"31",2,1
"32",2,0
"33",4,2
"34",2,0
"35",9,2
"36",2,2
"37",2,8
"38",0,7
"39",4,1
"40",7,0
"41",2,1
"42",2,4
"43",4,2
"44",4,1
"45",4,3
"46",0,4
"47",4,4
"48",2,1
"49",2,3
"50",6,2
"51",2,5
"52",0,1
"53",5,4
"54",5,2
"55",3,3
"56",4,0
"57",8,3
"58",4,1
"59",1,2
"60",5,6
"61",1,6
"62",4,3
"63",6,2
"64",6,3
"65",0,1
"66",3,3
"67",4,2
"68",1,4
"69",4,4
"70",3,1
"71",4,0
"72",5,3
"73",2,2
"74",1,6
"75",2,2
"76",2,7
"77",4,2
"78",7,8
"79",5,2
"80",1,5
"81",5,1
