"Player","Winnings"
"Mark",2.5380925848175
"Kevin",-2.698153254308
"Mark",1.9942601570871
"Mark",2.36643381669809
"Mark",1.98830503987166
"Kevin",-1.92343989479982
"Mark",1.27995894723351
"Kevin",0.255806111130247
"Kevin",-1.21238400961711
"Kevin",-1.73821431927149
"Kevin",-1.8978367716436
"Mark",0.663171559308772
"Mark",1.70381909567572
"Kevin",-2.21486042411123
"Kevin",-0.709911082880403
"Kevin",-2.48423728027827
"Kevin",-0.827422989078563
"Kevin",-2.0484445247814
"Kevin",-2.06173297120456
"Mark",3.4521781575167
"Mark",1.01060192971938
"Kevin",-0.304484057859334
"Kevin",-1.09415116330376
"Kevin",-3.09090267081433
"Kevin",-2.95770817533861
"Mark",3.01661547818504
"Kevin",-2.55770152330982
"Mark",0.965427402691715
"Kevin",-1.51568323764958
"Kevin",-1.14120604729579
"Mark",2.25652235588674
"Mark",3.44045608386025
"Kevin",-1.93938407742101
"Mark",2.94784849677896
"Mark",0.911652802519123
"Mark",2.15720630208258
"Mark",1.79489926154706
"Kevin",-1.96989775272976
"Mark",2.1604696150733
"Mark",1.98483226711445
"Mark",2.08486079468701
"Kevin",-2.8661802562323
"Kevin",-2.18567243621412
"Kevin",-0.778667321808029
"Mark",2.09606299158379
"Kevin",0.395398475894039
"Kevin",-2.30859709974134
"Kevin",-3.24616641129306
"Mark",-0.085323281093387
"Kevin",-4.92866105390646
"Mark",1.87610679584412
"Mark",1.61559080772286
"Kevin",-2.92424974347135
"Kevin",-4.36278699444428
"Kevin",-1.04572221973921
"Kevin",-2.52761943720419
"Mark",3.1274111854971
"Mark",2.46897435408432
"Kevin",-0.929977198467576
"Mark",3.11429531512937
"Kevin",-1.62667051633947
"Mark",4.56843375089901
"Mark",1.63202722099928
"Kevin",-2.74373900587748
"Mark",2.63507360454982
"Kevin",-3.34435200255424
"Mark",2.09575433748609
"Mark",2.78788797649157
"Mark",1.25073719768901
"Kevin",-2.46470483325679
"Kevin",-0.969169523584632
"Mark",0.17316007767483
"Kevin",-2.73944988290993
"Kevin",-3.51634534587236
"Kevin",-2.3030431868569
"Kevin",-0.793219133445281
"Kevin",-0.31891270461976
"Kevin",-2.20526953124687
"Kevin",-0.644668564222502
"Mark",2.57298685366112
"Mark",1.63054732726327
"Mark",1.76924968408217
"Mark",2.96156748492846
"Kevin",-3.78529163248728
"Kevin",-1.08814259391343
"Mark",2.56608729436537
"Kevin",-0.306940970199017
"Mark",3.14062499180987
"Mark",3.04032330763069
"Kevin",-2.75767304800728
"Mark",3.50589872216659
"Kevin",-0.664591734270203
"Mark",2.94267062042495
"Kevin",-1.82455640985348
"Mark",2.81855646400287
"Mark",3.95121421902796
"Mark",0.526173660494421
"Mark",1.38758680453623
"Kevin",-2.52720050091254
"Mark",1.66753109739524
