"Property","Species","Sex","Pond","Carapace.Length","Carapace.Width","Plastron.Length","Plastron.Anterior.Width","Plastron.Posterior.Width","Shell.Depth","Tail.Length","Mass"
"CKWMA","Chelydra serpentina","M","1",230,203,179,92,67,98,203,2948.4
"CKWMA","Chelydra serpentina","M","2",192,164,148,79,56,88,164,1360.8
"CKWMA","Chelydra serpentina","M?","2",164,137,124,70,44,77,127,1587.6
"CKWMA","Chelydra serpentina","M","2",261,216,193,97,81,109,195,4082.4
"CKWMA","Chelydra serpentina","M","3",231,178,169,94,70,101,190,2721.6
"CKWMA","Chelydra serpentina","M","4",280,231,264,106,88,116,NA,5670
"CKWMA","Chelydra serpentina","M","4",240,193,174,99,78,80,NA,3175.2
"CKWMA","Chelydra serpentina","M","6",158,138,118,63,43,74,120,680.4
"CKWMA","Chelydra serpentina","F","6",240,197,181,98,68,105,213,2721.6
"CKWMA","Chelydra serpentina","M","8",304,257,218,109,80,132,251,6123.6
"CKWMA","Chelydra serpentina","F","8",225,194,172,94,58,98,147,2494.8
"CKWMA","Chelydra serpentina","M","9",155,124,119,64,44,74,134,907.2
"CKWMA","Chelydra serpentina","M","9",173,154,130,78,54,82,135,1134
"CKWMA","Chelydra serpentina","M","9",153,137,123,66,47,71,122,1360.8
"CKWMA","Chelydra serpentina","F","10",187,165,144,87,55,90,149,2268
"BGAD","Chelydra serpentina","M","B 100",339,280,226,120,90,129,233,9525.6
"BGAD","Chelydra serpentina","M","B 100",206,174,153,79,50,98,132,2721.6
"BGAD","Chelydra serpentina","NM","B800",139,127,107,56,37,68,113,680.4
"BGAD","Chelydra serpentina","M","B800",267,237,189,114,72,128,217,4989.6
"BGAD","Chelydra serpentina","M","B800",289,246,217,112,82,126,226,5896.8
"BGAD","Chelydra serpentina","M","B800",288,257,215,115,78,127,207,6123.6
"BGAD","Chelydra serpentina","M","B800",337,316,261,136,95,145,169,10432.8
"BGAD","Chelydra serpentina","F","B800",169,148,132,78,46,77,145,1360.8
"BGAD","Chelydra serpentina","M","B800",224,193,178,96,65,110,216,2721.6
"BGAD","Chelydra serpentina","F","B800",246,198,181,100,79,109,169,2948.4
"BGAD","Chelydra serpentina","M","B800",241,222,191,99,65,111,230,3402
"BGAD","Chelydra serpentina","M","B800",258,229,200,99,67,119,240,4309.2
"BGAD","Chelydra serpentina","J","BP1",158,128,119,61,48,71,125,775
"BGAD","Chelydra serpentina","M","BP1",232,210,184,99,71,NA,183,2721.6
"BGAD","Chelydra serpentina","M","BP1",296,253,219,129,94,125,216,6350.4
"BGAD","Chelydra serpentina","M","BP2",270,241,208,103,70,118,NA,4762.8
"BGAD","Chelydra serpentina","M","BP2",284,250,207,105,72,114,240,5896.8
"BGAD","Chelydra serpentina","M","BP2",294,250,222,110,64,135,243,6123.6
"BGAD","Chelydra serpentina","M","BP2",299,259,225,116,84,133,272,6350.4
"BGAD","Chelydra serpentina","M","BP2",320,267,234,119,91,124,250,6577.2
"BGAD","Chelydra serpentina","M","BP2",325,270,231,119,92,140,270,7711.2
"BGAD","Chelydra serpentina","M","BP2",321,273,244,120,93,138,252,7711.2
"BGAD","Chelydra serpentina","M","BP2",353,293,253,132,100,137,248,9979.2
"BGAD","Chelydra serpentina","F","BP2",181,158,133,67,50,86,155,1360.8
"BGAD","Chelydra serpentina","M","BP2",195,174,141,87,54,93,147,2041.2
"BGAD","Chelydra serpentina","M","BP2",191,171,144,79,56,89,161,2268
"BGAD","Chelydra serpentina","M","BP2",220,184,156,88,54,99,189,2268
"BGAD","Chelydra serpentina","M","BP2",237,198,178,98,60,104,223,2721.6
"BGAD","Chelydra serpentina","M","BP2",235,205,190,108,82,113,205,3402
"BGAD","Chelydra serpentina","M","BP2",254,207,190,99,71,118,182,3628.8
"BGAD","Chelydra serpentina","F","BP2",241,224,194,106,69,114,185,3628.8
"BGAD","Chelydra serpentina","M","BP2",241,214,193,100,70,112,194,4082.4
"BGAD","Chelydra serpentina","M","Gem",272,235,216,113,75,11,233,4762.8
"BGAD","Chelydra serpentina","F","Gem",259,222,189,100,82,110,218,4989.6
"BGAD","Chelydra serpentina","M","Gem",279,243,214,179,85,123,218,4989.6
"BGAD","Chelydra serpentina","M","Gem",278,245,207,106,82,124,160,4989.6
"BGAD","Chelydra serpentina","M","Gem",276,242,217,110,76,122,219,5670
"BGAD","Chelydra serpentina","M","Gem",290,256,215,121,91,130,228,5896.8
"BGAD","Chelydra serpentina","M","Gem",333,297,256,150,108,144,231,10432.8
"BGAD","Chelydra serpentina","F","Gem",176,152,147,69,44,75,157,1360.8
"BGAD","Chelydra serpentina","F","Gem",212,183,163,87,69,104,169,1814.4
"BGAD","Chelydra serpentina","F","Gem",209,179,161,81,49,95,144,2268
"BGAD","Chelydra serpentina","M","Gem",207,183,160,82,62,91,171,2494.8
"BGAD","Chelydra serpentina","F","Gem",205,172,152,82,61,91,166,2721.6
"BGAD","Chelydra serpentina","F","Gem",237,210,182,89,66,109,182,3175.2
"BGAD","Chelydra serpentina","M","Gem",252,209,191,100,73,115,184,4082.4
"BGAD","Chelydra serpentina","M","Gem",257,212,197,103,97,127,212,4082.4
"BGAD","Chelydra serpentina","F","Golf",243,222,204,105,69,NA,207,4309.2
"BGAD","Chelydra serpentina","M","Henron",290,248,218,115,73,125,202,13.5
"BGAD","Chelydra serpentina","F","Henron",262,234,213,114,81,124,210,5670
"BGAD","Chelydra serpentina","J","Henron",145,130,109,54,30,67,135,907.2
"BGAD","Chelydra serpentina","M","Henron",362,304,274,130,97,157,310,10432.8
"BGAD","Chelydra serpentina","M","Henron",342,315,244,151,106,147,239,13154.4
"BGAD","Chelydra serpentina","M","Henron",235,199,82,91,72,100,194,2721.6
"BGAD","Chelydra serpentina","M","Henron",233,208,179,92,71,114,190,4082.4
"BGAD","Chelydra serpentina","M","Henron",240,209,191,106,81,111,191,4082.4
"BGAD","Chelydra serpentina","M","Knorth",293,248,230,126,77,128,238,5443.2
"BGAD","Chelydra serpentina","F?","Knorth",229,198,182,94,61,110,211,3175.2
"BGAD","Chelydra serpentina","M","Oxbow",264,243,218,133,84,27,182,NA
"BGAD","Chelydra serpentina","M","Oxbow",310,261,239,120,98,143,271,6350.4
"BGAD","Chelydra serpentina","M","Oxbow",248,215,179,98,80,103,195,3628.8
"BGAD","Chelydra serpentina","F?","Oxbow",263,236,205,106,79,108,203,4082.4
"BGAD","Chelydra serpentina","M?","VE",296,259,242,135,97,152,NA,7711.2
"BGAD","Chelydra serpentina","M","VE",381,344,285,151,126,176,324,16783.2
"CKWMA","Trachemys scripta","M","1",173,134,160,80,82,63,NA,453.6
"CKWMA","Trachemys scripta","M","1",177,138,162,79,83,68,NA,453.6
"CKWMA","Trachemys scripta","J","1",92,74,84,41,42,36,NA,190
"CKWMA","Trachemys scripta","F","1",213,153,200,99,105,97,NA,1134
"CKWMA","Trachemys scripta","M","1",169,127,151,74,77,61,NA,1134
"CKWMA","Trachemys scripta","M","1",217,161,195,97,106,82,NA,1134
"CKWMA","Trachemys scripta","J","1",46,45,41,24,23,22,NA,20
"CKWMA","Trachemys scripta","M","1",194,140,176,84,88,70,NA,1360.8
"CKWMA","Trachemys scripta","J","1",111,95,103,50,52,47,NA,315
"CKWMA","Trachemys scripta","M","1",135,110,1223,64,63,54,NA,390
"CKWMA","Trachemys scripta","F","1",227,159,205,94,107,86,NA,1814.4
"CKWMA","Trachemys scripta","M","1",142,114,132,68,70,56,NA,410
"CKWMA","Trachemys scripta","M","1",154,117,142,70,70,57,NA,445
"CKWMA","Trachemys scripta","M","1",148,116,137,70,73,57,NA,460
"CKWMA","Trachemys scripta","M","1",146,114,131,69,69,57,NA,470
"CKWMA","Trachemys scripta","J","1",80,72,74,38,41,32,NA,80
"CKWMA","Trachemys scripta","NM","2",157,130,147,75,82,65,NA,453.6
"CKWMA","Trachemys scripta","NM","2",174,137,165,76,85,72,NA,907.2
"CKWMA","Trachemys scripta","NM","2",182,142,170,85,92,74,NA,907.2
"CKWMA","Trachemys scripta","NM","2",143,120,133,67,74,61,NA,460
"CKWMA","Trachemys scripta","M","2",109,95,100,53,57,44,NA,495
"CKWMA","Trachemys scripta","F","5",241,182,220,110,118,101,NA,2041.2
"CKWMA","Trachemys scripta","M","6",181,143,164,81,85,67,NA,680.4
"CKWMA","Trachemys scripta","ind","8",100,85,92,49,47,41,NA,120
"CKWMA","Trachemys scripta","M","8",150,117,139,64,69,58,NA,NA
"CKWMA","Trachemys scripta","M","9",167,132,151,76,80,66,NA,907.2
"BGAD","Trachemys scripta","NM","B800",120,99,112,52,53,49,NA,340.2
"BGAD","Trachemys scripta","M","B800",216,159,195,97,96,73,NA,907.2
"BGAD","Trachemys scripta","M","B800",204,145,182,88,86,72,NA,907.2
"BGAD","Trachemys scripta","M","B800",189,146,171,82,90,68,NA,907.2
"BGAD","Trachemys scripta","M","B800",210,NA,188,92,NA,75,NA,1134
"BGAD","Trachemys scripta","F","B800",247,18,231,111,118,105,NA,2041.2
"BGAD","Trachemys scripta","M","Bcattle",235,175,204,101,105,88,NA,1587.6
"BGAD","Trachemys scripta","M","BP1",231,173,205,105,108,84,NA,1600
"BGAD","Trachemys scripta","F","BP2",168,133,164,80,81,69,NA,453.6
"BGAD","Trachemys scripta","M","BP2",160,130,147,70,77,71,NA,453.6
"BGAD","Trachemys scripta","M","BP2",190,142,175,85,86,77,NA,907.2
"BGAD","Trachemys scripta","F","BP2",223,169,208,103,106,85,NA,1360.8
"BGAD","Trachemys scripta","M","BP2",215,163,196,99,101,80,NA,1360.8
"BGAD","Trachemys scripta","F","BP2",273,203,250,126,127,107,NA,2041.2
"BGAD","Trachemys scripta","M","Buck",203,154,181,88,95,70,NA,907.2
"BGAD","Trachemys scripta","F","Buck",218,166,198,105,107,90,NA,1134
"BGAD","Trachemys scripta","M","Buck",130,106,118,62,65,49,NA,205
"BGAD","Trachemys scripta","M","Buck",135,104,122,61,61,57,NA,260
"BGAD","Trachemys scripta","F","Buck",243,175,219,104,110,94,NA,1360.8
"BGAD","Trachemys scripta","F","Buck",227,172,207,104,116,93,NA,1360.8
"BGAD","Trachemys scripta","F","Buck",257,181,235,121,124,105,NA,2268
"BGAD","Trachemys scripta","M","Gem",176,136,156,79,82,60,NA,453.6
"BGAD","Trachemys scripta","M","Gem",199,158,180,91,99,70,NA,680.4
"BGAD","Trachemys scripta","F","Gem",172,135,161,82,86,68,NA,680.4
"BGAD","Trachemys scripta","M","Gem",186,144,164,78,85,66,NA,680.4
"BGAD","Trachemys scripta","J","Gem",94,83,88,44,48,34,NA,100
"BGAD","Trachemys scripta","J","Gem",103,87,96,47,50,41,NA,165
"BGAD","Trachemys scripta","M","Gem",203,151,185,87,93,77,NA,907.2
"BGAD","Trachemys scripta","F","Gem",192,143,174,87,89,72,NA,907.2
"BGAD","Trachemys scripta","M","Gem",187,143,169,86,91,80,NA,907.2
"BGAD","Trachemys scripta","M","Gem",208,159,183,92,96,73,NA,907.2
"BGAD","Trachemys scripta","F","Gem",173,134,163,80,84,70,NA,907.2
"BGAD","Trachemys scripta","M","Gem",206,156,190,92,94,78,NA,907.2
"BGAD","Trachemys scripta","F","Gem",219,168,205,99,107,82,NA,907.2
"BGAD","Trachemys scripta","M","Gem",210,152,188,87,96,73,NA,907.2
"BGAD","Trachemys scripta","M","Gem",239,183,208,103,115,88,NA,1134
"BGAD","Trachemys scripta","J","Gem",117,93,112,55,57,45,NA,220
"BGAD","Trachemys scripta","J","Gem",112,92,103,53,56,48,NA,260
"BGAD","Trachemys scripta","M","Gem",128,101,119,56,69,46,NA,275
"BGAD","Trachemys scripta","M","Gem",370,315,281,145,107,163,226,12700.8
"BGAD","Trachemys scripta","M","Gem",126,102,116,59,60,45,NA,290
"BGAD","Trachemys scripta","M","Gem",203,141,188,85,95,78,NA,1360.8
"BGAD","Trachemys scripta","M","Gem",228,176,213,104,112,81,NA,1360.8
"BGAD","Trachemys scripta","M","Gem",207,153,189,91,95,77,NA,1360.8
"BGAD","Trachemys scripta","M","Gem",220,167,182,92,103,79,NA,1360.8
"BGAD","Trachemys scripta","M","Gem",202,157,176,91,98,73,NA,1360.8
"BGAD","Trachemys scripta","M","Gem",190,146,173,86,92,71,NA,1360.8
"BGAD","Trachemys scripta","M","Gem",229,174,200,97,108,83,NA,1587.6
"BGAD","Trachemys scripta","M","Gem",219,171,190,94,105,85,NA,1587.6
"BGAD","Trachemys scripta","M","Gem",209,156,190,92,102,75,NA,1587.6
"BGAD","Trachemys scripta","M","Gem",135,106,121,60,63,49,NA,320
"BGAD","Trachemys scripta","M","Gem",144,114,129,64,70,57,NA,340
"BGAD","Trachemys scripta","M","Gem",136,107,125,61,64,51,NA,340
"BGAD","Trachemys scripta","M","Gem",145,116,134,68,70,51,NA,370
"BGAD","Trachemys scripta","F","Gem",217,163,203,102,104,88,NA,1814.4
"BGAD","Trachemys scripta","M","Gem",217,163,194,94,100,84,NA,1814.4
"BGAD","Trachemys scripta","F","Gem",247,187,232,113,124,94,NA,2041.2
"BGAD","Trachemys scripta","M","Gem",149,119,138,70,71,56,NA,410
"BGAD","Trachemys scripta","F","Gem",254,190,236,112,120,103,NA,2268
"BGAD","Trachemys scripta","F","Gem",238,173,218,109,110,93,NA,2268
"BGAD","Trachemys scripta","J","Gem",74,NA,69,36,37,30,NA,55
"BGAD","Trachemys scripta","J","Golf",99,85,93,48,48,43,NA,400
"BGAD","Trachemys scripta","M","Golf",139,110,123,63,68,52,NA,453.6
"BGAD","Trachemys scripta","M","Golf",137,112,120,61,67,54,NA,453.6
"BGAD","Trachemys scripta","NM","Golf",171,133,160,83,84,65,NA,680.4
"BGAD","Trachemys scripta","F","Golf",177,141,165,79,85,69,NA,680.4
"BGAD","Trachemys scripta","F","Golf",182,141,161,82,85,72,NA,907.2
"BGAD","Trachemys scripta","M","Golf",192,151,173,84,93,72,NA,1134
"BGAD","Trachemys scripta","M","Golf",207,156,185,89,99,77,NA,1134
"BGAD","Trachemys scripta","M","Golf",214,163,195,96,105,75,NA,1360.8
"BGAD","Trachemys scripta","M","Golf",211,156,191,89,93,79,NA,1360.8
"BGAD","Trachemys scripta","M","Golf",218,169,199,97,106,81,NA,1360.8
"BGAD","Trachemys scripta","M","Golf",225,173,204,101,105,85,NA,1587.6
"BGAD","Trachemys scripta","M","Golf",236,174,214,105,111,84,NA,1587.6
"BGAD","Trachemys scripta","F","Golf",219,172,200,102,108,84,NA,1587.6
"BGAD","Trachemys scripta","F","Golf",245,186,227,116,120,97,NA,2041.2
"BGAD","Trachemys scripta","F","Golf",249,188,230,113,121,95,NA,2268
"BGAD","Trachemys scripta","J","Golf",98,85,99,47,47,41,NA,NA
"BGAD","Trachemys scripta","M","Henron",156,128,142,71,78,59,NA,453.6
"BGAD","Trachemys scripta","M","Henron",150,121,139,71,74,54,NA,453.6
"BGAD","Trachemys scripta","M","Henron",160,131,148,74,78,60,NA,453.6
"BGAD","Trachemys scripta","M","Henron",202,156,183,92,93,79,NA,1360.8
"BGAD","Trachemys scripta","M","Henron",222,172,200,101,107,84,NA,1587.6
"BGAD","Trachemys scripta","F","Henron",2477,191,227,114,120,96,NA,2268
"BGAD","Trachemys scripta","F","Henron",228,177,213,101,110,92,NA,2268
"BGAD","Trachemys scripta","M","Knorth",186,146,174,84,94,68,NA,453.6
"BGAD","Trachemys scripta","M","Knorth",161,125,149,70,75,56,NA,453.6
"BGAD","Trachemys scripta","M","Knorth",157,112,144,71,77,58,NA,453.6
"BGAD","Trachemys scripta","M","Knorth",152,118,139,78,72,57,NA,680.4
"BGAD","Trachemys scripta","M","Knorth",212,166,187,90,98,78,NA,907.2
"BGAD","Trachemys scripta","M","Knorth",224,169,202,97,100,80,NA,907.2
"BGAD","Trachemys scripta","M","Knorth",200,158,185,94,96,75,NA,907.2
"BGAD","Trachemys scripta","M","Knorth",224,172,202,101,104,88,NA,907.2
"BGAD","Trachemys scripta","M","Knorth",171,134,160,76,80,60,NA,907.2
"BGAD","Trachemys scripta","M","Knorth",191,147,172,86,91,65,NA,907.2
"BGAD","Trachemys scripta","M","Knorth",199,157,179,88,96,74,NA,907.2
"BGAD","Trachemys scripta","M","Knorth",124,99,111,58,61,52,NA,215
"BGAD","Trachemys scripta","J","Knorth",121,100,110,58,60,45,NA,255
"BGAD","Trachemys scripta","F","Knorth",219,162,211,100,113,77,NA,1360.8
"BGAD","Trachemys scripta","F","Knorth",191,148,182,89,95,77,NA,1360.8
"BGAD","Trachemys scripta","F","Knorth",243,186,220,116,117,100,NA,1587.6
"BGAD","Trachemys scripta","F","Knorth",225,169,204,113,107,98,NA,1587.6
"BGAD","Trachemys scripta","F","Knorth",222,169,213,104,111,82,NA,1814.4
"BGAD","Trachemys scripta","M","VE",206,159,179,91,99,75,NA,907.2
"BGAD","Trachemys scripta","juv","VE",66,60,60,33,32,28,NA,55
"BGAD","Trachemys scripta","M","VE",130,104,118,61,62,50,NA,453.6
"BGAD","Trachemys scripta","M","VE",64,131,152,76,78,58,NA,680.4
"BGAD","Trachemys scripta","M","VE",212,154,191,96,96,78,NA,907.2
"BGAD","Trachemys scripta","F","VE",197,151,191,90,94,81,NA,907.2
"BGAD","Trachemys scripta","M","VE",208,151,183,89,95,78,NA,907.2
"BGAD","Trachemys scripta","M","VE",207,157,189,98,105,75,NA,1134
"BGAD","Trachemys scripta","M","VE",222,165,196,97,108,82,NA,1360.8
"BGAD","Trachemys scripta","M","VE",219,158,200,94,105,83,NA,1360.8
"BGAD","Trachemys scripta","M","VE",226,175,199,99,103,88,NA,1360.8
"BGAD","Trachemys scripta","F","VE",218,168,205,99,110,84,NA,1587.6
"BGAD","Trachemys scripta","M","VE",207,152,184,95,99,82,NA,1587.6
"BGAD","Trachemys scripta","M","VE",230,162,198,97,101,79,NA,1587.6
"BGAD","Trachemys scripta","F","VE",249,181,229,120,123,101,NA,1814.4
"BGAD","Trachemys scripta","F","VE",248,187,236,112,121,87,NA,1814.4
"BGAD","Trachemys scripta","M","VE",245,183,212,102,107,88,NA,1814.4
"BGAD","Trachemys scripta","M","VE",231,170,210,99,108,87,NA,1814.4
"BGAD","Trachemys scripta","F","VE",240,178,216,111,113,95,NA,1814.4
"BGAD","Trachemys scripta","M","VE",230,171,204,95,103,89,NA,2041.2
"BGAD","Trachemys scripta","F","VE",255,184,237,111,113,100,NA,2268
"BGAD","Trachemys scripta","F","VE",253,190,237,114,117,101,NA,2494.8
"BGAD","Trachemys scripta","F","VE",250,182,230,115,120,99,NA,2494.8
"BGAD","Trachemys scripta","F","VE",255,194,238,120,126,100,NA,2721.6
"BGAD","Trachemys scripta","F","VE",265,208,238,124,130,112,NA,2721.6
"BGAD","Trachemys scripta","M","VW",163,132,148,75,81,63,NA,226.8
"BGAD","Trachemys scripta","juv","VW",125,100,117,59,61,51,NA,280
"BGAD","Trachemys scripta","M","VW",141,111,127,65,66,55,NA,360
"BGAD","Trachemys scripta","M","VW",141,117,125,67,70,56,NA,460
"BGAD","Trachemys scripta","F","VW",182,135,169,84,87,69,NA,680.4
"BGAD","Trachemys scripta","M","VW",182,145,161,80,85,65,NA,850
"BGAD","Trachemys scripta","M","VW",222,153,199,89,94,79,NA,900
"BGAD","Trachemys scripta","M","VW",212,157,186,96,102,81,NA,907.2
"BGAD","Trachemys scripta","M","VW",216,159,191,92,102,75,NA,1200
"BGAD","Trachemys scripta","M","VW",211,158,190,93,100,83,NA,1300
"BGAD","Trachemys scripta","M","VW",224,170,205,97,99,80,NA,1360.8
"BGAD","Trachemys scripta","M","VW",223,175,196,102,107,81,NA,1360.8
"BGAD","Trachemys scripta","M","VW",222,153,190,94,96,82,NA,1410
"BGAD","Trachemys scripta","F","VW",232,169,205,100,107,94,NA,1587.6
"BGAD","Trachemys scripta","F","VW",254,196,236,120,127,101,NA,1814.4
"BGAD","Trachemys scripta","F","VW",249,170,224,109,110,99,NA,1814.4
"BGAD","Trachemys scripta","M","VW",232,175,212,99,108,91,NA,1850
"BGAD","Trachemys scripta","F","VW",236,178,213,100,110,95,NA,1900
"BGAD","Trachemys scripta","F","VW",228,167,207,104,111,91,NA,1900
"BGAD","Trachemys scripta","F","VW",258,194,244,122,122,99,NA,2041.2
"BGAD","Trachemys scripta","F","VW",260,194,237,122,121,99,NA,2041.2
"BGAD","Trachemys scripta","F","VW",246,186,225,110,115,95,NA,2100
"BGAD","Trachemys scripta","F","VW",264,186,238,111,111,98,NA,2268
"BGAD","Trachemys scripta","F","VW",274,194,248,119,123,108,NA,2268
"BGAD","Trachemys scripta","F","VW",273,210,250,117,131,109,NA,2948.4
"BGAD","Trachemys scripta","M","VW",173,137,162,75,82,65,NA,226.8
"BGAD","Trachemys scripta","M","VW",163,130,154,75,81,61,NA,453.6
"BGAD","Trachemys scripta","M","VW",205,152,186,90,92,75,NA,453.6
"BGAD","Trachemys scripta","M","VW",165,135,152,88,88,60,NA,453.6
"BGAD","Trachemys scripta","M","VW",173,140,161,80,85,70,NA,453.6
"BGAD","Trachemys scripta","M","VW",165,124,151,75,75,65,NA,680.4
"BGAD","Trachemys scripta","M","VW",194,150,175,87,91,74,NA,680.4
"BGAD","Trachemys scripta","M","VW",160,127,142,70,75,57,NA,680.4
"BGAD","Trachemys scripta","M","VW",193,147,178,86,93,76,NA,680.4
"BGAD","Trachemys scripta","M","VW",210,159,192,88,100,77,NA,680.4
"BGAD","Trachemys scripta","M","VW",171,136,156,81,80,60,NA,680.4
"BGAD","Trachemys scripta","M","VW",206,155,187,93,95,77,NA,1134
"BGAD","Trachemys scripta","M","VW",215,163,194,94,101,82,NA,1134
"BGAD","Trachemys scripta","M","VW",208,154,185,95,96,76,NA,1134
"BGAD","Trachemys scripta","M","VW",235,172,205,100,108,85,NA,1360.8
"BGAD","Trachemys scripta","M","VW",202,149,176,93,98,71,NA,1360.8
"BGAD","Trachemys scripta","F","VW",229,166,210,97,108,90,NA,1360.8
"BGAD","Trachemys scripta","F","VW",224,174,216,107,113,94,NA,1360.8
"BGAD","Trachemys scripta","F","VW",232,172,214,102,108,76,NA,1360.8
"BGAD","Trachemys scripta","M","VW",215,169,194,100,106,80,NA,1360.8
"BGAD","Trachemys scripta","M","VW",193,147,173,186,92,74,NA,1360.8
"BGAD","Trachemys scripta","M","VW",225,161,201,97,102,85,NA,1587.6
"BGAD","Trachemys scripta","F","VW",245,184,230,111,120,94,NA,1587.6
"BGAD","Trachemys scripta","M","VW",245,179,212,106,110,94,NA,1814.4
"BGAD","Trachemys scripta","F","VW",245,172,223,103,114,95,NA,2041.2
"BGAD","Trachemys scripta","F","VW",232,182,221,105,116,91,NA,2041.2
"BGAD","Trachemys scripta","F","VW",266,192,245,123,125,104,NA,2041.2
"BGAD","Trachemys scripta","F","VW",241,183,230,114,118,96,NA,2041.2
"BGAD","Trachemys scripta","M","VW",232,173,208,107,111,86,NA,2041.2
"BGAD","Trachemys scripta","F","VW",250,182,217,102,110,99,NA,2041.2
"BGAD","Trachemys scripta","F","VW",258,187,231,120,124,100,NA,2268
"BGAD","Trachemys scripta","F","VW",257,194,244,120,126,105,NA,2948.4
