ID,Player,TEAM,POS,G,AB,R,H,AVG
1,"Machado, M",BAL,3B,156,667,88,189,0.283
2,"Jones, A",BAL,CF,160,653,100,186,0.285
3,"Pedroia, D",BOS,2B,160,641,91,193,0.301
4,"Ramirez, A",CWS,SS,158,637,68,181,0.284
5,"Markakis, N",BAL,RF,160,634,89,172,0.271
6,"Gordon, A",KC,LF,156,633,90,168,0.265
7,"Beltre, A",TEX,3B,161,631,88,199,0.315
8,"Altuve, J",HOU,2B,152,626,64,177,0.283
9,"Fielder, P",DET,1B,162,624,82,174,0.279
10,"Hosmer, E",KC,1B,159,623,86,188,0.302
11,"Andrus, E",TEX,SS,156,620,91,168,0.271
11,"Trumbo, M",LAA,1B,159,620,85,145,0.234
13,"Rios, A",TEX,RF,156,616,83,171,0.278
14,"Seager, K",SEA,3B,160,615,79,160,0.26
15,"Longoria, E",TB,3B,160,614,91,165,0.269
16,"Zobrist, B",TB,2B,157,612,77,168,0.275
17,"De Aza, A",CWS,LF,153,607,84,160,0.264
17,"Escobar, A",KC,SS,158,607,57,142,0.234
19,"Hunter, T",DET,RF,144,606,90,184,0.304
20,"Cano, R",NYY,2B,160,605,81,190,0.314
20,"Martinez, V",DET,DH,159,605,68,182,0.301
22,"Lowrie, J",OAK,SS,154,603,80,175,0.29
23,"Morales, K",SEA,1B,156,602,64,167,0.277
24,"Hardy, J",BAL,SS,159,601,66,158,0.263
25,"Trout, M",LAA,CF,157,589,109,190,0.323
26,"Davis, C",BAL,1B,160,584,103,167,0.286
27,"Butler, B",KC,DH,162,582,62,168,0.289
28,"Donaldson, J",OAK,3B,158,579,89,174,0.301
29,"Ellsbury, J",BOS,CF,134,577,92,172,0.298
30,"Hamilton, J",LAA,LF,151,576,73,144,0.25
31,"Kipnis, J",CLE,2B,149,564,86,160,0.284
32,"Dozier, B",MIN,2B,147,558,72,136,0.244
33,"Brantley, M",CLE,LF,151,556,66,158,0.284
34,"Cabrera, M",DET,1B,148,555,103,193,0.348
35,"Jackson, A",DET,CF,129,552,99,150,0.272
36,"Aybar, E",LAA,SS,138,550,68,149,0.271
37,"Loney, J",TB,1B,158,549,54,164,0.299
37,"Swisher, N",CLE,1B,145,549,74,135,0.246
39,"Kinsler, I",TEX,2B,136,545,85,151,0.277
40,"Dominguez, M",HOU,3B,152,543,56,131,0.241
41,"Santana, C",CLE,3B,154,541,75,145,0.268
42,"Gardner, B",NYY,LF,145,539,81,147,0.273
43,"McLouth, N",BAL,LF,146,531,76,137,0.258
44,"Encarnacion, E",TOR,1B,142,530,90,144,0.272
45,"Cespedes, Y",OAK,LF,135,529,74,127,0.24
46,"Jennings, D",TB,CF,139,527,82,133,0.252
47,"Bourn, M",CLE,CF,130,525,75,138,0.263
47,"Dunn, A",CWS,1B,149,525,60,115,0.219
49,"Wieters, M",BAL,C,148,523,59,123,0.235
50,"Suzuki, I",NYY,RF,150,520,57,136,0.262
51,"Ortiz, D",BOS,DH,137,518,84,160,0.309
52,"Crisp, C",OAK,CF,131,513,93,134,0.261
53,"Cabrera, A",CLE,SS,136,508,66,123,0.242
53,"Escobar, Y",TB,SS,153,508,61,130,0.256
55,"Carter, C",HOU,1B,148,506,64,113,0.223
56,"Pierzynski, A",TEX,C,134,503,48,137,0.272
57,"Napoli, M",BOS,1B,139,498,79,129,0.259
58,"Perez, S",KC,C,138,496,48,145,0.292
59,"Morneau, J",MIN,1B,127,495,56,128,0.259
60,"Doumit, R",MIN,C,135,485,49,120,0.247
61,"Kendrick, H",LAA,2B,122,478,55,142,0.297
62,"Plouffe, T",MIN,3B,129,477,44,121,0.254
62,"Victorino, S",BOS,RF,122,477,82,140,0.294
64,"Arencibia, J",TOR,C,138,474,45,92,0.194
65,"Moustakas, M",KC,3B,136,472,42,110,0.233
66,"Konerko, P",CWS,1B,126,467,41,114,0.244
67,"Lind, A",TOR,1B,143,465,67,134,0.288
68,"Moreland, M",TEX,1B,147,462,60,107,0.232
69,"Nava, D",BOS,RF,134,458,77,139,0.303
70,"Martin, L",TEX,CF,147,457,66,119,0.26
71,"Ibanez, R",SEA,LF,124,454,54,110,0.242
71,"Smoak, J",SEA,1B,131,454,53,108,0.238
73,"Callaspo, A",OAK,1B,136,453,52,117,0.258
73,"Infante, O",DET,2B,118,453,54,144,0.318
75,"Bautista, J",TOR,RF,118,452,82,117,0.259
76,"Moss, B",OAK,1B,145,446,73,114,0.256
77,"Mauer, J",MIN,C,113,445,62,144,0.324
77,"Overbay, L",NYY,1B,142,445,43,107,0.24
77,"Reynolds, M",NYY,1B,135,445,55,98,0.22
80,"Drew, S",BOS,SS,124,442,57,112,0.253
81,"Viciedo, D",CWS,RF,124,441,43,117,0.265
82,"Dirks, A",DET,LF,131,438,60,112,0.256
83,"Shuck, J",LAA,LF,129,437,60,128,0.293
84,"Murphy, D",TEX,LF,142,436,51,96,0.22
85,"Castro, J",HOU,C,120,435,63,120,0.276
86,"Stubbs, D",CLE,RF,146,430,59,100,0.233
87,"Saltalamacchia, J",BOS,C,121,425,68,116,0.273
88,"Wells, V",NYY,LF,130,424,45,99,0.233
89,"Keppinger, J",CWS,2B,117,423,38,107,0.253
90,"Bonifacio, E",KC,2B,136,420,54,102,0.243
91,"Rasmus, C",TOR,CF,118,417,57,115,0.276
92,"Cruz, N",TEX,RF,109,413,49,110,0.266
92,"Joyce, M",TB,LF,140,413,61,97,0.235
94,"Peralta, J",DET,SS,107,409,50,124,0.303
95,"Barnes, B",HOU,CF,136,408,46,98,0.24
95,"Gillaspie, C",CWS,3B,134,408,46,100,0.245
97,"Saunders, M",SEA,RF,132,406,59,96,0.236
98,"Florimon, P",MIN,SS,134,403,44,89,0.221
99,"Lawrie, B",TOR,3B,107,401,41,102,0.254
100,"Cain, L",KC,CF,115,399,54,100,0.251
101,"Pujols, A",LAA,1B,99,391,49,101,0.258
102,"Willingham, J",MIN,LF,111,389,42,81,0.208
103,"Reddick, J",OAK,RF,114,385,54,87,0.226
104,"Ackley, D",SEA,LF,113,384,40,97,0.253
105,"Reyes, J",TOR,SS,93,382,58,113,0.296
106,"Beckham, G",CWS,2B,103,371,46,99,0.267
107,"Franklin, N",SEA,2B,102,369,38,83,0.225
108,"Smith, S",OAK,LF,117,368,49,93,0.253
108,"Sogard, E",OAK,2B,130,368,45,98,0.266
110,"Johnson, K",TB,LF,118,366,41,86,0.235
111,"Izturis, M",TOR,2B,107,365,33,86,0.236
112,"Aviles, M",CLE,3B,124,361,54,91,0.252
113,"Arcia, O",MIN,LF,97,351,34,88,0.251
114,"Iglesias, J",DET,SS,109,350,39,106,0.303
115,"Middlebrooks, W",BOS,3B,94,348,41,79,0.227
116,"Cabrera, M",TOR,LF,88,344,39,96,0.279
117,"Myers, W",TB,RF,88,335,50,98,0.293
117,"Young, C",OAK,CF,107,335,46,67,0.2
119,"Davis, R",TOR,LF,108,331,49,86,0.26
120,"Avila, A",DET,C,102,330,39,75,0.227
121,"Iannetta, C",LAA,C,115,325,40,73,0.225
122,"Ryan, B",NYY,SS,104,319,30,63,0.197
123,"Lough, D",KC,RF,96,315,35,90,0.286
124,"Gomes, J",BOS,LF,116,312,49,77,0.247
124,"Morse, M",BAL,LF,88,312,34,67,0.215
126,"Miller, B",SEA,SS,76,306,41,81,0.265
127,"Nunez, E",NYY,SS,90,304,38,79,0.26
128,"Martinez, J",HOU,LF,86,296,24,74,0.25
129,"Parmelee, C",MIN,RF,101,294,21,67,0.228
129,"Stewart, C",NYY,C,109,294,28,62,0.211
131,"Gomes, Y",CLE,C,88,293,45,86,0.294
132,"Thomas, C",MIN,CF,92,290,39,62,0.214
133,"Chisenhall, L",CLE,3B,94,289,30,65,0.225
134,"Profar, J",TEX,2B,85,286,30,67,0.234
135,"Molina, J",TB,C,99,283,26,66,0.233
136,"Hicks, A",MIN,CF,81,281,37,54,0.192
137,"Pena, C",KC,1B,89,280,38,58,0.207
138,"Lobaton, J",TB,C,100,277,38,69,0.249
139,"Nix, J",NYY,SS,87,267,32,63,0.236
140,"Chavez, E",SEA,RF,97,266,22,71,0.267
141,"Roberts, B",BAL,2B,77,265,33,66,0.249
142,"Norris, D",OAK,C,98,264,41,65,0.246
143,"Hafner, T",NYY,DH,82,262,31,53,0.202
143,"Wallace, B",HOU,1B,79,262,35,58,0.221
145,"Grossman, R",HOU,LF,63,257,29,69,0.268
146,"Berkman, L",TEX,DH,73,256,27,62,0.242
146,"Flowers, T",CWS,C,84,256,24,50,0.195
148,"Scott, L",TB,DH,91,253,27,61,0.241
149,"Flaherty, R",BAL,3B,85,246,28,55,0.224
149,"Gentry, C",TEX,CF,106,246,39,69,0.28
151,"Garcia, A",CWS,RF,72,244,31,69,0.283
152,"Raburn, R",CLE,LF,86,243,40,66,0.272
153,"Kawasaki, M",TOR,SS,96,240,27,55,0.229
154,"Maxwell, J",KC,RF,75,234,35,59,0.252
155,"Conger, H",LAA,C,92,233,23,58,0.249
156,"Pena, B",DET,C,71,229,19,68,0.297
157,"Carroll, J",KC,2B,72,227,26,48,0.211
158,"Soriano, A",NYY,LF,58,219,37,56,0.256
159,"Carp, M",BOS,1B,86,216,34,64,0.296
159,"Kelly, D",DET,RF,112,216,33,48,0.222
161,"Granderson, C",NYY,CF,61,214,31,49,0.229
162,"Dyson, J",KC,CF,87,213,30,55,0.258
163,"Villar, J",HOU,SS,58,210,26,51,0.243
164,"Getz, C",KC,2B,78,209,29,46,0.22
165,"Jaso, J",OAK,C,70,207,31,56,0.271
166,"Bay, J",SEA,RF,68,206,30,42,0.204
167,"Santiago, R",DET,2B,80,205,27,46,0.224
168,"DeRosa, M",TOR,2B,88,204,23,48,0.235
168,"Gonzalez, M",HOU,3B,72,204,22,45,0.221
168,"Phegley, J",CWS,C,65,204,14,42,0.206
171,"Calhoun, K",LAA,RF,58,195,29,55,0.282
171,"Rodriguez, S",TB,LF,96,195,21,48,0.246
173,"Corporan, C",HOU,C,64,191,16,43,0.225
174,"Freiman, N",OAK,1B,80,190,10,52,0.274
175,"Giambi, J",CLE,DH,71,186,21,34,0.183
176,"Francoeur, J",KC,RF,59,183,19,38,0.208
177,"Fuld, S",TB,LF,118,176,25,35,0.199
178,"Bourjos, P",LAA,CF,55,175,26,48,0.274
179,"Zunino, M",SEA,C,52,173,22,37,0.214
180,"Hoes, L",HOU,LF,47,170,24,48,0.282
181,"Crowe, T",HOU,RF,60,165,18,36,0.218
181,"Escobar, E",MIN,SS,66,165,23,39,0.236
183,"Tuiasosopo, M",DET,LF,81,164,26,40,0.244
184,"Soto, G",TEX,C,54,163,20,40,0.245
185,"Johnson, E",KC,2B,79,162,19,29,0.179
185,"Roberts, R",TB,2B,60,162,15,40,0.247
187,"Valencia, D",BAL,DH,52,161,20,49,0.304
188,"Colabello, C",MIN,1B,55,160,14,31,0.194
188,"Danks, J",CWS,CF,79,160,15,37,0.231
190,"Herrmann, C",MIN,C,57,157,16,32,0.204
191,"Rodriguez, A",NYY,3B,44,156,21,38,0.244
191,"Tejada, M",KC,2B,53,156,15,45,0.288
193,"Baker, J",TEX,LF,74,154,21,43,0.279
194,"Gose, A",TOR,CF,52,147,15,38,0.259
194,"Rosales, A",TEX,1B,68,147,15,28,0.19
196,"Gutierrez, F",SEA,RF,41,145,18,36,0.248
196,"Nelson, C",LAA,3B,43,145,13,32,0.221
198,"Cedeno, R",HOU,SS,51,141,12,31,0.22
199,"Adams, D",NYY,3B,43,140,10,27,0.193
199,"Green, G",LAA,2B,45,140,16,35,0.25
201,"Romine, A",NYY,C,60,135,15,28,0.207
201,"Vogt, S",OAK,C,47,135,18,34,0.252
203,"Blanco, H",SEA,C,50,134,11,19,0.142
203,"Krauss, M",HOU,1B,52,134,11,28,0.209
205,"Reimold, N",BAL,LF,40,128,17,25,0.195
206,"Paredes, J",HOU,RF,48,125,8,24,0.192
207,"Elmore, J",HOU,SS,52,120,16,29,0.242
207,"Thole, J",TOR,C,45,120,11,21,0.175
209,"Goins, R",TOR,2B,34,119,11,30,0.252
209,"Pearce, S",BAL,LF,44,119,14,31,0.261
211,"Presley, A",MIN,CF,28,113,9,32,0.283
212,"Casilla, A",BAL,2B,62,112,15,24,0.214
213,"Shoppach, K",CLE,C,36,109,11,21,0.193
214,"Romine, A",LAA,3B,47,108,9,28,0.259
215,"Harris, B",TEX,SS,44,107,14,22,0.206
215,"Sierra, M",TOR,RF,35,107,11,31,0.29
217,"Almonte, Z",NYY,LF,34,106,9,25,0.236
218,"Dickerson, C",BAL,LF,56,105,17,25,0.238
218,"Youkilis, K",NYY,3B,28,105,12,23,0.219
220,"Barton, D",OAK,1B,37,104,15,28,0.269
220,"DeJesus, D",TB,LF,35,104,13,27,0.26
220,"Jimenez, L",LAA,3B,34,104,15,27,0.26
223,"Pillar, K",TOR,LF,36,102,11,21,0.206
223,"Ross, D",BOS,C,36,102,11,22,0.216
225,"Garcia, L",CWS,2B,45,101,10,20,0.198
225,"Montero, J",SEA,1B,29,101,6,21,0.208
227,"Kottaras, G",KC,C,46,100,13,18,0.18
