Metal,Sealer,Corrosion
1,1,4.6
1,2,4.2
1,3,4.9
2,1,7.2
2,2,6.4
2,3,7
3,1,3.4
3,2,3.5
3,3,3.4
4,1,6.2
4,2,5.3
4,3,5.9
5,1,8.4
5,2,6.8
5,3,7.8
6,1,5.6
6,2,4.8
6,3,5.7
7,1,3.7
7,2,3.7
7,3,4.1
8,1,6.1
8,2,6.2
8,3,6.4
9,1,4.9
9,2,4.1
9,3,4.2
10,1,5.2
10,2,5
10,3,5.1
