CHANGE,TREATMENT
-20,VRH
-56,VRH
-34,VRH
0,VRH
16,VRH
0,VRH
-14,VRH
-7,VRH
-44,VRH
43,VRH
-11,VRH
-12,VRD
63,VRD
12,VRD
-7,VRD
29,VRD
51,CONTROL
21,CONTROL
8,CONTROL
0,CONTROL
4,CONTROL
