WearDegree,M2Depth
Unknown,18.12
Unknown,19.48
Unknown,19.36
Moderate,15.94
Slight,15.83
Unknown,19.7
Moderate-heavy,15.76
Moderate,17
Slight,13.96
Slight,16.55
Slight,15.7
Heavy,17.83
Unworn,13.25
Light-moderate,16.12
Light-moderate,18.13
Moderate,14.02
Unworn,14.04
Unknown,16.2
