%!PS-Adobe-3.0 EPSF-3.0
%%DocumentNeededResources: font Helvetica
%%+ font Helvetica-Bold
%%+ font Helvetica-Oblique
%%+ font Helvetica-BoldOblique
%%+ font Symbol
%%Title: R Graphics Output
%%Creator: R Software
%%Pages: (atend)
%%BoundingBox: 0 0 450 392
%%EndComments
%%BeginProlog
/bp  { gs sRGB gs } def
% begin .ps.prolog
/gs  { gsave } bind def
/gr  { grestore } bind def
/ep  { showpage gr gr } bind def
/m   { moveto } bind def
/l  { rlineto } bind def
/np  { newpath } bind def
/cp  { closepath } bind def
/f   { fill } bind def
/o   { stroke } bind def
/c   { newpath 0 360 arc } bind def
/r   { 4 2 roll moveto 1 copy 3 -1 roll exch 0 exch rlineto 0 rlineto -1 mul 0 exch rlineto closepath } bind def
/p1  { stroke } bind def
/p2  { gsave bg fill grestore newpath } bind def
/p3  { gsave bg fill grestore stroke } bind def
/p6  { gsave bg eofill grestore newpath } bind def
/p7  { gsave bg eofill grestore stroke } bind def
/t   { 5 -2 roll moveto gsave rotate
       1 index stringwidth pop
       mul neg 0 rmoveto show grestore } bind def
/ta  { 4 -2 roll moveto gsave rotate show } bind def
/tb  { 2 -1 roll 0 rmoveto show } bind def
/cl  { grestore gsave newpath 3 index 3 index moveto 1 index
       4 -1 roll lineto  exch 1 index lineto lineto
       closepath clip newpath } bind def
/rgb { setrgbcolor } bind def
/s   { scalefont setfont } bind def
% end   .ps.prolog
/sRGB { [ /CIEBasedABC
          << /DecodeLMN
               [ { dup 0.03928 le
                        {12.92321 div}
                        {0.055 add 1.055 div 2.4 exp }
                     ifelse
                 } bind dup dup
               ]
             /MatrixLMN [0.412457 0.212673 0.019334
                         0.357576 0.715152 0.119192
                         0.180437 0.072175 0.950301]
             /WhitePoint [0.9505 1.0 1.0890]
           >>
         ] setcolorspace } bind def
/srgb { setcolor } bind def
%%IncludeResource: font Helvetica
/Helvetica findfont
dup length dict begin
  {1 index /FID ne {def} {pop pop} ifelse} forall
  /Encoding ISOLatin1Encoding def
  currentdict
  end
/Font1 exch definefont pop
%%IncludeResource: font Helvetica-Bold
/Helvetica-Bold findfont
dup length dict begin
  {1 index /FID ne {def} {pop pop} ifelse} forall
  /Encoding ISOLatin1Encoding def
  currentdict
  end
/Font2 exch definefont pop
%%IncludeResource: font Helvetica-Oblique
/Helvetica-Oblique findfont
dup length dict begin
  {1 index /FID ne {def} {pop pop} ifelse} forall
  /Encoding ISOLatin1Encoding def
  currentdict
  end
/Font3 exch definefont pop
%%IncludeResource: font Helvetica-BoldOblique
/Helvetica-BoldOblique findfont
dup length dict begin
  {1 index /FID ne {def} {pop pop} ifelse} forall
  /Encoding ISOLatin1Encoding def
  currentdict
  end
/Font4 exch definefont pop
%%IncludeResource: font Symbol
/Symbol findfont
dup length dict begin
  {1 index /FID ne {def} {pop pop} ifelse} forall
  currentdict
  end
/Font5 exch definefont pop
%%EndProlog
%%Page: 1 1
bp
/bg { 1 1 1 srgb } def
0.00 0.00 450.00 391.50 r p2
49.00 256.71 199.90 342.50 cl
0.00 195.75 225.00 391.50 cl
/Font2 findfont 12 s
0 0 0 srgb
48.59 362.69 (W) 0 ta
-0.420 (estbr) tb
-0.240 (ook Reb 2016-2017) tb gr
/Font1 findfont 10 s
110.56 211.29 (P) 0 ta
-0.500 (oints) tb gr
10.76 299.60 (probability) .5 90 t
0.00 0.00 450.00 391.50 cl
0 0 0 srgb
0.75 setlinewidth
[] 0 setdash
1 setlinecap
1 setlinejoin
10.00 setmiterlimit
np
80.79 256.71 m
87.32 0 l
o
np
80.79 256.71 m
0 -5.98 l
o
np
124.45 256.71 m
0 -5.98 l
o
np
168.11 256.71 m
0 -5.98 l
o
/Font1 findfont 10 s
80.79 235.19 (5) .5 0 t
124.45 235.19 (10) .5 0 t
168.11 235.19 (15) .5 0 t
np
49.00 259.88 m
0 77.22 l
o
np
49.00 259.88 m
-5.97 0 l
o
np
49.00 285.62 m
-5.97 0 l
o
np
49.00 311.36 m
-5.97 0 l
o
np
49.00 337.10 m
-5.97 0 l
o
34.66 259.88 (0.00) .5 90 t
34.66 311.36 (0.10) .5 90 t
49.00 256.71 199.90 342.50 cl
/bg { 0.6784 0.8471 0.9020 srgb } def
0 0 0 srgb
0.75 setlinewidth
[] 0 setdash
1 setlinecap
1 setlinejoin
10.00 setmiterlimit
54.59 259.88 17.46 9.53 r p3
72.06 259.88 17.47 38.13 r p3
89.52 259.88 17.47 31.77 r p3
106.99 259.88 17.46 19.06 r p3
124.45 259.88 17.47 79.44 r p3
141.92 259.88 17.46 41.31 r p3
159.38 259.88 17.47 15.89 r p3
176.85 259.88 17.47 22.24 r p3
1 0 0 srgb
np
27.22 259.91 m
0.40 0 l
0.39 0 l
0.40 0.01 l
0.40 0 l
0.40 0 l
0.39 0.01 l
0.40 0 l
0.40 0.01 l
0.40 0 l
0.40 0.01 l
0.39 0.01 l
0.40 0 l
0.40 0.01 l
0.40 0.01 l
0.39 0.01 l
0.40 0.01 l
0.40 0.01 l
0.40 0.01 l
0.39 0.01 l
0.40 0.01 l
0.40 0.02 l
0.40 0.01 l
0.39 0.02 l
0.40 0.02 l
0.40 0.02 l
0.40 0.02 l
0.40 0.02 l
0.39 0.02 l
0.40 0.03 l
0.40 0.02 l
0.40 0.03 l
0.39 0.03 l
0.40 0.03 l
0.40 0.04 l
0.40 0.03 l
0.39 0.04 l
0.40 0.04 l
0.40 0.04 l
0.40 0.05 l
0.39 0.05 l
0.40 0.05 l
0.40 0.05 l
0.40 0.06 l
0.40 0.06 l
0.39 0.06 l
0.40 0.07 l
0.40 0.07 l
0.40 0.07 l
0.39 0.08 l
0.40 0.08 l
0.40 0.08 l
0.40 0.09 l
0.39 0.10 l
0.40 0.09 l
0.40 0.10 l
0.40 0.11 l
0.39 0.11 l
0.40 0.12 l
0.40 0.12 l
0.40 0.12 l
0.40 0.13 l
0.39 0.14 l
0.40 0.14 l
0.40 0.15 l
0.40 0.15 l
0.39 0.16 l
0.40 0.16 l
0.40 0.17 l
0.40 0.17 l
0.39 0.19 l
0.40 0.19 l
0.40 0.19 l
0.40 0.20 l
0.39 0.21 l
0.40 0.21 l
0.40 0.22 l
0.40 0.23 l
0.40 0.23 l
0.39 0.24 l
0.40 0.25 l
0.40 0.25 l
0.40 0.26 l
0.39 0.27 l
0.40 0.27 l
0.40 0.28 l
0.40 0.29 l
0.39 0.29 l
0.40 0.30 l
0.40 0.31 l
0.40 0.32 l
0.39 0.32 l
0.40 0.33 l
0.40 0.33 l
0.40 0.34 l
0.40 0.35 l
0.39 0.35 l
0.40 0.36 l
0.40 0.36 l
0.40 0.37 l
66.98 272.37 lineto
0.40 0.38 l
0.40 0.39 l
0.40 0.39 l
0.39 0.40 l
0.40 0.40 l
0.40 0.40 l
0.40 0.41 l
0.39 0.42 l
0.40 0.41 l
0.40 0.42 l
0.40 0.42 l
0.40 0.43 l
0.39 0.42 l
0.40 0.43 l
0.40 0.43 l
0.40 0.43 l
0.39 0.43 l
0.40 0.43 l
0.40 0.43 l
0.40 0.43 l
0.39 0.43 l
0.40 0.42 l
0.40 0.43 l
0.40 0.42 l
0.40 0.42 l
0.39 0.41 l
0.40 0.41 l
0.40 0.41 l
0.40 0.40 l
0.39 0.39 l
0.40 0.40 l
0.40 0.38 l
0.40 0.38 l
0.39 0.37 l
0.40 0.36 l
0.40 0.35 l
0.40 0.35 l
0.39 0.34 l
0.40 0.33 l
0.40 0.32 l
0.40 0.31 l
0.40 0.29 l
0.39 0.29 l
0.40 0.28 l
0.40 0.27 l
0.40 0.25 l
0.39 0.25 l
0.40 0.23 l
0.40 0.22 l
0.40 0.21 l
0.39 0.20 l
0.40 0.18 l
0.40 0.18 l
0.40 0.15 l
0.39 0.15 l
0.40 0.14 l
0.40 0.12 l
0.40 0.11 l
0.40 0.10 l
0.39 0.08 l
0.40 0.08 l
0.40 0.06 l
0.40 0.05 l
0.39 0.04 l
0.40 0.03 l
0.40 0.01 l
0.40 0.01 l
0.39 -0.01 l
0.40 -0.01 l
0.40 -0.03 l
0.40 -0.03 l
0.39 -0.04 l
0.40 -0.05 l
0.40 -0.06 l
0.40 -0.07 l
0.40 -0.07 l
0.39 -0.08 l
0.40 -0.09 l
0.40 -0.09 l
0.40 -0.10 l
0.39 -0.10 l
0.40 -0.10 l
0.40 -0.11 l
0.40 -0.11 l
0.39 -0.11 l
0.40 -0.11 l
0.40 -0.12 l
0.40 -0.11 l
0.39 -0.11 l
0.40 -0.11 l
0.40 -0.11 l
0.40 -0.10 l
0.40 -0.10 l
0.39 -0.09 l
0.40 -0.09 l
0.40 -0.08 l
0.40 -0.07 l
0.39 -0.07 l
0.40 -0.06 l
106.75 290.04 lineto
0.40 -0.03 l
0.39 -0.03 l
0.40 -0.01 l
0.40 0 l
0.40 0.01 l
0.39 0.03 l
0.40 0.04 l
0.40 0.06 l
0.40 0.07 l
0.40 0.09 l
0.39 0.11 l
0.40 0.12 l
0.40 0.14 l
0.40 0.17 l
0.39 0.17 l
0.40 0.21 l
0.40 0.22 l
0.40 0.23 l
0.39 0.27 l
0.40 0.28 l
0.40 0.30 l
0.40 0.32 l
0.39 0.34 l
0.40 0.36 l
0.40 0.39 l
0.40 0.40 l
0.40 0.42 l
0.39 0.44 l
0.40 0.46 l
0.40 0.48 l
0.40 0.49 l
0.39 0.52 l
0.40 0.53 l
0.40 0.54 l
0.40 0.56 l
0.39 0.57 l
0.40 0.59 l
0.40 0.60 l
0.40 0.60 l
0.39 0.62 l
0.40 0.63 l
0.40 0.63 l
0.40 0.64 l
0.40 0.65 l
0.39 0.64 l
0.40 0.65 l
0.40 0.65 l
0.40 0.65 l
0.39 0.65 l
0.40 0.65 l
0.40 0.63 l
0.40 0.64 l
0.39 0.62 l
0.40 0.62 l
0.40 0.60 l
0.40 0.60 l
0.39 0.58 l
0.40 0.56 l
0.40 0.56 l
0.40 0.53 l
0.40 0.51 l
0.39 0.50 l
0.40 0.47 l
0.40 0.46 l
0.40 0.44 l
0.39 0.40 l
0.40 0.39 l
0.40 0.36 l
0.40 0.33 l
0.39 0.31 l
0.40 0.29 l
0.40 0.25 l
0.40 0.23 l
0.39 0.20 l
0.40 0.17 l
0.40 0.14 l
0.40 0.12 l
0.40 0.08 l
0.39 0.05 l
0.40 0.03 l
0.40 0 l
0.40 -0.03 l
0.39 -0.06 l
0.40 -0.08 l
0.40 -0.12 l
0.40 -0.14 l
0.39 -0.17 l
0.40 -0.20 l
0.40 -0.22 l
0.40 -0.24 l
0.39 -0.28 l
0.40 -0.29 l
0.40 -0.32 l
0.40 -0.34 l
0.40 -0.37 l
0.39 -0.38 l
0.40 -0.41 l
0.40 -0.42 l
0.40 -0.44 l
146.51 314.85 lineto
0.40 -0.48 l
0.40 -0.49 l
0.40 -0.51 l
0.39 -0.53 l
0.40 -0.54 l
0.40 -0.55 l
0.40 -0.57 l
0.39 -0.57 l
0.40 -0.59 l
0.40 -0.59 l
0.40 -0.61 l
0.40 -0.61 l
0.39 -0.61 l
0.40 -0.63 l
0.40 -0.63 l
0.40 -0.63 l
0.39 -0.63 l
0.40 -0.64 l
0.40 -0.64 l
0.40 -0.64 l
0.39 -0.64 l
0.40 -0.64 l
0.40 -0.64 l
0.40 -0.64 l
0.39 -0.64 l
0.40 -0.63 l
0.40 -0.62 l
0.40 -0.63 l
0.40 -0.61 l
0.39 -0.62 l
0.40 -0.60 l
0.40 -0.60 l
0.40 -0.59 l
0.39 -0.58 l
0.40 -0.57 l
0.40 -0.57 l
0.40 -0.56 l
0.39 -0.54 l
0.40 -0.54 l
0.40 -0.53 l
0.40 -0.51 l
0.39 -0.51 l
0.40 -0.49 l
0.40 -0.48 l
0.40 -0.47 l
0.40 -0.46 l
0.39 -0.45 l
0.40 -0.43 l
0.40 -0.43 l
0.40 -0.40 l
0.39 -0.40 l
0.40 -0.39 l
0.40 -0.37 l
0.40 -0.36 l
0.39 -0.36 l
0.40 -0.33 l
0.40 -0.33 l
0.40 -0.31 l
0.39 -0.30 l
0.40 -0.29 l
0.40 -0.29 l
0.40 -0.26 l
0.40 -0.26 l
0.39 -0.25 l
0.40 -0.24 l
0.40 -0.23 l
0.40 -0.22 l
0.39 -0.21 l
0.40 -0.20 l
0.40 -0.19 l
0.40 -0.19 l
0.39 -0.18 l
0.40 -0.17 l
0.40 -0.17 l
0.40 -0.15 l
0.39 -0.16 l
0.40 -0.15 l
0.40 -0.14 l
0.40 -0.14 l
0.40 -0.14 l
0.39 -0.13 l
0.40 -0.13 l
0.40 -0.13 l
0.40 -0.13 l
0.39 -0.13 l
0.40 -0.13 l
0.40 -0.12 l
0.40 -0.13 l
0.39 -0.13 l
0.40 -0.12 l
0.40 -0.14 l
0.40 -0.13 l
0.40 -0.13 l
0.39 -0.14 l
0.40 -0.14 l
0.40 -0.15 l
0.40 -0.15 l
0.39 -0.15 l
0.40 -0.16 l
186.28 276.43 lineto
0.40 -0.16 l
0.39 -0.18 l
0.40 -0.17 l
0.40 -0.18 l
0.40 -0.19 l
0.39 -0.19 l
0.40 -0.20 l
0.40 -0.20 l
0.40 -0.21 l
0.40 -0.22 l
0.39 -0.22 l
0.40 -0.22 l
0.40 -0.23 l
0.40 -0.23 l
0.39 -0.24 l
0.40 -0.25 l
0.40 -0.24 l
0.40 -0.26 l
0.39 -0.25 l
0.40 -0.26 l
0.40 -0.26 l
0.40 -0.27 l
0.39 -0.26 l
0.40 -0.27 l
0.40 -0.27 l
0.40 -0.27 l
0.40 -0.28 l
0.39 -0.27 l
0.40 -0.28 l
0.40 -0.27 l
0.40 -0.27 l
0.39 -0.28 l
0.40 -0.27 l
0.40 -0.27 l
0.40 -0.27 l
0.39 -0.27 l
0.40 -0.26 l
0.40 -0.26 l
0.40 -0.26 l
0.39 -0.26 l
0.40 -0.25 l
0.40 -0.25 l
0.40 -0.24 l
0.40 -0.24 l
0.39 -0.24 l
0.40 -0.23 l
0.40 -0.22 l
0.40 -0.23 l
0.39 -0.21 l
0.40 -0.21 l
0.40 -0.21 l
0.40 -0.19 l
0.39 -0.20 l
0.40 -0.19 l
0.40 -0.18 l
0.40 -0.17 l
0.39 -0.18 l
0.40 -0.16 l
0.40 -0.16 l
0.40 -0.15 l
0.40 -0.15 l
0.39 -0.14 l
0.40 -0.14 l
0.40 -0.13 l
0.40 -0.13 l
0.39 -0.12 l
0.40 -0.11 l
0.40 -0.11 l
0.40 -0.11 l
0.39 -0.10 l
0.40 -0.09 l
0.40 -0.09 l
0.40 -0.09 l
0.39 -0.08 l
0.40 -0.08 l
0.40 -0.07 l
0.40 -0.07 l
0.40 -0.06 l
0.39 -0.07 l
0.40 -0.05 l
0.40 -0.06 l
0.40 -0.05 l
0.39 -0.05 l
0.40 -0.04 l
0.40 -0.05 l
0.40 -0.04 l
0.39 -0.03 l
0.40 -0.04 l
0.40 -0.03 l
0.40 -0.03 l
0.39 -0.03 l
0.40 -0.03 l
0.40 -0.02 l
0.40 -0.02 l
0.40 -0.03 l
0.39 -0.01 l
0.40 -0.02 l
0.40 -0.02 l
0.40 -0.01 l
226.04 260.03 lineto
0.40 -0.01 l
0.40 -0.01 l
0.40 -0.02 l
0.39 -0.01 l
0.40 -0.01 l
0.40 0 l
0.40 -0.01 l
0.39 -0.01 l
0.40 -0.01 l
0.40 0 l
0.40 -0.01 l
o
274.00 256.71 424.90 342.50 cl
0 0 0 srgb
0.75 setlinewidth
[] 0 setdash
1 setlinecap
1 setlinejoin
10.00 setmiterlimit
355.55 307.54 2.24 c p1
363.90 312.84 2.24 c p1
341.57 302.25 2.24 c p1
314.44 275.77 2.24 c p1
316.26 275.77 2.24 c p1
317.95 275.77 2.24 c p1
301.58 270.47 2.24 c p1
325.08 281.07 2.24 c p1
375.11 318.14 2.24 c p1
356.44 307.54 2.24 c p1
379.37 323.43 2.24 c p1
326.32 281.07 2.24 c p1
337.90 296.95 2.24 c p1
342.47 302.25 2.24 c p1
330.89 286.36 2.24 c p1
343.36 302.25 2.24 c p1
344.24 302.25 2.24 c p1
364.89 312.84 2.24 c p1
388.64 334.02 2.24 c p1
376.46 318.14 2.24 c p1
391.10 334.02 2.24 c p1
365.91 312.84 2.24 c p1
338.83 296.95 2.24 c p1
357.33 307.54 2.24 c p1
319.54 275.77 2.24 c p1
321.03 275.77 2.24 c p1
345.11 302.25 2.24 c p1
345.99 302.25 2.24 c p1
339.76 296.95 2.24 c p1
346.86 302.25 2.24 c p1
327.52 281.07 2.24 c p1
393.94 334.02 2.24 c p1
304.97 270.47 2.24 c p1
358.24 307.54 2.24 c p1
328.68 281.07 2.24 c p1
380.95 323.43 2.24 c p1
331.95 286.36 2.24 c p1
397.32 334.02 2.24 c p1
335.99 291.66 2.24 c p1
366.95 312.84 2.24 c p1
347.72 302.25 2.24 c p1
348.59 302.25 2.24 c p1
307.81 270.47 2.24 c p1
382.64 323.43 2.24 c p1
349.45 302.25 2.24 c p1
359.15 307.54 2.24 c p1
332.99 286.36 2.24 c p1
360.07 307.54 2.24 c p1
322.44 275.77 2.24 c p1
310.27 270.47 2.24 c p1
368.01 312.84 2.24 c p1
291.23 265.18 2.24 c p1
407.68 339.32 2.24 c p1
361.01 307.54 2.24 c p1
350.32 302.25 2.24 c p1
297.29 265.18 2.24 c p1
377.88 318.14 2.24 c p1
419.31 339.32 2.24 c p1
351.18 302.25 2.24 c p1
352.05 302.25 2.24 c p1
329.80 281.07 2.24 c p1
401.61 334.02 2.24 c p1
323.79 275.77 2.24 c p1
279.59 259.88 2.24 c p1
369.11 312.84 2.24 c p1
352.92 302.25 2.24 c p1
361.95 307.54 2.24 c p1
340.67 296.95 2.24 c p1
334.01 286.36 2.24 c p1
335.01 286.36 2.24 c p1
353.79 302.25 2.24 c p1
354.67 302.25 2.24 c p1
370.23 312.84 2.24 c p1
371.39 312.84 2.24 c p1
384.46 323.43 2.24 c p1
372.58 312.84 2.24 c p1
373.82 312.84 2.24 c p1
336.95 291.66 2.24 c p1
362.92 307.54 2.24 c p1
386.45 328.73 2.24 c p1
312.46 270.47 2.24 c p1
0.00 0.00 450.00 391.50 cl
0 0 0 srgb
0.75 setlinewidth
[] 0 setdash
1 setlinecap
1 setlinejoin
10.00 setmiterlimit
np
293.61 256.71 m
111.68 0 l
o
np
293.61 256.71 m
0 -5.98 l
o
np
321.53 256.71 m
0 -5.98 l
o
np
349.45 256.71 m
0 -5.98 l
o
np
377.37 256.71 m
0 -5.98 l
o
np
405.29 256.71 m
0 -5.98 l
o
/Font1 findfont 10 s
293.61 235.19 (-2) .5 0 t
321.53 235.19 (-1) .5 0 t
349.45 235.19 (0) .5 0 t
377.37 235.19 (1) .5 0 t
405.29 235.19 (2) .5 0 t
np
274.00 270.47 m
0 52.96 l
o
np
274.00 270.47 m
-5.97 0 l
o
np
274.00 296.95 m
-5.97 0 l
o
np
274.00 323.43 m
-5.97 0 l
o
259.66 270.47 (5) .5 90 t
259.66 296.95 (10) .5 90 t
259.66 323.43 (15) .5 90 t
np
274.00 256.71 m
150.90 0 l
0 85.79 l
-150.90 0 l
0 -85.79 l
o
225.00 195.75 450.00 391.50 cl
/Font2 findfont 12 s
0 0 0 srgb
259.10 362.69 (W) 0 ta
-0.420 (estbr) tb
-0.240 (ook Reb Normal QQ Plot) tb gr
/Font1 findfont 10 s
349.45 211.29 (Theoretical Quantiles) .5 0 t
235.76 299.60 (Sample Quantiles) .5 90 t
274.00 256.71 424.90 342.50 cl
0 0 0 srgb
0.75 setlinewidth
[] 0 setdash
1 setlinecap
1 setlinejoin
10.00 setmiterlimit
np
274.00 246.56 m
150.90 106.08 l
o
49.00 60.96 199.90 146.75 cl
0.00 0.00 225.00 195.75 cl
/Font2 findfont 12 s
0 0 0 srgb
58.92 166.94 (Har) 0 ta
-0.240 (den Reb 2016-2017) tb gr
/Font1 findfont 10 s
110.56 15.54 (P) 0 ta
-0.500 (oints) tb gr
10.76 103.85 (probability) .5 90 t
0.00 0.00 450.00 391.50 cl
0 0 0 srgb
0.75 setlinewidth
[] 0 setdash
1 setlinecap
1 setlinejoin
10.00 setmiterlimit
np
54.59 60.96 m
139.72 0 l
o
np
54.59 60.96 m
0 -5.98 l
o
np
74.55 60.96 m
0 -5.98 l
o
np
94.51 60.96 m
0 -5.98 l
o
np
114.47 60.96 m
0 -5.98 l
o
np
134.43 60.96 m
0 -5.98 l
o
np
154.39 60.96 m
0 -5.98 l
o
np
174.35 60.96 m
0 -5.98 l
o
np
194.31 60.96 m
0 -5.98 l
o
/Font1 findfont 10 s
54.59 39.44 (2) .5 0 t
74.55 39.44 (4) .5 0 t
94.51 39.44 (6) .5 0 t
114.47 39.44 (8) .5 0 t
134.43 39.44 (10) .5 0 t
154.39 39.44 (12) .5 0 t
174.35 39.44 (14) .5 0 t
194.31 39.44 (16) .5 0 t
np
49.00 64.13 m
0 78.33 l
o
np
49.00 64.13 m
-5.97 0 l
o
np
49.00 75.32 m
-5.97 0 l
o
np
49.00 86.51 m
-5.97 0 l
o
np
49.00 97.70 m
-5.97 0 l
o
np
49.00 108.89 m
-5.97 0 l
o
np
49.00 120.08 m
-5.97 0 l
o
np
49.00 131.27 m
-5.97 0 l
o
np
49.00 142.46 m
-5.97 0 l
o
34.66 64.13 (0.00) .5 90 t
34.66 97.70 (0.06) .5 90 t
34.66 131.27 (0.12) .5 90 t
49.00 60.96 199.90 146.75 cl
/bg { 0.6784 0.8471 0.9020 srgb } def
0 0 0 srgb
0.75 setlinewidth
[] 0 setdash
1 setlinecap
1 setlinejoin
10.00 setmiterlimit
54.59 64.13 19.96 24.18 r p3
74.55 64.13 19.96 65.62 r p3
94.51 64.13 19.96 79.44 r p3
114.47 64.13 19.96 41.45 r p3
134.43 64.13 19.96 48.35 r p3
154.39 64.13 19.96 10.36 r p3
174.35 64.13 19.96 10.36 r p3
1 0 0 srgb
np
21.19 64.16 m
0.41 0.01 l
0.40 0 l
0.40 0.01 l
0.41 0 l
0.40 0.01 l
0.41 0 l
0.40 0.01 l
0.40 0.01 l
0.41 0.01 l
0.40 0 l
0.41 0.01 l
0.40 0.02 l
0.41 0.01 l
0.40 0.01 l
0.40 0.01 l
0.41 0.02 l
0.40 0.01 l
0.41 0.02 l
0.40 0.02 l
0.40 0.02 l
0.41 0.02 l
0.40 0.03 l
0.41 0.02 l
0.40 0.03 l
0.41 0.03 l
0.40 0.03 l
0.40 0.04 l
0.41 0.03 l
0.40 0.04 l
0.41 0.05 l
0.40 0.04 l
0.40 0.05 l
0.41 0.05 l
0.40 0.05 l
0.41 0.06 l
0.40 0.06 l
0.41 0.07 l
0.40 0.07 l
0.40 0.07 l
0.41 0.08 l
0.40 0.08 l
0.41 0.08 l
0.40 0.09 l
0.40 0.10 l
0.41 0.10 l
0.40 0.10 l
0.41 0.11 l
0.40 0.12 l
0.40 0.12 l
0.41 0.12 l
0.40 0.13 l
0.41 0.14 l
0.40 0.14 l
0.41 0.15 l
0.40 0.15 l
0.40 0.16 l
0.41 0.17 l
0.40 0.17 l
0.41 0.18 l
0.40 0.18 l
0.40 0.19 l
0.41 0.20 l
0.40 0.20 l
0.41 0.21 l
0.40 0.22 l
0.41 0.22 l
0.40 0.22 l
0.40 0.24 l
0.41 0.23 l
0.40 0.25 l
0.41 0.25 l
0.40 0.26 l
0.40 0.26 l
0.41 0.27 l
0.40 0.27 l
0.41 0.28 l
0.40 0.29 l
0.41 0.29 l
0.40 0.29 l
0.40 0.30 l
0.41 0.31 l
0.40 0.31 l
0.41 0.31 l
0.40 0.32 l
0.40 0.33 l
0.41 0.33 l
0.40 0.33 l
0.41 0.34 l
0.40 0.35 l
0.41 0.34 l
0.40 0.36 l
0.40 0.36 l
0.41 0.36 l
0.40 0.37 l
0.41 0.37 l
0.40 0.37 l
0.40 0.39 l
0.41 0.38 l
0.40 0.40 l
61.61 79.84 lineto
0.40 0.41 l
0.40 0.41 l
0.41 0.41 l
0.40 0.42 l
0.41 0.43 l
0.40 0.43 l
0.41 0.44 l
0.40 0.45 l
0.40 0.45 l
0.41 0.46 l
0.40 0.47 l
0.41 0.48 l
0.40 0.49 l
0.40 0.49 l
0.41 0.51 l
0.40 0.51 l
0.41 0.52 l
0.40 0.54 l
0.41 0.54 l
0.40 0.55 l
0.40 0.57 l
0.41 0.57 l
0.40 0.59 l
0.41 0.60 l
0.40 0.61 l
0.40 0.61 l
0.41 0.64 l
0.40 0.64 l
0.41 0.66 l
0.40 0.67 l
0.41 0.68 l
0.40 0.69 l
0.40 0.71 l
0.41 0.71 l
0.40 0.73 l
0.41 0.74 l
0.40 0.75 l
0.40 0.77 l
0.41 0.77 l
0.40 0.78 l
0.41 0.80 l
0.40 0.81 l
0.41 0.81 l
0.40 0.83 l
0.40 0.83 l
0.41 0.84 l
0.40 0.85 l
0.41 0.86 l
0.40 0.86 l
0.40 0.87 l
0.41 0.87 l
0.40 0.88 l
0.41 0.88 l
0.40 0.89 l
0.40 0.89 l
0.41 0.89 l
0.40 0.89 l
0.41 0.89 l
0.40 0.89 l
0.41 0.89 l
0.40 0.89 l
0.40 0.88 l
0.41 0.87 l
0.40 0.87 l
0.41 0.87 l
0.40 0.86 l
0.40 0.84 l
0.41 0.84 l
0.40 0.83 l
0.41 0.81 l
0.40 0.80 l
0.41 0.79 l
0.40 0.77 l
0.40 0.75 l
0.41 0.74 l
0.40 0.72 l
0.41 0.70 l
0.40 0.67 l
0.40 0.66 l
0.41 0.62 l
0.40 0.61 l
0.41 0.58 l
0.40 0.55 l
0.41 0.52 l
0.40 0.50 l
0.40 0.47 l
0.41 0.43 l
0.40 0.40 l
0.41 0.38 l
0.40 0.33 l
0.40 0.30 l
0.41 0.28 l
0.40 0.23 l
0.41 0.20 l
0.40 0.16 l
0.41 0.13 l
0.40 0.08 l
0.40 0.06 l
0.41 0.02 l
102.02 141.94 lineto
0.41 -0.06 l
0.40 -0.09 l
0.40 -0.13 l
0.41 -0.17 l
0.40 -0.20 l
0.41 -0.23 l
0.40 -0.28 l
0.40 -0.30 l
0.41 -0.33 l
0.40 -0.38 l
0.41 -0.40 l
0.40 -0.42 l
0.41 -0.46 l
0.40 -0.49 l
0.40 -0.50 l
0.41 -0.53 l
0.40 -0.56 l
0.41 -0.58 l
0.40 -0.59 l
0.40 -0.62 l
0.41 -0.64 l
0.40 -0.64 l
0.41 -0.66 l
0.40 -0.68 l
0.41 -0.68 l
0.40 -0.69 l
0.40 -0.70 l
0.41 -0.70 l
0.40 -0.70 l
0.41 -0.71 l
0.40 -0.71 l
0.40 -0.71 l
0.41 -0.71 l
0.40 -0.70 l
0.41 -0.70 l
0.40 -0.69 l
0.41 -0.68 l
0.40 -0.67 l
0.40 -0.67 l
0.41 -0.65 l
0.40 -0.64 l
0.41 -0.63 l
0.40 -0.62 l
0.40 -0.60 l
0.41 -0.59 l
0.40 -0.57 l
0.41 -0.55 l
0.40 -0.54 l
0.41 -0.53 l
0.40 -0.50 l
0.40 -0.48 l
0.41 -0.48 l
0.40 -0.45 l
0.41 -0.43 l
0.40 -0.42 l
0.40 -0.40 l
0.41 -0.38 l
0.40 -0.36 l
0.41 -0.35 l
0.40 -0.33 l
0.40 -0.31 l
0.41 -0.30 l
0.40 -0.28 l
0.41 -0.26 l
0.40 -0.25 l
0.41 -0.23 l
0.40 -0.22 l
0.40 -0.21 l
0.41 -0.19 l
0.40 -0.17 l
0.41 -0.16 l
0.40 -0.16 l
0.40 -0.14 l
0.41 -0.12 l
0.40 -0.12 l
0.41 -0.11 l
0.40 -0.09 l
0.41 -0.09 l
0.40 -0.08 l
0.40 -0.07 l
0.41 -0.06 l
0.40 -0.05 l
0.41 -0.05 l
0.40 -0.04 l
0.40 -0.04 l
0.41 -0.03 l
0.40 -0.03 l
0.41 -0.02 l
0.40 -0.03 l
0.41 -0.01 l
0.40 -0.02 l
0.40 -0.02 l
0.41 -0.02 l
0.40 -0.01 l
0.41 -0.02 l
0.40 -0.02 l
0.40 -0.02 l
0.41 -0.02 l
0.40 -0.03 l
142.44 106.94 lineto
0.40 -0.03 l
0.41 -0.05 l
0.40 -0.05 l
0.40 -0.06 l
0.41 -0.06 l
0.40 -0.07 l
0.41 -0.09 l
0.40 -0.09 l
0.40 -0.10 l
0.41 -0.12 l
0.40 -0.12 l
0.41 -0.14 l
0.40 -0.15 l
0.40 -0.17 l
0.41 -0.17 l
0.40 -0.20 l
0.41 -0.20 l
0.40 -0.22 l
0.41 -0.24 l
0.40 -0.25 l
0.40 -0.27 l
0.41 -0.28 l
0.40 -0.30 l
0.41 -0.31 l
0.40 -0.33 l
0.40 -0.34 l
0.41 -0.36 l
0.40 -0.38 l
0.41 -0.39 l
0.40 -0.40 l
0.41 -0.42 l
0.40 -0.43 l
0.40 -0.45 l
0.41 -0.46 l
0.40 -0.47 l
0.41 -0.48 l
0.40 -0.49 l
0.40 -0.51 l
0.41 -0.51 l
0.40 -0.52 l
0.41 -0.53 l
0.40 -0.53 l
0.41 -0.55 l
0.40 -0.54 l
0.40 -0.55 l
0.41 -0.56 l
0.40 -0.55 l
0.41 -0.56 l
0.40 -0.56 l
0.40 -0.55 l
0.41 -0.56 l
0.40 -0.55 l
0.41 -0.55 l
0.40 -0.54 l
0.40 -0.54 l
0.41 -0.54 l
0.40 -0.52 l
0.41 -0.52 l
0.40 -0.51 l
0.41 -0.50 l
0.40 -0.50 l
0.40 -0.48 l
0.41 -0.47 l
0.40 -0.46 l
0.41 -0.45 l
0.40 -0.44 l
0.40 -0.42 l
0.41 -0.42 l
0.40 -0.40 l
0.41 -0.38 l
0.40 -0.38 l
0.41 -0.36 l
0.40 -0.35 l
0.40 -0.34 l
0.41 -0.32 l
0.40 -0.31 l
0.41 -0.30 l
0.40 -0.28 l
0.40 -0.28 l
0.41 -0.26 l
0.40 -0.25 l
0.41 -0.24 l
0.40 -0.23 l
0.41 -0.22 l
0.40 -0.21 l
0.40 -0.20 l
0.41 -0.19 l
0.40 -0.18 l
0.41 -0.18 l
0.40 -0.17 l
0.40 -0.16 l
0.41 -0.15 l
0.40 -0.15 l
0.41 -0.15 l
0.40 -0.14 l
0.41 -0.14 l
0.40 -0.13 l
0.40 -0.13 l
0.41 -0.12 l
182.85 74.38 lineto
0.41 -0.12 l
0.40 -0.12 l
0.40 -0.12 l
0.41 -0.12 l
0.40 -0.12 l
0.41 -0.12 l
0.40 -0.12 l
0.40 -0.13 l
0.41 -0.12 l
0.40 -0.12 l
0.41 -0.13 l
0.40 -0.12 l
0.41 -0.13 l
0.40 -0.13 l
0.40 -0.13 l
0.41 -0.14 l
0.40 -0.13 l
0.41 -0.14 l
0.40 -0.14 l
0.40 -0.14 l
0.41 -0.15 l
0.40 -0.14 l
0.41 -0.15 l
0.40 -0.15 l
0.41 -0.16 l
0.40 -0.15 l
0.40 -0.15 l
0.41 -0.16 l
0.40 -0.16 l
0.41 -0.15 l
0.40 -0.16 l
0.40 -0.16 l
0.41 -0.16 l
0.40 -0.16 l
0.41 -0.16 l
0.40 -0.16 l
0.41 -0.16 l
0.40 -0.16 l
0.40 -0.16 l
0.41 -0.15 l
0.40 -0.16 l
0.41 -0.15 l
0.40 -0.16 l
0.40 -0.15 l
0.41 -0.15 l
0.40 -0.14 l
0.41 -0.15 l
0.40 -0.14 l
0.41 -0.14 l
0.40 -0.13 l
0.40 -0.14 l
0.41 -0.13 l
0.40 -0.13 l
0.41 -0.12 l
0.40 -0.12 l
0.40 -0.12 l
0.41 -0.12 l
0.40 -0.11 l
0.41 -0.10 l
0.40 -0.11 l
0.40 -0.10 l
0.41 -0.10 l
0.40 -0.09 l
0.41 -0.09 l
0.40 -0.09 l
0.41 -0.08 l
0.40 -0.08 l
0.40 -0.08 l
0.41 -0.07 l
0.40 -0.07 l
0.41 -0.07 l
0.40 -0.06 l
0.40 -0.06 l
0.41 -0.06 l
0.40 -0.06 l
0.41 -0.05 l
0.40 -0.05 l
0.41 -0.04 l
0.40 -0.05 l
0.40 -0.04 l
0.41 -0.04 l
0.40 -0.03 l
0.41 -0.04 l
0.40 -0.03 l
0.40 -0.03 l
0.41 -0.03 l
0.40 -0.03 l
0.41 -0.02 l
0.40 -0.02 l
0.41 -0.03 l
0.40 -0.02 l
0.40 -0.01 l
0.41 -0.02 l
0.40 -0.02 l
0.41 -0.01 l
0.40 -0.02 l
0.40 -0.01 l
0.41 -0.01 l
0.40 -0.01 l
223.27 64.23 lineto
0.40 -0.01 l
0.41 -0.01 l
0.40 -0.01 l
0.40 0 l
0.41 -0.01 l
0.40 -0.01 l
0.41 0 l
0.40 -0.01 l
0.40 0 l
0.41 0 l
0.40 -0.01 l
o
274.00 60.96 424.90 146.75 cl
0 0 0 srgb
0.75 setlinewidth
[] 0 setdash
1 setlinecap
1 setlinejoin
10.00 setmiterlimit
336.95 92.50 2.24 c p1
337.90 92.50 2.24 c p1
338.83 92.50 2.24 c p1
339.76 92.50 2.24 c p1
325.08 86.83 2.24 c p1
357.33 103.85 2.24 c p1
312.46 81.15 2.24 c p1
376.46 120.87 2.24 c p1
369.11 115.20 2.24 c p1
340.67 92.50 2.24 c p1
341.57 92.50 2.24 c p1
377.88 120.87 2.24 c p1
304.97 75.48 2.24 c p1
351.18 98.18 2.24 c p1
326.32 86.83 2.24 c p1
358.24 103.85 2.24 c p1
279.59 64.13 2.24 c p1
314.44 81.15 2.24 c p1
401.61 137.90 2.24 c p1
342.47 92.50 2.24 c p1
352.05 98.18 2.24 c p1
327.52 86.83 2.24 c p1
359.15 103.85 2.24 c p1
360.07 103.85 2.24 c p1
352.92 98.18 2.24 c p1
370.23 115.20 2.24 c p1
371.39 115.20 2.24 c p1
361.01 103.85 2.24 c p1
362.92 109.53 2.24 c p1
316.26 81.15 2.24 c p1
343.36 92.50 2.24 c p1
317.95 81.15 2.24 c p1
319.54 81.15 2.24 c p1
391.10 126.55 2.24 c p1
419.31 143.57 2.24 c p1
363.90 109.53 2.24 c p1
353.79 98.18 2.24 c p1
328.68 86.83 2.24 c p1
364.89 109.53 2.24 c p1
407.68 137.90 2.24 c p1
329.80 86.83 2.24 c p1
291.23 69.81 2.24 c p1
379.37 120.87 2.24 c p1
380.95 120.87 2.24 c p1
330.89 86.83 2.24 c p1
331.95 86.83 2.24 c p1
332.99 86.83 2.24 c p1
354.67 98.18 2.24 c p1
334.01 86.83 2.24 c p1
393.94 126.55 2.24 c p1
321.03 81.15 2.24 c p1
344.24 92.50 2.24 c p1
355.55 98.18 2.24 c p1
382.64 120.87 2.24 c p1
335.01 86.83 2.24 c p1
372.58 115.20 2.24 c p1
335.99 86.83 2.24 c p1
384.46 120.87 2.24 c p1
307.81 75.48 2.24 c p1
322.44 81.15 2.24 c p1
345.11 92.50 2.24 c p1
297.29 69.81 2.24 c p1
345.99 92.50 2.24 c p1
301.58 69.81 2.24 c p1
310.27 75.48 2.24 c p1
346.86 92.50 2.24 c p1
365.91 109.53 2.24 c p1
386.45 120.87 2.24 c p1
397.32 132.22 2.24 c p1
366.95 109.53 2.24 c p1
347.72 92.50 2.24 c p1
348.59 92.50 2.24 c p1
323.79 81.15 2.24 c p1
373.82 115.20 2.24 c p1
356.44 98.18 2.24 c p1
388.64 120.87 2.24 c p1
349.45 92.50 2.24 c p1
361.95 103.85 2.24 c p1
375.11 115.20 2.24 c p1
350.32 92.50 2.24 c p1
368.01 109.53 2.24 c p1
0.00 0.00 450.00 391.50 cl
0 0 0 srgb
0.75 setlinewidth
[] 0 setdash
1 setlinecap
1 setlinejoin
10.00 setmiterlimit
np
293.61 60.96 m
111.68 0 l
o
np
293.61 60.96 m
0 -5.98 l
o
np
321.53 60.96 m
0 -5.98 l
o
np
349.45 60.96 m
0 -5.98 l
o
np
377.37 60.96 m
0 -5.98 l
o
np
405.29 60.96 m
0 -5.98 l
o
/Font1 findfont 10 s
293.61 39.44 (-2) .5 0 t
321.53 39.44 (-1) .5 0 t
349.45 39.44 (0) .5 0 t
377.37 39.44 (1) .5 0 t
405.29 39.44 (2) .5 0 t
np
274.00 64.13 m
0 79.44 l
o
np
274.00 64.13 m
-5.97 0 l
o
np
274.00 75.48 m
-5.97 0 l
o
np
274.00 86.83 m
-5.97 0 l
o
np
274.00 98.18 m
-5.97 0 l
o
np
274.00 109.53 m
-5.97 0 l
o
np
274.00 120.87 m
-5.97 0 l
o
np
274.00 132.22 m
-5.97 0 l
o
np
274.00 143.57 m
-5.97 0 l
o
259.66 64.13 (2) .5 90 t
259.66 86.83 (6) .5 90 t
259.66 109.53 (10) .5 90 t
259.66 132.22 (14) .5 90 t
np
274.00 60.96 m
150.90 0 l
0 85.79 l
-150.90 0 l
0 -85.79 l
o
225.00 0.00 450.00 195.75 cl
/Font2 findfont 12 s
0 0 0 srgb
269.44 166.94 (Har) 0 ta
-0.240 (den Reb Normal QQ Plot) tb gr
/Font1 findfont 10 s
349.45 15.54 (Theoretical Quantiles) .5 0 t
235.76 103.85 (Sample Quantiles) .5 90 t
274.00 60.96 424.90 146.75 cl
0 0 0 srgb
0.75 setlinewidth
[] 0 setdash
1 setlinecap
1 setlinejoin
10.00 setmiterlimit
np
274.00 52.71 m
150.90 90.93 l
o
ep
%%Trailer
%%Pages: 1
%%EOF
