%!PS-Adobe-3.0 EPSF-3.0
%%DocumentNeededResources: font Helvetica
%%+ font Helvetica-Bold
%%+ font Helvetica-Oblique
%%+ font Helvetica-BoldOblique
%%+ font Symbol
%%Title: R Graphics Output
%%Creator: R Software
%%Pages: (atend)
%%BoundingBox: 0 0 624 431
%%EndComments
%%BeginProlog
/bp  { gs sRGB gs } def
% begin .ps.prolog
/gs  { gsave } bind def
/gr  { grestore } bind def
/ep  { showpage gr gr } bind def
/m   { moveto } bind def
/l  { rlineto } bind def
/np  { newpath } bind def
/cp  { closepath } bind def
/f   { fill } bind def
/o   { stroke } bind def
/c   { newpath 0 360 arc } bind def
/r   { 4 2 roll moveto 1 copy 3 -1 roll exch 0 exch rlineto 0 rlineto -1 mul 0 exch rlineto closepath } bind def
/p1  { stroke } bind def
/p2  { gsave bg fill grestore newpath } bind def
/p3  { gsave bg fill grestore stroke } bind def
/p6  { gsave bg eofill grestore newpath } bind def
/p7  { gsave bg eofill grestore stroke } bind def
/t   { 5 -2 roll moveto gsave rotate
       1 index stringwidth pop
       mul neg 0 rmoveto show grestore } bind def
/ta  { 4 -2 roll moveto gsave rotate show } bind def
/tb  { 2 -1 roll 0 rmoveto show } bind def
/cl  { grestore gsave newpath 3 index 3 index moveto 1 index
       4 -1 roll lineto  exch 1 index lineto lineto
       closepath clip newpath } bind def
/rgb { setrgbcolor } bind def
/s   { scalefont setfont } bind def
% end   .ps.prolog
/sRGB { [ /CIEBasedABC
          << /DecodeLMN
               [ { dup 0.03928 le
                        {12.92321 div}
                        {0.055 add 1.055 div 2.4 exp }
                     ifelse
                 } bind dup dup
               ]
             /MatrixLMN [0.412457 0.212673 0.019334
                         0.357576 0.715152 0.119192
                         0.180437 0.072175 0.950301]
             /WhitePoint [0.9505 1.0 1.0890]
           >>
         ] setcolorspace } bind def
/srgb { setcolor } bind def
%%IncludeResource: font Helvetica
/Helvetica findfont
dup length dict begin
  {1 index /FID ne {def} {pop pop} ifelse} forall
  /Encoding ISOLatin1Encoding def
  currentdict
  end
/Font1 exch definefont pop
%%IncludeResource: font Helvetica-Bold
/Helvetica-Bold findfont
dup length dict begin
  {1 index /FID ne {def} {pop pop} ifelse} forall
  /Encoding ISOLatin1Encoding def
  currentdict
  end
/Font2 exch definefont pop
%%IncludeResource: font Helvetica-Oblique
/Helvetica-Oblique findfont
dup length dict begin
  {1 index /FID ne {def} {pop pop} ifelse} forall
  /Encoding ISOLatin1Encoding def
  currentdict
  end
/Font3 exch definefont pop
%%IncludeResource: font Helvetica-BoldOblique
/Helvetica-BoldOblique findfont
dup length dict begin
  {1 index /FID ne {def} {pop pop} ifelse} forall
  /Encoding ISOLatin1Encoding def
  currentdict
  end
/Font4 exch definefont pop
%%IncludeResource: font Symbol
/Symbol findfont
dup length dict begin
  {1 index /FID ne {def} {pop pop} ifelse} forall
  currentdict
  end
/Font5 exch definefont pop
%%EndProlog
%%Page: 1 1
bp
/bg { 1 1 1 srgb } def
0.00 0.00 624.00 430.50 r p2
49.00 276.21 286.90 381.50 cl
0.00 215.25 312.00 430.50 cl
/Font2 findfont 12 s
0 0 0 srgb
63.08 401.69 (W) 0 ta
-0.420 (estbr) tb
-0.240 (ook P) tb
-0.480 (oints Scored 2016-2017) tb gr
/Font1 findfont 10 s
154.06 230.79 (P) 0 ta
-0.500 (oints) tb gr
10.76 328.85 (probability) .5 90 t
0.00 0.00 624.00 430.50 cl
0 0 0 srgb
0.75 setlinewidth
[] 0 setdash
1 setlinecap
1 setlinejoin
10.00 setmiterlimit
np
77.84 276.21 m
200.25 0 l
o
np
77.84 276.21 m
0 -5.98 l
o
np
117.89 276.21 m
0 -5.98 l
o
np
157.94 276.21 m
0 -5.98 l
o
np
197.99 276.21 m
0 -5.98 l
o
np
238.04 276.21 m
0 -5.98 l
o
np
278.09 276.21 m
0 -5.98 l
o
/Font1 findfont 10 s
77.84 254.69 (10) .5 0 t
117.89 254.69 (20) .5 0 t
157.94 254.69 (30) .5 0 t
197.99 254.69 (40) .5 0 t
238.04 254.69 (50) .5 0 t
278.09 254.69 (60) .5 0 t
np
49.00 280.11 m
0 83.12 l
o
np
49.00 280.11 m
-5.97 0 l
o
np
49.00 300.89 m
-5.97 0 l
o
np
49.00 321.67 m
-5.97 0 l
o
np
49.00 342.45 m
-5.97 0 l
o
np
49.00 363.23 m
-5.97 0 l
o
34.66 280.11 (0.00) .5 90 t
34.66 321.67 (0.02) .5 90 t
34.66 363.23 (0.04) .5 90 t
49.00 276.21 286.90 381.50 cl
/bg { 0.6784 0.8471 0.9020 srgb } def
0 0 0 srgb
0.75 setlinewidth
[] 0 setdash
1 setlinecap
1 setlinejoin
10.00 setmiterlimit
57.81 280.11 20.03 5.13 r p3
77.84 280.11 20.03 15.39 r p3
97.86 280.11 20.03 41.05 r p3
117.89 280.11 20.03 46.18 r p3
137.91 280.11 20.03 97.49 r p3
157.94 280.11 20.03 71.84 r p3
177.96 280.11 20.03 51.31 r p3
197.99 280.11 20.03 46.18 r p3
218.01 280.11 20.03 25.66 r p3
238.04 280.11 20.03 5.13 r p3
258.06 280.11 20.03 10.26 r p3
1 0 0 srgb
np
14.25 280.14 m
0.59 0 l
0.58 0.01 l
0.59 0 l
0.59 0.01 l
0.58 0 l
0.59 0.01 l
0.58 0.01 l
0.59 0 l
0.59 0.01 l
0.58 0.01 l
0.59 0.01 l
0.58 0.02 l
0.59 0.01 l
0.58 0.01 l
0.59 0.02 l
0.59 0.01 l
0.58 0.02 l
0.59 0.02 l
0.58 0.02 l
0.59 0.02 l
0.59 0.03 l
0.58 0.02 l
0.59 0.03 l
0.58 0.03 l
0.59 0.03 l
0.59 0.03 l
0.58 0.03 l
0.59 0.04 l
0.58 0.04 l
0.59 0.04 l
0.58 0.04 l
0.59 0.05 l
0.59 0.04 l
0.58 0.05 l
0.59 0.05 l
0.58 0.06 l
0.59 0.05 l
0.59 0.06 l
0.58 0.06 l
0.59 0.06 l
0.58 0.06 l
0.59 0.07 l
0.59 0.07 l
0.58 0.06 l
0.59 0.07 l
0.58 0.08 l
0.59 0.07 l
0.58 0.07 l
0.59 0.08 l
0.59 0.07 l
0.58 0.08 l
0.59 0.07 l
0.58 0.08 l
0.59 0.08 l
0.59 0.07 l
0.58 0.08 l
0.59 0.07 l
0.58 0.08 l
0.59 0.07 l
0.59 0.08 l
0.58 0.07 l
0.59 0.07 l
0.58 0.08 l
0.59 0.07 l
0.58 0.07 l
0.59 0.06 l
0.59 0.07 l
0.58 0.07 l
0.59 0.06 l
0.58 0.07 l
0.59 0.06 l
0.59 0.06 l
0.58 0.06 l
0.59 0.06 l
0.58 0.07 l
0.59 0.06 l
0.59 0.06 l
0.58 0.06 l
0.59 0.07 l
0.58 0.06 l
0.59 0.07 l
0.59 0.07 l
0.58 0.08 l
0.59 0.07 l
0.58 0.08 l
0.59 0.09 l
0.58 0.09 l
0.59 0.09 l
0.59 0.10 l
0.58 0.11 l
0.59 0.11 l
0.58 0.13 l
0.59 0.12 l
0.59 0.14 l
0.58 0.15 l
0.59 0.16 l
0.58 0.16 l
0.59 0.18 l
0.59 0.18 l
72.84 286.35 lineto
0.59 0.21 l
0.58 0.22 l
0.59 0.24 l
0.58 0.25 l
0.59 0.26 l
0.59 0.27 l
0.58 0.29 l
0.59 0.30 l
0.58 0.31 l
0.59 0.33 l
0.59 0.34 l
0.58 0.36 l
0.59 0.37 l
0.58 0.38 l
0.59 0.40 l
0.59 0.41 l
0.58 0.43 l
0.59 0.44 l
0.58 0.45 l
0.59 0.46 l
0.58 0.48 l
0.59 0.48 l
0.59 0.50 l
0.58 0.51 l
0.59 0.52 l
0.58 0.54 l
0.59 0.54 l
0.59 0.55 l
0.58 0.56 l
0.59 0.56 l
0.58 0.58 l
0.59 0.58 l
0.59 0.59 l
0.58 0.59 l
0.59 0.60 l
0.58 0.60 l
0.59 0.61 l
0.58 0.61 l
0.59 0.61 l
0.59 0.61 l
0.58 0.61 l
0.59 0.62 l
0.58 0.61 l
0.59 0.61 l
0.59 0.61 l
0.58 0.61 l
0.59 0.61 l
0.58 0.60 l
0.59 0.60 l
0.59 0.60 l
0.58 0.59 l
0.59 0.58 l
0.58 0.58 l
0.59 0.58 l
0.59 0.57 l
0.58 0.56 l
0.59 0.56 l
0.58 0.56 l
0.59 0.54 l
0.58 0.54 l
0.59 0.54 l
0.59 0.53 l
0.58 0.52 l
0.59 0.52 l
0.58 0.52 l
0.59 0.51 l
0.59 0.50 l
0.58 0.51 l
0.59 0.50 l
0.58 0.50 l
0.59 0.50 l
0.59 0.49 l
0.58 0.50 l
0.59 0.50 l
0.58 0.50 l
0.59 0.50 l
0.58 0.50 l
0.59 0.51 l
0.59 0.52 l
0.58 0.52 l
0.59 0.53 l
0.58 0.53 l
0.59 0.54 l
0.59 0.55 l
0.58 0.57 l
0.59 0.57 l
0.58 0.58 l
0.59 0.60 l
0.59 0.61 l
0.58 0.62 l
0.59 0.63 l
0.58 0.65 l
0.59 0.66 l
0.58 0.68 l
0.59 0.69 l
0.59 0.70 l
0.58 0.72 l
0.59 0.73 l
0.58 0.74 l
131.43 338.88 lineto
0.59 0.76 l
0.58 0.78 l
0.59 0.79 l
0.58 0.80 l
0.59 0.80 l
0.59 0.82 l
0.58 0.81 l
0.59 0.82 l
0.58 0.83 l
0.59 0.82 l
0.58 0.83 l
0.59 0.82 l
0.59 0.81 l
0.58 0.81 l
0.59 0.81 l
0.58 0.79 l
0.59 0.78 l
0.59 0.76 l
0.58 0.76 l
0.59 0.73 l
0.58 0.71 l
0.59 0.69 l
0.59 0.67 l
0.58 0.65 l
0.59 0.61 l
0.58 0.59 l
0.59 0.56 l
0.59 0.52 l
0.58 0.50 l
0.59 0.46 l
0.58 0.43 l
0.59 0.38 l
0.58 0.36 l
0.59 0.32 l
0.59 0.27 l
0.58 0.24 l
0.59 0.20 l
0.58 0.16 l
0.59 0.12 l
0.59 0.08 l
0.58 0.05 l
0.59 0 l
0.58 -0.04 l
0.59 -0.07 l
0.59 -0.10 l
0.58 -0.15 l
0.59 -0.18 l
0.58 -0.22 l
0.59 -0.25 l
0.58 -0.28 l
0.59 -0.31 l
0.59 -0.34 l
0.58 -0.38 l
0.59 -0.40 l
0.58 -0.42 l
0.59 -0.46 l
0.59 -0.47 l
0.58 -0.50 l
0.59 -0.51 l
0.58 -0.54 l
0.59 -0.56 l
0.59 -0.57 l
0.58 -0.59 l
0.59 -0.60 l
0.58 -0.61 l
0.59 -0.62 l
0.58 -0.64 l
0.59 -0.64 l
0.59 -0.65 l
0.58 -0.66 l
0.59 -0.66 l
0.58 -0.67 l
0.59 -0.67 l
0.59 -0.67 l
0.58 -0.68 l
0.59 -0.67 l
0.58 -0.67 l
0.59 -0.68 l
0.59 -0.67 l
0.58 -0.67 l
0.59 -0.67 l
0.58 -0.66 l
0.59 -0.66 l
0.58 -0.65 l
0.59 -0.65 l
0.59 -0.65 l
0.58 -0.64 l
0.59 -0.63 l
0.58 -0.63 l
0.59 -0.62 l
0.59 -0.61 l
0.58 -0.61 l
0.59 -0.59 l
0.58 -0.59 l
0.59 -0.59 l
0.59 -0.57 l
0.58 -0.57 l
0.59 -0.56 l
0.58 -0.54 l
190.02 332.68 lineto
0.59 -0.53 l
0.58 -0.53 l
0.59 -0.51 l
0.58 -0.50 l
0.59 -0.49 l
0.58 -0.49 l
0.59 -0.47 l
0.59 -0.46 l
0.58 -0.46 l
0.59 -0.44 l
0.58 -0.44 l
0.59 -0.42 l
0.59 -0.42 l
0.58 -0.40 l
0.59 -0.40 l
0.58 -0.39 l
0.59 -0.37 l
0.59 -0.37 l
0.58 -0.36 l
0.59 -0.36 l
0.58 -0.34 l
0.59 -0.33 l
0.58 -0.33 l
0.59 -0.32 l
0.59 -0.31 l
0.58 -0.31 l
0.59 -0.31 l
0.58 -0.29 l
0.59 -0.29 l
0.59 -0.29 l
0.58 -0.28 l
0.59 -0.28 l
0.58 -0.28 l
0.59 -0.28 l
0.59 -0.27 l
0.58 -0.28 l
0.59 -0.27 l
0.58 -0.28 l
0.59 -0.28 l
0.58 -0.27 l
0.59 -0.28 l
0.59 -0.29 l
0.58 -0.29 l
0.59 -0.29 l
0.58 -0.30 l
0.59 -0.30 l
0.59 -0.31 l
0.58 -0.31 l
0.59 -0.32 l
0.58 -0.33 l
0.59 -0.34 l
0.59 -0.34 l
0.58 -0.35 l
0.59 -0.36 l
0.58 -0.37 l
0.59 -0.38 l
0.58 -0.38 l
0.59 -0.40 l
0.59 -0.40 l
0.58 -0.41 l
0.59 -0.42 l
0.58 -0.43 l
0.59 -0.43 l
0.59 -0.44 l
0.58 -0.46 l
0.59 -0.45 l
0.58 -0.47 l
0.59 -0.47 l
0.59 -0.47 l
0.58 -0.49 l
0.59 -0.48 l
0.58 -0.50 l
0.59 -0.49 l
0.59 -0.50 l
0.58 -0.50 l
0.59 -0.50 l
0.58 -0.51 l
0.59 -0.50 l
0.58 -0.50 l
0.59 -0.51 l
0.59 -0.50 l
0.58 -0.50 l
0.59 -0.49 l
0.58 -0.49 l
0.59 -0.49 l
0.59 -0.48 l
0.58 -0.48 l
0.59 -0.47 l
0.58 -0.46 l
0.59 -0.45 l
0.59 -0.45 l
0.58 -0.44 l
0.59 -0.42 l
0.58 -0.42 l
0.59 -0.41 l
0.58 -0.39 l
0.59 -0.38 l
0.59 -0.37 l
0.58 -0.36 l
248.61 292.91 lineto
0.58 -0.33 l
0.59 -0.33 l
0.59 -0.31 l
0.58 -0.29 l
0.59 -0.29 l
0.58 -0.27 l
0.59 -0.26 l
0.59 -0.24 l
0.58 -0.24 l
0.59 -0.22 l
0.58 -0.21 l
0.59 -0.20 l
0.58 -0.20 l
0.59 -0.18 l
0.59 -0.17 l
0.58 -0.16 l
0.59 -0.16 l
0.58 -0.14 l
0.59 -0.14 l
0.59 -0.14 l
0.58 -0.12 l
0.59 -0.13 l
0.58 -0.11 l
0.59 -0.12 l
0.59 -0.11 l
0.58 -0.11 l
0.59 -0.11 l
0.58 -0.10 l
0.59 -0.11 l
0.58 -0.10 l
0.59 -0.11 l
0.59 -0.10 l
0.58 -0.11 l
0.59 -0.11 l
0.58 -0.11 l
0.59 -0.11 l
0.59 -0.11 l
0.58 -0.12 l
0.59 -0.12 l
0.58 -0.12 l
0.59 -0.12 l
0.59 -0.13 l
0.58 -0.13 l
0.59 -0.14 l
0.58 -0.13 l
0.59 -0.14 l
0.59 -0.14 l
0.58 -0.14 l
0.59 -0.15 l
0.58 -0.14 l
0.59 -0.15 l
0.58 -0.15 l
0.59 -0.15 l
0.59 -0.15 l
0.58 -0.15 l
0.59 -0.15 l
0.58 -0.15 l
0.59 -0.14 l
0.59 -0.15 l
0.58 -0.15 l
0.59 -0.14 l
0.58 -0.14 l
0.59 -0.14 l
0.59 -0.14 l
0.58 -0.13 l
0.59 -0.13 l
0.58 -0.13 l
0.59 -0.12 l
0.58 -0.12 l
0.59 -0.12 l
0.59 -0.11 l
0.58 -0.11 l
0.59 -0.10 l
0.58 -0.11 l
0.59 -0.09 l
0.59 -0.09 l
0.58 -0.09 l
0.59 -0.09 l
0.58 -0.08 l
0.59 -0.07 l
0.59 -0.07 l
0.58 -0.07 l
0.59 -0.06 l
0.58 -0.07 l
0.59 -0.05 l
0.58 -0.05 l
0.59 -0.05 l
0.59 -0.05 l
0.58 -0.04 l
0.59 -0.04 l
0.58 -0.04 l
0.59 -0.04 l
0.59 -0.03 l
0.58 -0.03 l
0.59 -0.03 l
0.58 -0.02 l
0.59 -0.03 l
0.59 -0.02 l
0.58 -0.02 l
307.20 280.27 lineto
0.58 -0.02 l
0.59 -0.02 l
0.58 -0.01 l
0.59 -0.01 l
0.59 -0.01 l
0.58 -0.01 l
0.59 -0.01 l
0.58 -0.01 l
0.59 -0.01 l
0.59 0 l
0.58 -0.01 l
o
361.00 276.21 598.90 381.50 cl
0 0 0 srgb
0.75 setlinewidth
[] 0 setdash
1 setlinecap
1 setlinejoin
10.00 setmiterlimit
484.04 329.77 2.24 c p1
562.19 364.72 2.24 c p1
489.56 331.61 2.24 c p1
496.69 335.29 2.24 c p1
427.63 307.70 2.24 c p1
464.67 322.41 2.24 c p1
397.72 296.66 2.24 c p1
499.66 337.13 2.24 c p1
470.34 324.25 2.24 c p1
516.42 346.33 2.24 c p1
490.96 331.61 2.24 c p1
475.86 326.09 2.24 c p1
477.23 326.09 2.24 c p1
479.95 327.93 2.24 c p1
495.24 333.45 2.24 c p1
481.31 327.93 2.24 c p1
501.18 337.13 2.24 c p1
409.82 302.18 2.24 c p1
454.01 320.57 2.24 c p1
498.17 335.29 2.24 c p1
466.11 322.41 2.24 c p1
485.41 329.77 2.24 c p1
455.61 320.57 2.24 c p1
504.30 338.97 2.24 c p1
430.29 307.70 2.24 c p1
457.18 320.57 2.24 c p1
452.37 318.73 2.24 c p1
538.27 355.52 2.24 c p1
520.41 348.17 2.24 c p1
527.12 353.68 2.24 c p1
482.68 327.93 2.24 c p1
471.73 324.25 2.24 c p1
435.14 309.54 2.24 c p1
414.29 302.18 2.24 c p1
478.59 326.09 2.24 c p1
492.37 331.61 2.24 c p1
550.08 361.04 2.24 c p1
486.79 329.77 2.24 c p1
437.37 309.54 2.24 c p1
445.37 315.06 2.24 c p1
439.49 309.54 2.24 c p1
502.72 337.13 2.24 c p1
447.20 315.06 2.24 c p1
458.72 320.57 2.24 c p1
507.54 340.81 2.24 c p1
460.24 320.57 2.24 c p1
529.61 353.68 2.24 c p1
432.79 307.70 2.24 c p1
461.74 320.57 2.24 c p1
467.53 322.41 2.24 c p1
509.22 340.81 2.24 c p1
522.54 348.17 2.24 c p1
463.21 320.57 2.24 c p1
473.11 324.25 2.24 c p1
541.73 357.36 2.24 c p1
418.18 302.18 2.24 c p1
510.94 340.81 2.24 c p1
421.63 302.18 2.24 c p1
518.38 346.33 2.24 c p1
524.77 350.01 2.24 c p1
532.28 353.68 2.24 c p1
545.61 359.20 2.24 c p1
474.49 324.25 2.24 c p1
590.09 377.60 2.24 c p1
441.53 313.22 2.24 c p1
493.80 331.61 2.24 c p1
450.69 316.89 2.24 c p1
448.97 315.06 2.24 c p1
468.94 322.41 2.24 c p1
404.48 298.50 2.24 c p1
424.76 304.02 2.24 c p1
512.71 342.65 2.24 c p1
505.90 338.97 2.24 c p1
571.75 375.76 2.24 c p1
488.17 329.77 2.24 c p1
514.53 344.49 2.24 c p1
388.16 292.98 2.24 c p1
535.15 353.68 2.24 c p1
443.48 313.22 2.24 c p1
555.43 362.88 2.24 c p1
369.81 280.11 2.24 c p1
0.00 0.00 624.00 430.50 cl
0 0 0 srgb
0.75 setlinewidth
[] 0 setdash
1 setlinecap
1 setlinejoin
10.00 setmiterlimit
np
391.92 276.21 m
176.07 0 l
o
np
391.92 276.21 m
0 -5.98 l
o
np
435.93 276.21 m
0 -5.98 l
o
np
479.95 276.21 m
0 -5.98 l
o
np
523.97 276.21 m
0 -5.98 l
o
np
567.99 276.21 m
0 -5.98 l
o
/Font1 findfont 10 s
391.92 254.69 (-2) .5 0 t
435.93 254.69 (-1) .5 0 t
479.95 254.69 (0) .5 0 t
523.97 254.69 (1) .5 0 t
567.99 254.69 (2) .5 0 t
np
361.00 289.30 m
0 91.98 l
o
np
361.00 289.30 m
-5.97 0 l
o
np
361.00 307.70 m
-5.97 0 l
o
np
361.00 326.09 m
-5.97 0 l
o
np
361.00 344.49 m
-5.97 0 l
o
np
361.00 362.88 m
-5.97 0 l
o
np
361.00 381.28 m
-5.97 0 l
o
346.66 289.30 (10) .5 90 t
346.66 326.09 (30) .5 90 t
346.66 362.88 (50) .5 90 t
np
361.00 276.21 m
237.90 0 l
0 105.29 l
-237.90 0 l
0 -105.29 l
o
312.00 215.25 624.00 430.50 cl
/Font2 findfont 12 s
0 0 0 srgb
382.60 401.69 (W) 0 ta
-0.420 (estbr) tb
-0.240 (ook P) tb
-0.480 (oints Normal QQ Plot) tb gr
/Font1 findfont 10 s
479.95 230.79 (Theoretical Quantiles) .5 0 t
322.76 328.85 (Sample Quantiles) .5 90 t
361.00 276.21 598.90 381.50 cl
0 0 0 srgb
0.75 setlinewidth
[] 0 setdash
1 setlinecap
1 setlinejoin
10.00 setmiterlimit
np
361.00 280.95 m
237.90 95.80 l
o
49.00 60.96 286.90 166.25 cl
0.00 0.00 312.00 215.25 cl
/Font2 findfont 12 s
0 0 0 srgb
73.41 186.44 (Har) 0 ta
-0.240 (den P) tb
-0.480 (oints Scored 2016-2017) tb gr
/Font1 findfont 10 s
154.06 15.54 (P) 0 ta
-0.500 (oints) tb gr
10.76 113.60 (probability) .5 90 t
0.00 0.00 624.00 430.50 cl
0 0 0 srgb
0.75 setlinewidth
[] 0 setdash
1 setlinecap
1 setlinejoin
10.00 setmiterlimit
np
57.81 60.96 m
195.80 0 l
o
np
57.81 60.96 m
0 -5.98 l
o
np
106.76 60.96 m
0 -5.98 l
o
np
155.71 60.96 m
0 -5.98 l
o
np
204.66 60.96 m
0 -5.98 l
o
np
253.61 60.96 m
0 -5.98 l
o
/Font1 findfont 10 s
57.81 39.44 (10) .5 0 t
106.76 39.44 (20) .5 0 t
155.71 39.44 (30) .5 0 t
204.66 39.44 (40) .5 0 t
253.61 39.44 (50) .5 0 t
np
49.00 64.85 m
0 89.74 l
o
np
49.00 64.85 m
-5.97 0 l
o
np
49.00 82.80 m
-5.97 0 l
o
np
49.00 100.75 m
-5.97 0 l
o
np
49.00 118.70 m
-5.97 0 l
o
np
49.00 136.64 m
-5.97 0 l
o
np
49.00 154.59 m
-5.97 0 l
o
34.66 64.85 (0.00) .5 90 t
34.66 100.75 (0.02) .5 90 t
34.66 136.64 (0.04) .5 90 t
49.00 60.96 286.90 166.25 cl
/bg { 0.6784 0.8471 0.9020 srgb } def
0 0 0 srgb
0.75 setlinewidth
[] 0 setdash
1 setlinecap
1 setlinejoin
10.00 setmiterlimit
57.81 64.85 24.48 31.02 r p3
82.29 64.85 24.48 31.02 r p3
106.76 64.85 24.48 53.18 r p3
131.24 64.85 24.48 97.49 r p3
155.71 64.85 24.48 57.61 r p3
180.19 64.85 24.48 62.04 r p3
204.66 64.85 24.48 17.73 r p3
229.14 64.85 24.48 0.00 r p3
253.61 64.85 24.48 8.86 r p3
1 0 0 srgb
np
12.76 64.89 m
0.59 0 l
0.59 0.01 l
0.59 0.01 l
0.59 0 l
0.58 0.01 l
0.59 0.01 l
0.59 0 l
0.59 0.01 l
0.59 0.01 l
0.59 0.01 l
0.58 0.02 l
0.59 0.01 l
0.59 0.02 l
0.59 0.01 l
0.59 0.02 l
0.58 0.02 l
0.59 0.02 l
0.59 0.02 l
0.59 0.03 l
0.59 0.03 l
0.59 0.02 l
0.58 0.04 l
0.59 0.03 l
0.59 0.04 l
0.59 0.04 l
0.59 0.04 l
0.59 0.05 l
0.58 0.05 l
0.59 0.05 l
0.59 0.06 l
0.59 0.06 l
0.59 0.07 l
0.58 0.07 l
0.59 0.07 l
0.59 0.08 l
0.59 0.09 l
0.59 0.09 l
0.59 0.09 l
0.58 0.11 l
0.59 0.11 l
0.59 0.11 l
0.59 0.12 l
0.59 0.13 l
0.59 0.14 l
0.58 0.14 l
0.59 0.15 l
0.59 0.16 l
0.59 0.16 l
0.59 0.17 l
0.58 0.19 l
0.59 0.19 l
0.59 0.20 l
0.59 0.21 l
0.59 0.22 l
0.59 0.23 l
0.58 0.23 l
0.59 0.25 l
0.59 0.26 l
0.59 0.27 l
0.59 0.28 l
0.59 0.29 l
0.58 0.30 l
0.59 0.31 l
0.59 0.33 l
0.59 0.33 l
0.59 0.34 l
0.58 0.36 l
0.59 0.36 l
0.59 0.38 l
0.59 0.39 l
0.59 0.40 l
0.59 0.40 l
0.58 0.42 l
0.59 0.43 l
0.59 0.44 l
0.59 0.45 l
0.59 0.45 l
0.59 0.47 l
0.58 0.48 l
0.59 0.48 l
0.59 0.49 l
0.59 0.50 l
0.59 0.50 l
0.58 0.51 l
0.59 0.51 l
0.59 0.52 l
0.59 0.53 l
0.59 0.52 l
0.59 0.53 l
0.58 0.53 l
0.59 0.53 l
0.59 0.54 l
0.59 0.53 l
0.59 0.53 l
0.59 0.53 l
0.58 0.52 l
0.59 0.52 l
0.59 0.52 l
0.59 0.51 l
71.59 88.41 lineto
0.58 0.50 l
0.59 0.49 l
0.59 0.48 l
0.59 0.47 l
0.59 0.46 l
0.59 0.45 l
0.58 0.44 l
0.59 0.43 l
0.59 0.42 l
0.59 0.40 l
0.59 0.39 l
0.59 0.38 l
0.58 0.36 l
0.59 0.34 l
0.59 0.34 l
0.59 0.32 l
0.59 0.30 l
0.58 0.29 l
0.59 0.28 l
0.59 0.26 l
0.59 0.25 l
0.59 0.24 l
0.59 0.22 l
0.58 0.21 l
0.59 0.20 l
0.59 0.19 l
0.59 0.17 l
0.59 0.17 l
0.59 0.16 l
0.58 0.15 l
0.59 0.14 l
0.59 0.13 l
0.59 0.13 l
0.59 0.13 l
0.58 0.12 l
0.59 0.12 l
0.59 0.12 l
0.59 0.12 l
0.59 0.12 l
0.59 0.12 l
0.58 0.13 l
0.59 0.13 l
0.59 0.14 l
0.59 0.15 l
0.59 0.16 l
0.59 0.16 l
0.58 0.18 l
0.59 0.19 l
0.59 0.21 l
0.59 0.22 l
0.59 0.23 l
0.58 0.26 l
0.59 0.27 l
0.59 0.29 l
0.59 0.32 l
0.59 0.33 l
0.59 0.36 l
0.58 0.38 l
0.59 0.40 l
0.59 0.43 l
0.59 0.44 l
0.59 0.48 l
0.59 0.50 l
0.58 0.52 l
0.59 0.55 l
0.59 0.58 l
0.59 0.59 l
0.59 0.62 l
0.58 0.65 l
0.59 0.68 l
0.59 0.69 l
0.59 0.71 l
0.59 0.74 l
0.59 0.76 l
0.58 0.77 l
0.59 0.80 l
0.59 0.82 l
0.59 0.83 l
0.59 0.84 l
0.59 0.86 l
0.58 0.87 l
0.59 0.88 l
0.59 0.89 l
0.59 0.90 l
0.59 0.90 l
0.58 0.91 l
0.59 0.91 l
0.59 0.91 l
0.59 0.91 l
0.59 0.91 l
0.59 0.90 l
0.58 0.90 l
0.59 0.89 l
0.59 0.88 l
0.59 0.87 l
0.59 0.86 l
0.59 0.84 l
0.58 0.83 l
0.59 0.81 l
130.41 135.35 lineto
0.59 0.77 l
0.59 0.75 l
0.58 0.74 l
0.59 0.70 l
0.59 0.68 l
0.59 0.66 l
0.59 0.63 l
0.59 0.60 l
0.58 0.57 l
0.59 0.56 l
0.59 0.51 l
0.59 0.49 l
0.59 0.46 l
0.59 0.43 l
0.58 0.39 l
0.59 0.37 l
0.59 0.34 l
0.59 0.30 l
0.59 0.27 l
0.58 0.24 l
0.59 0.21 l
0.59 0.18 l
0.59 0.15 l
0.59 0.12 l
0.59 0.08 l
0.58 0.05 l
0.59 0.02 l
0.59 0 l
0.59 -0.04 l
0.59 -0.07 l
0.59 -0.09 l
0.58 -0.13 l
0.59 -0.16 l
0.59 -0.18 l
0.59 -0.21 l
0.59 -0.24 l
0.58 -0.26 l
0.59 -0.28 l
0.59 -0.32 l
0.59 -0.34 l
0.59 -0.36 l
0.59 -0.38 l
0.58 -0.41 l
0.59 -0.42 l
0.59 -0.45 l
0.59 -0.47 l
0.59 -0.48 l
0.59 -0.50 l
0.58 -0.52 l
0.59 -0.53 l
0.59 -0.55 l
0.59 -0.56 l
0.59 -0.57 l
0.58 -0.58 l
0.59 -0.59 l
0.59 -0.59 l
0.59 -0.60 l
0.59 -0.61 l
0.59 -0.61 l
0.58 -0.61 l
0.59 -0.61 l
0.59 -0.61 l
0.59 -0.61 l
0.59 -0.61 l
0.59 -0.59 l
0.58 -0.60 l
0.59 -0.58 l
0.59 -0.57 l
0.59 -0.56 l
0.59 -0.55 l
0.58 -0.54 l
0.59 -0.52 l
0.59 -0.51 l
0.59 -0.48 l
0.59 -0.47 l
0.59 -0.45 l
0.58 -0.43 l
0.59 -0.41 l
0.59 -0.39 l
0.59 -0.38 l
0.59 -0.34 l
0.59 -0.32 l
0.58 -0.31 l
0.59 -0.28 l
0.59 -0.26 l
0.59 -0.24 l
0.59 -0.22 l
0.58 -0.19 l
0.59 -0.18 l
0.59 -0.16 l
0.59 -0.14 l
0.59 -0.12 l
0.59 -0.11 l
0.58 -0.10 l
0.59 -0.08 l
0.59 -0.07 l
0.59 -0.06 l
0.59 -0.06 l
0.59 -0.04 l
189.23 120.11 lineto
0.59 -0.04 l
0.59 -0.05 l
0.59 -0.05 l
0.59 -0.05 l
0.58 -0.05 l
0.59 -0.07 l
0.59 -0.08 l
0.59 -0.09 l
0.59 -0.11 l
0.59 -0.13 l
0.58 -0.14 l
0.59 -0.16 l
0.59 -0.20 l
0.59 -0.21 l
0.59 -0.23 l
0.59 -0.28 l
0.58 -0.30 l
0.59 -0.32 l
0.59 -0.36 l
0.59 -0.39 l
0.59 -0.43 l
0.58 -0.45 l
0.59 -0.50 l
0.59 -0.53 l
0.59 -0.55 l
0.59 -0.60 l
0.59 -0.63 l
0.58 -0.66 l
0.59 -0.69 l
0.59 -0.74 l
0.59 -0.76 l
0.59 -0.78 l
0.59 -0.82 l
0.58 -0.85 l
0.59 -0.87 l
0.59 -0.89 l
0.59 -0.92 l
0.59 -0.94 l
0.58 -0.95 l
0.59 -0.97 l
0.59 -0.99 l
0.59 -1.00 l
0.59 -1.00 l
0.59 -1.02 l
0.58 -1.02 l
0.59 -1.03 l
0.59 -1.02 l
0.59 -1.03 l
0.59 -1.02 l
0.59 -1.02 l
0.58 -1.01 l
0.59 -0.99 l
0.59 -0.99 l
0.59 -0.98 l
0.59 -0.96 l
0.58 -0.94 l
0.59 -0.93 l
0.59 -0.90 l
0.59 -0.88 l
0.59 -0.87 l
0.59 -0.83 l
0.58 -0.81 l
0.59 -0.79 l
0.59 -0.77 l
0.59 -0.73 l
0.59 -0.70 l
0.59 -0.68 l
0.58 -0.65 l
0.59 -0.62 l
0.59 -0.59 l
0.59 -0.57 l
0.59 -0.53 l
0.58 -0.50 l
0.59 -0.48 l
0.59 -0.45 l
0.59 -0.41 l
0.59 -0.40 l
0.59 -0.37 l
0.58 -0.33 l
0.59 -0.31 l
0.59 -0.29 l
0.59 -0.26 l
0.59 -0.24 l
0.59 -0.21 l
0.58 -0.20 l
0.59 -0.16 l
0.59 -0.15 l
0.59 -0.14 l
0.59 -0.11 l
0.58 -0.09 l
0.59 -0.08 l
0.59 -0.06 l
0.59 -0.04 l
0.59 -0.04 l
0.59 -0.02 l
0.58 0 l
0.59 0 l
0.59 0.02 l
0.59 0.02 l
248.06 69.13 lineto
0.59 0.04 l
0.58 0.05 l
0.59 0.05 l
0.59 0.05 l
0.59 0.06 l
0.59 0.07 l
0.58 0.06 l
0.59 0.07 l
0.59 0.07 l
0.59 0.07 l
0.59 0.06 l
0.59 0.07 l
0.58 0.06 l
0.59 0.06 l
0.59 0.06 l
0.59 0.06 l
0.59 0.05 l
0.59 0.05 l
0.58 0.04 l
0.59 0.03 l
0.59 0.03 l
0.59 0.03 l
0.59 0.02 l
0.58 0.01 l
0.59 0 l
0.59 0 l
0.59 0 l
0.59 -0.02 l
0.59 -0.02 l
0.58 -0.03 l
0.59 -0.03 l
0.59 -0.05 l
0.59 -0.04 l
0.59 -0.06 l
0.59 -0.06 l
0.58 -0.07 l
0.59 -0.07 l
0.59 -0.08 l
0.59 -0.09 l
0.59 -0.09 l
0.58 -0.09 l
0.59 -0.10 l
0.59 -0.10 l
0.59 -0.11 l
0.59 -0.11 l
0.59 -0.11 l
0.58 -0.11 l
0.59 -0.12 l
0.59 -0.12 l
0.59 -0.12 l
0.59 -0.12 l
0.59 -0.13 l
0.58 -0.12 l
0.59 -0.12 l
0.59 -0.12 l
0.59 -0.13 l
0.59 -0.12 l
0.58 -0.12 l
0.59 -0.12 l
0.59 -0.11 l
0.59 -0.12 l
0.59 -0.11 l
0.59 -0.11 l
0.58 -0.11 l
0.59 -0.10 l
0.59 -0.11 l
0.59 -0.10 l
0.59 -0.09 l
0.59 -0.10 l
0.58 -0.08 l
0.59 -0.09 l
0.59 -0.08 l
0.59 -0.08 l
0.59 -0.08 l
0.58 -0.07 l
0.59 -0.07 l
0.59 -0.07 l
0.59 -0.06 l
0.59 -0.06 l
0.59 -0.06 l
0.58 -0.05 l
0.59 -0.05 l
0.59 -0.05 l
0.59 -0.05 l
0.59 -0.04 l
0.59 -0.04 l
0.58 -0.03 l
0.59 -0.04 l
0.59 -0.03 l
0.59 -0.03 l
0.59 -0.03 l
0.58 -0.02 l
0.59 -0.03 l
0.59 -0.02 l
0.59 -0.02 l
0.59 -0.02 l
0.59 -0.02 l
0.58 -0.01 l
0.59 -0.02 l
306.88 64.98 lineto
0.59 -0.01 l
0.59 -0.01 l
0.59 -0.02 l
0.58 0 l
0.59 -0.01 l
0.59 -0.01 l
0.59 -0.01 l
0.59 0 l
0.58 -0.01 l
0.59 0 l
0.59 -0.01 l
o
361.00 60.96 598.90 166.25 cl
0 0 0 srgb
0.75 setlinewidth
[] 0 setdash
1 setlinecap
1 setlinejoin
10.00 setmiterlimit
504.30 119.27 2.24 c p1
460.24 101.13 2.24 c p1
473.11 105.67 2.24 c p1
545.61 135.14 2.24 c p1
482.68 110.20 2.24 c p1
484.04 110.20 2.24 c p1
495.24 114.73 2.24 c p1
448.97 96.60 2.24 c p1
454.01 98.86 2.24 c p1
498.17 117.00 2.24 c p1
388.16 71.66 2.24 c p1
461.74 101.13 2.24 c p1
490.96 112.47 2.24 c p1
474.49 105.67 2.24 c p1
477.23 107.93 2.24 c p1
445.37 94.33 2.24 c p1
514.53 128.34 2.24 c p1
463.21 101.13 2.24 c p1
478.59 107.93 2.24 c p1
437.37 87.53 2.24 c p1
512.71 126.07 2.24 c p1
455.61 98.86 2.24 c p1
439.49 89.79 2.24 c p1
430.29 82.99 2.24 c p1
510.94 123.80 2.24 c p1
414.29 76.19 2.24 c p1
479.95 107.93 2.24 c p1
475.86 105.67 2.24 c p1
492.37 112.47 2.24 c p1
468.94 103.40 2.24 c p1
421.63 78.46 2.24 c p1
496.69 114.73 2.24 c p1
505.90 119.27 2.24 c p1
485.41 110.20 2.24 c p1
590.09 162.35 2.24 c p1
447.20 94.33 2.24 c p1
464.67 101.13 2.24 c p1
404.48 73.92 2.24 c p1
529.61 132.87 2.24 c p1
532.28 132.87 2.24 c p1
499.66 117.00 2.24 c p1
470.34 103.40 2.24 c p1
441.53 92.06 2.24 c p1
535.15 132.87 2.24 c p1
516.42 128.34 2.24 c p1
424.76 80.73 2.24 c p1
481.31 107.93 2.24 c p1
466.11 101.13 2.24 c p1
486.79 110.20 2.24 c p1
571.75 157.81 2.24 c p1
418.18 76.19 2.24 c p1
369.81 64.85 2.24 c p1
550.08 135.14 2.24 c p1
562.19 137.41 2.24 c p1
457.18 98.86 2.24 c p1
488.17 110.20 2.24 c p1
538.27 132.87 2.24 c p1
518.38 128.34 2.24 c p1
397.72 71.66 2.24 c p1
450.69 96.60 2.24 c p1
458.72 98.86 2.24 c p1
467.53 101.13 2.24 c p1
501.18 117.00 2.24 c p1
524.77 130.61 2.24 c p1
507.54 121.54 2.24 c p1
435.14 85.26 2.24 c p1
520.41 128.34 2.24 c p1
432.79 82.99 2.24 c p1
555.43 135.14 2.24 c p1
541.73 132.87 2.24 c p1
527.12 130.61 2.24 c p1
522.54 128.34 2.24 c p1
443.48 92.06 2.24 c p1
452.37 96.60 2.24 c p1
489.56 110.20 2.24 c p1
427.63 80.73 2.24 c p1
493.80 112.47 2.24 c p1
502.72 117.00 2.24 c p1
509.22 121.54 2.24 c p1
409.82 73.92 2.24 c p1
471.73 103.40 2.24 c p1
0.00 0.00 624.00 430.50 cl
0 0 0 srgb
0.75 setlinewidth
[] 0 setdash
1 setlinecap
1 setlinejoin
10.00 setmiterlimit
np
391.92 60.96 m
176.07 0 l
o
np
391.92 60.96 m
0 -5.98 l
o
np
435.93 60.96 m
0 -5.98 l
o
np
479.95 60.96 m
0 -5.98 l
o
np
523.97 60.96 m
0 -5.98 l
o
np
567.99 60.96 m
0 -5.98 l
o
/Font1 findfont 10 s
391.92 39.44 (-2) .5 0 t
435.93 39.44 (-1) .5 0 t
479.95 39.44 (0) .5 0 t
523.97 39.44 (1) .5 0 t
567.99 39.44 (2) .5 0 t
np
361.00 64.85 m
0 90.70 l
o
np
361.00 64.85 m
-5.97 0 l
o
np
361.00 87.53 m
-5.97 0 l
o
np
361.00 110.20 m
-5.97 0 l
o
np
361.00 132.87 m
-5.97 0 l
o
np
361.00 155.55 m
-5.97 0 l
o
346.66 64.85 (10) .5 90 t
346.66 87.53 (20) .5 90 t
346.66 110.20 (30) .5 90 t
346.66 132.87 (40) .5 90 t
346.66 155.55 (50) .5 90 t
np
361.00 60.96 m
237.90 0 l
0 105.29 l
-237.90 0 l
0 -105.29 l
o
312.00 0.00 624.00 215.25 cl
/Font2 findfont 12 s
0 0 0 srgb
392.93 186.44 (Har) 0 ta
-0.240 (den P) tb
-0.480 (oints Normal QQ Plot) tb gr
/Font1 findfont 10 s
479.95 15.54 (Theoretical Quantiles) .5 0 t
322.76 113.60 (Sample Quantiles) .5 90 t
361.00 60.96 598.90 166.25 cl
0 0 0 srgb
0.75 setlinewidth
[] 0 setdash
1 setlinecap
1 setlinejoin
10.00 setmiterlimit
np
361.00 59.11 m
237.90 99.92 l
o
ep
%%Trailer
%%Pages: 1
%%EOF
