%!PS-Adobe-3.0 EPSF-3.0
%%DocumentNeededResources: font Helvetica
%%+ font Helvetica-Bold
%%+ font Helvetica-Oblique
%%+ font Helvetica-BoldOblique
%%+ font Symbol
%%Title: R Graphics Output
%%Creator: R Software
%%Pages: (atend)
%%BoundingBox: 0 0 450 392
%%EndComments
%%BeginProlog
/bp  { gs sRGB gs } def
% begin .ps.prolog
/gs  { gsave } bind def
/gr  { grestore } bind def
/ep  { showpage gr gr } bind def
/m   { moveto } bind def
/l  { rlineto } bind def
/np  { newpath } bind def
/cp  { closepath } bind def
/f   { fill } bind def
/o   { stroke } bind def
/c   { newpath 0 360 arc } bind def
/r   { 4 2 roll moveto 1 copy 3 -1 roll exch 0 exch rlineto 0 rlineto -1 mul 0 exch rlineto closepath } bind def
/p1  { stroke } bind def
/p2  { gsave bg fill grestore newpath } bind def
/p3  { gsave bg fill grestore stroke } bind def
/p6  { gsave bg eofill grestore newpath } bind def
/p7  { gsave bg eofill grestore stroke } bind def
/t   { 5 -2 roll moveto gsave rotate
       1 index stringwidth pop
       mul neg 0 rmoveto show grestore } bind def
/ta  { 4 -2 roll moveto gsave rotate show } bind def
/tb  { 2 -1 roll 0 rmoveto show } bind def
/cl  { grestore gsave newpath 3 index 3 index moveto 1 index
       4 -1 roll lineto  exch 1 index lineto lineto
       closepath clip newpath } bind def
/rgb { setrgbcolor } bind def
/s   { scalefont setfont } bind def
% end   .ps.prolog
/sRGB { [ /CIEBasedABC
          << /DecodeLMN
               [ { dup 0.03928 le
                        {12.92321 div}
                        {0.055 add 1.055 div 2.4 exp }
                     ifelse
                 } bind dup dup
               ]
             /MatrixLMN [0.412457 0.212673 0.019334
                         0.357576 0.715152 0.119192
                         0.180437 0.072175 0.950301]
             /WhitePoint [0.9505 1.0 1.0890]
           >>
         ] setcolorspace } bind def
/srgb { setcolor } bind def
%%IncludeResource: font Helvetica
/Helvetica findfont
dup length dict begin
  {1 index /FID ne {def} {pop pop} ifelse} forall
  /Encoding ISOLatin1Encoding def
  currentdict
  end
/Font1 exch definefont pop
%%IncludeResource: font Helvetica-Bold
/Helvetica-Bold findfont
dup length dict begin
  {1 index /FID ne {def} {pop pop} ifelse} forall
  /Encoding ISOLatin1Encoding def
  currentdict
  end
/Font2 exch definefont pop
%%IncludeResource: font Helvetica-Oblique
/Helvetica-Oblique findfont
dup length dict begin
  {1 index /FID ne {def} {pop pop} ifelse} forall
  /Encoding ISOLatin1Encoding def
  currentdict
  end
/Font3 exch definefont pop
%%IncludeResource: font Helvetica-BoldOblique
/Helvetica-BoldOblique findfont
dup length dict begin
  {1 index /FID ne {def} {pop pop} ifelse} forall
  /Encoding ISOLatin1Encoding def
  currentdict
  end
/Font4 exch definefont pop
%%IncludeResource: font Symbol
/Symbol findfont
dup length dict begin
  {1 index /FID ne {def} {pop pop} ifelse} forall
  currentdict
  end
/Font5 exch definefont pop
%%EndProlog
%%Page: 1 1
bp
/bg { 1 1 1 srgb } def
0.00 0.00 450.00 391.50 r p2
49.00 256.71 199.90 342.50 cl
0.00 195.75 225.00 391.50 cl
/Font2 findfont 12 s
0 0 0 srgb
51.25 362.69 (W) 0 ta
-0.420 (estbr) tb
-0.240 (ook +/- 2016-2017) tb gr
/Font1 findfont 10 s
110.56 211.29 (P) 0 ta
-0.500 (oints) tb gr
10.76 299.60 (probability) .5 90 t
0.00 0.00 450.00 391.50 cl
0 0 0 srgb
0.75 setlinewidth
[] 0 setdash
1 setlinecap
1 setlinejoin
10.00 setmiterlimit
np
54.59 256.71 m
139.72 0 l
o
np
54.59 256.71 m
0 -5.98 l
o
np
74.55 256.71 m
0 -5.98 l
o
np
94.51 256.71 m
0 -5.98 l
o
np
114.47 256.71 m
0 -5.98 l
o
np
134.43 256.71 m
0 -5.98 l
o
np
154.39 256.71 m
0 -5.98 l
o
np
174.35 256.71 m
0 -5.98 l
o
np
194.31 256.71 m
0 -5.98 l
o
/Font1 findfont 10 s
54.59 235.19 (-40) .5 0 t
94.51 235.19 (-20) .5 0 t
134.43 235.19 (0) .5 0 t
154.39 235.19 (10) .5 0 t
174.35 235.19 (20) .5 0 t
194.31 235.19 (30) .5 0 t
np
49.00 259.88 m
0 74.25 l
o
np
49.00 259.88 m
-5.97 0 l
o
np
49.00 272.26 m
-5.97 0 l
o
np
49.00 284.63 m
-5.97 0 l
o
np
49.00 297.00 m
-5.97 0 l
o
np
49.00 309.38 m
-5.97 0 l
o
np
49.00 321.75 m
-5.97 0 l
o
np
49.00 334.13 m
-5.97 0 l
o
34.66 259.88 (0.000) .5 90 t
34.66 297.00 (0.015) .5 90 t
34.66 334.13 (0.030) .5 90 t
49.00 256.71 199.90 342.50 cl
/bg { 0.6784 0.8471 0.9020 srgb } def
0 0 0 srgb
0.75 setlinewidth
[] 0 setdash
1 setlinecap
1 setlinejoin
10.00 setmiterlimit
54.59 259.88 19.96 3.06 r p3
74.55 259.88 19.96 9.17 r p3
94.51 259.88 19.96 33.61 r p3
114.47 259.88 19.96 48.88 r p3
134.43 259.88 19.96 79.44 r p3
154.39 259.88 19.96 51.94 r p3
174.35 259.88 19.96 21.39 r p3
1 0 0 srgb
np
33.48 259.91 m
0.35 0 l
0.36 0.01 l
0.36 0 l
0.35 0.01 l
0.36 0 l
0.35 0.01 l
0.36 0 l
0.36 0.01 l
0.35 0 l
0.36 0.01 l
0.35 0.01 l
0.36 0.01 l
0.36 0.01 l
0.35 0.01 l
0.36 0.01 l
0.35 0.01 l
0.36 0.01 l
0.36 0.02 l
0.35 0.01 l
0.36 0.02 l
0.35 0.01 l
0.36 0.02 l
0.36 0.02 l
0.35 0.02 l
0.36 0.02 l
0.36 0.02 l
0.35 0.03 l
0.36 0.02 l
0.35 0.03 l
0.36 0.03 l
0.36 0.03 l
0.35 0.03 l
0.36 0.03 l
0.35 0.04 l
0.36 0.03 l
0.36 0.04 l
0.35 0.04 l
0.36 0.04 l
0.35 0.04 l
0.36 0.04 l
0.36 0.05 l
0.35 0.04 l
0.36 0.05 l
0.35 0.05 l
0.36 0.05 l
0.36 0.05 l
0.35 0.05 l
0.36 0.06 l
0.35 0.05 l
0.36 0.06 l
0.36 0.05 l
0.35 0.06 l
0.36 0.06 l
0.35 0.05 l
0.36 0.06 l
0.36 0.06 l
0.35 0.06 l
0.36 0.05 l
0.36 0.06 l
0.35 0.06 l
0.36 0.06 l
0.35 0.05 l
0.36 0.06 l
0.36 0.05 l
0.35 0.05 l
0.36 0.06 l
0.35 0.05 l
0.36 0.05 l
0.36 0.04 l
0.35 0.05 l
0.36 0.05 l
0.35 0.04 l
0.36 0.04 l
0.36 0.04 l
0.35 0.04 l
0.36 0.03 l
0.35 0.04 l
0.36 0.03 l
0.36 0.03 l
0.35 0.03 l
0.36 0.03 l
0.35 0.03 l
0.36 0.02 l
0.36 0.02 l
0.35 0.03 l
0.36 0.02 l
0.35 0.02 l
0.36 0.02 l
0.36 0.02 l
0.35 0.02 l
0.36 0.02 l
0.36 0.02 l
0.35 0.02 l
0.36 0.03 l
0.35 0.02 l
0.36 0.03 l
0.36 0.02 l
0.35 0.03 l
0.36 0.04 l
69.08 263.12 lineto
0.36 0.04 l
0.36 0.04 l
0.35 0.04 l
0.36 0.05 l
0.35 0.06 l
0.36 0.05 l
0.36 0.07 l
0.35 0.06 l
0.36 0.08 l
0.35 0.08 l
0.36 0.08 l
0.36 0.09 l
0.35 0.10 l
0.36 0.10 l
0.35 0.11 l
0.36 0.12 l
0.36 0.12 l
0.35 0.13 l
0.36 0.14 l
0.36 0.14 l
0.35 0.15 l
0.36 0.16 l
0.35 0.17 l
0.36 0.17 l
0.36 0.18 l
0.35 0.19 l
0.36 0.19 l
0.35 0.20 l
0.36 0.21 l
0.36 0.22 l
0.35 0.22 l
0.36 0.23 l
0.35 0.23 l
0.36 0.24 l
0.36 0.25 l
0.35 0.25 l
0.36 0.26 l
0.35 0.26 l
0.36 0.27 l
0.36 0.28 l
0.35 0.28 l
0.36 0.28 l
0.35 0.29 l
0.36 0.29 l
0.36 0.30 l
0.35 0.30 l
0.36 0.30 l
0.35 0.31 l
0.36 0.31 l
0.36 0.32 l
0.35 0.31 l
0.36 0.32 l
0.36 0.33 l
0.35 0.32 l
0.36 0.33 l
0.35 0.33 l
0.36 0.33 l
0.36 0.34 l
0.35 0.33 l
0.36 0.34 l
0.35 0.34 l
0.36 0.34 l
0.36 0.34 l
0.35 0.35 l
0.36 0.35 l
0.35 0.34 l
0.36 0.35 l
0.36 0.36 l
0.35 0.35 l
0.36 0.35 l
0.35 0.36 l
0.36 0.36 l
0.36 0.36 l
0.35 0.36 l
0.36 0.37 l
0.35 0.36 l
0.36 0.37 l
0.36 0.37 l
0.35 0.37 l
0.36 0.38 l
0.36 0.38 l
0.35 0.38 l
0.36 0.38 l
0.35 0.39 l
0.36 0.39 l
0.36 0.39 l
0.35 0.39 l
0.36 0.40 l
0.35 0.40 l
0.36 0.41 l
0.36 0.41 l
0.35 0.41 l
0.36 0.41 l
0.35 0.42 l
0.36 0.42 l
0.36 0.42 l
0.35 0.43 l
0.36 0.43 l
0.35 0.44 l
104.69 290.67 lineto
0.36 0.44 l
0.35 0.45 l
0.36 0.44 l
0.35 0.45 l
0.36 0.45 l
0.36 0.46 l
0.35 0.45 l
0.36 0.46 l
0.35 0.46 l
0.36 0.46 l
0.36 0.46 l
0.35 0.46 l
0.36 0.46 l
0.36 0.46 l
0.35 0.46 l
0.36 0.46 l
0.35 0.46 l
0.36 0.45 l
0.36 0.45 l
0.35 0.45 l
0.36 0.45 l
0.35 0.44 l
0.36 0.44 l
0.36 0.43 l
0.35 0.43 l
0.36 0.42 l
0.35 0.41 l
0.36 0.41 l
0.36 0.40 l
0.35 0.39 l
0.36 0.38 l
0.35 0.37 l
0.36 0.36 l
0.36 0.35 l
0.35 0.35 l
0.36 0.33 l
0.35 0.31 l
0.36 0.31 l
0.36 0.30 l
0.35 0.28 l
0.36 0.27 l
0.36 0.27 l
0.35 0.24 l
0.36 0.24 l
0.35 0.22 l
0.36 0.21 l
0.36 0.20 l
0.35 0.19 l
0.36 0.17 l
0.35 0.16 l
0.36 0.16 l
0.36 0.14 l
0.35 0.13 l
0.36 0.13 l
0.35 0.11 l
0.36 0.11 l
0.36 0.10 l
0.35 0.09 l
0.36 0.09 l
0.35 0.09 l
0.36 0.08 l
0.36 0.07 l
0.35 0.08 l
0.36 0.07 l
0.35 0.08 l
0.36 0.07 l
0.36 0.08 l
0.35 0.08 l
0.36 0.09 l
0.35 0.09 l
0.36 0.10 l
0.36 0.11 l
0.35 0.11 l
0.36 0.13 l
0.36 0.13 l
0.35 0.15 l
0.36 0.17 l
0.35 0.17 l
0.36 0.19 l
0.36 0.21 l
0.35 0.22 l
0.36 0.24 l
0.35 0.26 l
0.36 0.27 l
0.36 0.30 l
0.35 0.31 l
0.36 0.34 l
0.35 0.35 l
0.36 0.37 l
0.36 0.40 l
0.35 0.42 l
0.36 0.43 l
0.35 0.46 l
0.36 0.48 l
0.36 0.49 l
0.35 0.52 l
0.36 0.54 l
0.35 0.55 l
0.36 0.57 l
140.30 321.01 lineto
0.35 0.60 l
0.36 0.62 l
0.36 0.63 l
0.35 0.65 l
0.36 0.65 l
0.35 0.66 l
0.36 0.68 l
0.36 0.68 l
0.35 0.68 l
0.36 0.69 l
0.35 0.69 l
0.36 0.69 l
0.36 0.68 l
0.35 0.68 l
0.36 0.68 l
0.35 0.66 l
0.36 0.66 l
0.36 0.64 l
0.35 0.63 l
0.36 0.61 l
0.35 0.58 l
0.36 0.58 l
0.36 0.54 l
0.35 0.51 l
0.36 0.50 l
0.35 0.46 l
0.36 0.42 l
0.36 0.40 l
0.35 0.37 l
0.36 0.31 l
0.35 0.28 l
0.36 0.25 l
0.36 0.20 l
0.35 0.16 l
0.36 0.11 l
0.36 0.08 l
0.35 0.02 l
0.36 -0.02 l
0.35 -0.06 l
0.36 -0.13 l
0.36 -0.16 l
0.35 -0.21 l
0.36 -0.25 l
0.35 -0.31 l
0.36 -0.35 l
0.36 -0.39 l
0.35 -0.44 l
0.36 -0.49 l
0.35 -0.52 l
0.36 -0.57 l
0.36 -0.61 l
0.35 -0.64 l
0.36 -0.68 l
0.35 -0.72 l
0.36 -0.75 l
0.36 -0.78 l
0.35 -0.82 l
0.36 -0.84 l
0.35 -0.86 l
0.36 -0.88 l
0.36 -0.91 l
0.35 -0.93 l
0.36 -0.94 l
0.36 -0.95 l
0.35 -0.97 l
0.36 -0.98 l
0.35 -0.98 l
0.36 -0.99 l
0.36 -0.99 l
0.35 -1.00 l
0.36 -0.99 l
0.35 -0.99 l
0.36 -0.99 l
0.36 -0.97 l
0.35 -0.98 l
0.36 -0.96 l
0.35 -0.96 l
0.36 -0.94 l
0.36 -0.93 l
0.35 -0.91 l
0.36 -0.91 l
0.35 -0.89 l
0.36 -0.87 l
0.36 -0.85 l
0.35 -0.84 l
0.36 -0.83 l
0.35 -0.80 l
0.36 -0.79 l
0.36 -0.78 l
0.35 -0.75 l
0.36 -0.74 l
0.35 -0.72 l
0.36 -0.71 l
0.36 -0.69 l
0.35 -0.68 l
0.36 -0.67 l
0.36 -0.65 l
0.35 -0.63 l
0.36 -0.63 l
175.90 294.16 lineto
0.36 -0.61 l
0.36 -0.59 l
0.35 -0.58 l
0.36 -0.58 l
0.35 -0.57 l
0.36 -0.56 l
0.36 -0.55 l
0.35 -0.55 l
0.36 -0.54 l
0.35 -0.54 l
0.36 -0.53 l
0.36 -0.53 l
0.35 -0.53 l
0.36 -0.53 l
0.35 -0.52 l
0.36 -0.52 l
0.36 -0.53 l
0.35 -0.52 l
0.36 -0.51 l
0.35 -0.52 l
0.36 -0.52 l
0.36 -0.52 l
0.35 -0.51 l
0.36 -0.52 l
0.36 -0.52 l
0.35 -0.51 l
0.36 -0.51 l
0.35 -0.52 l
0.36 -0.51 l
0.36 -0.51 l
0.35 -0.51 l
0.36 -0.50 l
0.35 -0.51 l
0.36 -0.50 l
0.36 -0.50 l
0.35 -0.49 l
0.36 -0.49 l
0.35 -0.49 l
0.36 -0.48 l
0.36 -0.47 l
0.35 -0.47 l
0.36 -0.47 l
0.35 -0.46 l
0.36 -0.45 l
0.36 -0.44 l
0.35 -0.44 l
0.36 -0.42 l
0.35 -0.42 l
0.36 -0.41 l
0.36 -0.41 l
0.35 -0.39 l
0.36 -0.38 l
0.35 -0.38 l
0.36 -0.36 l
0.36 -0.35 l
0.35 -0.35 l
0.36 -0.33 l
0.36 -0.32 l
0.35 -0.31 l
0.36 -0.31 l
0.35 -0.29 l
0.36 -0.28 l
0.36 -0.27 l
0.35 -0.26 l
0.36 -0.24 l
0.35 -0.25 l
0.36 -0.22 l
0.36 -0.22 l
0.35 -0.21 l
0.36 -0.20 l
0.35 -0.19 l
0.36 -0.18 l
0.36 -0.17 l
0.35 -0.16 l
0.36 -0.16 l
0.35 -0.15 l
0.36 -0.13 l
0.36 -0.13 l
0.35 -0.13 l
0.36 -0.11 l
0.35 -0.11 l
0.36 -0.10 l
0.36 -0.10 l
0.35 -0.09 l
0.36 -0.08 l
0.36 -0.08 l
0.35 -0.07 l
0.36 -0.07 l
0.35 -0.06 l
0.36 -0.06 l
0.36 -0.06 l
0.35 -0.05 l
0.36 -0.04 l
0.35 -0.05 l
0.36 -0.04 l
0.36 -0.03 l
0.35 -0.04 l
0.36 -0.03 l
0.35 -0.03 l
211.51 260.13 lineto
0.36 -0.02 l
0.35 -0.03 l
0.36 -0.02 l
0.35 -0.01 l
0.36 -0.02 l
0.36 -0.02 l
0.35 -0.01 l
0.36 -0.01 l
0.35 -0.01 l
0.36 -0.01 l
0.36 -0.01 l
o
274.00 256.71 424.90 342.50 cl
0 0 0 srgb
0.75 setlinewidth
[] 0 setdash
1 setlinecap
1 setlinejoin
10.00 setmiterlimit
359.15 318.82 2.24 c p1
349.45 314.98 2.24 c p1
354.67 317.54 2.24 c p1
364.89 321.38 2.24 c p1
325.08 294.48 2.24 c p1
393.94 334.19 2.24 c p1
397.32 336.76 2.24 c p1
335.01 300.88 2.24 c p1
332.99 299.60 2.24 c p1
355.55 317.54 2.24 c p1
329.80 298.32 2.24 c p1
365.91 321.38 2.24 c p1
388.64 332.91 2.24 c p1
310.27 285.51 2.24 c p1
356.44 317.54 2.24 c p1
327.52 297.04 2.24 c p1
360.07 318.82 2.24 c p1
377.88 323.94 2.24 c p1
348.59 312.41 2.24 c p1
345.99 311.13 2.24 c p1
372.58 322.66 2.24 c p1
335.99 300.88 2.24 c p1
338.83 304.73 2.24 c p1
357.33 317.54 2.24 c p1
321.03 293.19 2.24 c p1
330.89 298.32 2.24 c p1
379.37 326.51 2.24 c p1
337.90 303.44 2.24 c p1
336.95 300.88 2.24 c p1
358.24 317.54 2.24 c p1
366.95 321.38 2.24 c p1
368.01 321.38 2.24 c p1
319.54 291.91 2.24 c p1
407.68 339.32 2.24 c p1
344.24 309.85 2.24 c p1
326.32 295.76 2.24 c p1
342.47 308.57 2.24 c p1
401.61 336.76 2.24 c p1
361.01 318.82 2.24 c p1
373.82 322.66 2.24 c p1
322.44 293.19 2.24 c p1
339.76 304.73 2.24 c p1
301.58 280.38 2.24 c p1
304.97 281.66 2.24 c p1
346.86 311.13 2.24 c p1
340.67 304.73 2.24 c p1
382.64 330.35 2.24 c p1
307.81 281.66 2.24 c p1
352.92 316.26 2.24 c p1
297.29 276.54 2.24 c p1
380.95 327.79 2.24 c p1
350.32 314.98 2.24 c p1
341.57 307.29 2.24 c p1
345.11 309.85 2.24 c p1
317.95 289.35 2.24 c p1
279.59 259.88 2.24 c p1
375.11 322.66 2.24 c p1
384.46 330.35 2.24 c p1
347.72 311.13 2.24 c p1
361.95 318.82 2.24 c p1
328.68 297.04 2.24 c p1
362.92 318.82 2.24 c p1
314.44 288.07 2.24 c p1
351.18 314.98 2.24 c p1
369.11 321.38 2.24 c p1
370.23 321.38 2.24 c p1
352.05 314.98 2.24 c p1
419.31 339.32 2.24 c p1
376.46 322.66 2.24 c p1
291.23 273.98 2.24 c p1
391.10 332.91 2.24 c p1
316.26 288.07 2.24 c p1
371.39 321.38 2.24 c p1
353.79 316.26 2.24 c p1
323.79 293.19 2.24 c p1
331.95 298.32 2.24 c p1
386.45 330.35 2.24 c p1
343.36 308.57 2.24 c p1
312.46 286.79 2.24 c p1
363.90 318.82 2.24 c p1
334.01 299.60 2.24 c p1
0.00 0.00 450.00 391.50 cl
0 0 0 srgb
0.75 setlinewidth
[] 0 setdash
1 setlinecap
1 setlinejoin
10.00 setmiterlimit
np
293.61 256.71 m
111.68 0 l
o
np
293.61 256.71 m
0 -5.98 l
o
np
321.53 256.71 m
0 -5.98 l
o
np
349.45 256.71 m
0 -5.98 l
o
np
377.37 256.71 m
0 -5.98 l
o
np
405.29 256.71 m
0 -5.98 l
o
/Font1 findfont 10 s
293.61 235.19 (-2) .5 0 t
321.53 235.19 (-1) .5 0 t
349.45 235.19 (0) .5 0 t
377.37 235.19 (1) .5 0 t
405.29 235.19 (2) .5 0 t
np
274.00 267.57 m
0 64.06 l
o
np
274.00 267.57 m
-5.97 0 l
o
np
274.00 280.38 m
-5.97 0 l
o
np
274.00 293.19 m
-5.97 0 l
o
np
274.00 306.01 m
-5.97 0 l
o
np
274.00 318.82 m
-5.97 0 l
o
np
274.00 331.63 m
-5.97 0 l
o
259.66 267.57 (-30) .5 90 t
259.66 293.19 (-10) .5 90 t
259.66 318.82 (10) .5 90 t
np
274.00 256.71 m
150.90 0 l
0 85.79 l
-150.90 0 l
0 -85.79 l
o
225.00 195.75 450.00 391.50 cl
/Font2 findfont 12 s
0 0 0 srgb
261.76 362.69 (W) 0 ta
-0.420 (estbr) tb
-0.240 (ook +/- Normal QQ Plot) tb gr
/Font1 findfont 10 s
349.45 211.29 (Theoretical Quantiles) .5 0 t
235.76 299.60 (Sample Quantiles) .5 90 t
274.00 256.71 424.90 342.50 cl
0 0 0 srgb
0.75 setlinewidth
[] 0 setdash
1 setlinecap
1 setlinejoin
10.00 setmiterlimit
np
274.00 263.65 m
150.90 92.40 l
o
49.00 60.96 199.90 146.75 cl
0.00 0.00 225.00 195.75 cl
/Font2 findfont 12 s
0 0 0 srgb
61.58 166.94 (Har) 0 ta
-0.240 (den +/- 2016-2017) tb gr
/Font1 findfont 10 s
110.56 15.54 (P) 0 ta
-0.500 (oints) tb gr
10.76 103.85 (probability) .5 90 t
0.00 0.00 450.00 391.50 cl
0 0 0 srgb
0.75 setlinewidth
[] 0 setdash
1 setlinecap
1 setlinejoin
10.00 setmiterlimit
np
54.59 60.96 m
139.72 0 l
o
np
54.59 60.96 m
0 -5.98 l
o
np
77.88 60.96 m
0 -5.98 l
o
np
101.17 60.96 m
0 -5.98 l
o
np
124.45 60.96 m
0 -5.98 l
o
np
147.74 60.96 m
0 -5.98 l
o
np
171.03 60.96 m
0 -5.98 l
o
np
194.31 60.96 m
0 -5.98 l
o
/Font1 findfont 10 s
54.59 39.44 (-30) .5 0 t
101.17 39.44 (-10) .5 0 t
124.45 39.44 (0) .5 0 t
147.74 39.44 (10) .5 0 t
171.03 39.44 (20) .5 0 t
194.31 39.44 (30) .5 0 t
np
49.00 64.13 m
0 64.35 l
o
np
49.00 64.13 m
-5.97 0 l
o
np
49.00 85.58 m
-5.97 0 l
o
np
49.00 107.03 m
-5.97 0 l
o
np
49.00 128.48 m
-5.97 0 l
o
34.66 64.13 (0.00) .5 90 t
34.66 107.03 (0.02) .5 90 t
49.00 60.96 199.90 146.75 cl
/bg { 0.6784 0.8471 0.9020 srgb } def
0 0 0 srgb
0.75 setlinewidth
[] 0 setdash
1 setlinecap
1 setlinejoin
10.00 setmiterlimit
54.59 64.13 11.64 5.30 r p3
66.24 64.13 11.64 10.59 r p3
77.88 64.13 11.64 5.30 r p3
89.52 64.13 11.64 31.77 r p3
101.17 64.13 11.64 37.07 r p3
112.81 64.13 11.64 47.66 r p3
124.45 64.13 11.64 79.44 r p3
136.10 64.13 11.64 58.25 r p3
147.74 64.13 11.64 63.55 r p3
159.38 64.13 11.64 37.07 r p3
171.03 64.13 11.64 37.07 r p3
182.67 64.13 11.64 15.89 r p3
1 0 0 srgb
np
32.35 64.16 m
0.37 0.01 l
0.37 0 l
0.37 0 l
0.37 0.01 l
0.37 0 l
0.37 0.01 l
0.37 0.01 l
0.37 0 l
0.37 0.01 l
0.37 0.01 l
0.37 0.01 l
0.37 0.01 l
0.37 0.01 l
0.37 0.01 l
0.37 0.01 l
0.37 0.02 l
0.37 0.01 l
0.37 0.02 l
0.36 0.02 l
0.37 0.02 l
0.37 0.02 l
0.37 0.02 l
0.37 0.02 l
0.37 0.03 l
0.37 0.02 l
0.37 0.03 l
0.37 0.03 l
0.37 0.04 l
0.37 0.03 l
0.37 0.04 l
0.37 0.04 l
0.37 0.04 l
0.37 0.04 l
0.37 0.05 l
0.37 0.04 l
0.37 0.05 l
0.37 0.06 l
0.37 0.05 l
0.37 0.06 l
0.37 0.06 l
0.37 0.07 l
0.37 0.06 l
0.36 0.07 l
0.37 0.07 l
0.37 0.08 l
0.37 0.08 l
0.37 0.08 l
0.37 0.08 l
0.37 0.09 l
0.37 0.09 l
0.37 0.09 l
0.37 0.09 l
0.37 0.10 l
0.37 0.10 l
0.37 0.10 l
0.37 0.10 l
0.37 0.11 l
0.37 0.11 l
0.37 0.11 l
0.37 0.11 l
0.37 0.12 l
0.37 0.11 l
0.37 0.12 l
0.37 0.12 l
0.37 0.12 l
0.36 0.13 l
0.37 0.12 l
0.37 0.13 l
0.37 0.13 l
0.37 0.12 l
0.37 0.13 l
0.37 0.13 l
0.37 0.14 l
0.37 0.13 l
0.37 0.13 l
0.37 0.13 l
0.37 0.13 l
0.37 0.14 l
0.37 0.13 l
0.37 0.13 l
0.37 0.14 l
0.37 0.13 l
0.37 0.13 l
0.37 0.14 l
0.37 0.13 l
0.37 0.13 l
0.37 0.13 l
0.37 0.13 l
0.37 0.13 l
0.36 0.13 l
0.37 0.13 l
0.37 0.13 l
0.37 0.13 l
0.37 0.13 l
0.37 0.12 l
0.37 0.13 l
0.37 0.12 l
0.37 0.13 l
0.37 0.12 l
69.31 72.04 lineto
0.37 0.12 l
0.37 0.13 l
0.37 0.12 l
0.37 0.12 l
0.37 0.12 l
0.37 0.12 l
0.37 0.12 l
0.37 0.12 l
0.37 0.12 l
0.37 0.12 l
0.37 0.12 l
0.37 0.12 l
0.37 0.12 l
0.36 0.12 l
0.37 0.13 l
0.37 0.12 l
0.37 0.13 l
0.37 0.13 l
0.37 0.13 l
0.37 0.13 l
0.37 0.14 l
0.37 0.14 l
0.37 0.14 l
0.37 0.15 l
0.37 0.15 l
0.37 0.16 l
0.37 0.16 l
0.37 0.16 l
0.37 0.17 l
0.37 0.18 l
0.37 0.18 l
0.37 0.18 l
0.37 0.20 l
0.37 0.20 l
0.37 0.21 l
0.37 0.21 l
0.37 0.22 l
0.36 0.23 l
0.37 0.24 l
0.37 0.24 l
0.37 0.25 l
0.37 0.26 l
0.37 0.27 l
0.37 0.28 l
0.37 0.28 l
0.37 0.29 l
0.37 0.30 l
0.37 0.31 l
0.37 0.31 l
0.37 0.32 l
0.37 0.33 l
0.37 0.33 l
0.37 0.34 l
0.37 0.35 l
0.37 0.35 l
0.37 0.36 l
0.37 0.36 l
0.37 0.37 l
0.37 0.37 l
0.37 0.38 l
0.37 0.38 l
0.36 0.38 l
0.37 0.39 l
0.37 0.39 l
0.37 0.39 l
0.37 0.39 l
0.37 0.39 l
0.37 0.39 l
0.37 0.40 l
0.37 0.39 l
0.37 0.39 l
0.37 0.40 l
0.37 0.39 l
0.37 0.39 l
0.37 0.40 l
0.37 0.39 l
0.37 0.39 l
0.37 0.38 l
0.37 0.39 l
0.37 0.39 l
0.37 0.38 l
0.37 0.39 l
0.37 0.38 l
0.37 0.38 l
0.37 0.39 l
0.36 0.38 l
0.37 0.38 l
0.37 0.39 l
0.37 0.38 l
0.37 0.39 l
0.37 0.39 l
0.37 0.39 l
0.37 0.39 l
0.37 0.39 l
0.37 0.40 l
0.37 0.40 l
0.37 0.41 l
0.37 0.41 l
0.37 0.42 l
106.27 100.23 lineto
0.37 0.42 l
0.37 0.44 l
0.37 0.44 l
0.37 0.45 l
0.37 0.45 l
0.37 0.46 l
0.37 0.47 l
0.37 0.48 l
0.37 0.48 l
0.36 0.50 l
0.37 0.50 l
0.37 0.51 l
0.37 0.51 l
0.37 0.53 l
0.37 0.53 l
0.37 0.54 l
0.37 0.54 l
0.37 0.55 l
0.37 0.56 l
0.37 0.56 l
0.37 0.57 l
0.37 0.57 l
0.37 0.58 l
0.37 0.57 l
0.37 0.58 l
0.37 0.58 l
0.37 0.58 l
0.37 0.57 l
0.37 0.58 l
0.37 0.57 l
0.37 0.57 l
0.37 0.56 l
0.37 0.55 l
0.36 0.55 l
0.37 0.54 l
0.37 0.53 l
0.37 0.52 l
0.37 0.51 l
0.37 0.49 l
0.37 0.48 l
0.37 0.46 l
0.37 0.46 l
0.37 0.42 l
0.37 0.42 l
0.37 0.40 l
0.37 0.37 l
0.37 0.36 l
0.37 0.34 l
0.37 0.32 l
0.37 0.29 l
0.37 0.28 l
0.37 0.26 l
0.37 0.23 l
0.37 0.21 l
0.37 0.19 l
0.37 0.17 l
0.37 0.15 l
0.36 0.13 l
0.37 0.12 l
0.37 0.08 l
0.37 0.08 l
0.37 0.05 l
0.37 0.04 l
0.37 0.03 l
0.37 0.01 l
0.37 -0.01 l
0.37 -0.02 l
0.37 -0.03 l
0.37 -0.03 l
0.37 -0.05 l
0.37 -0.06 l
0.37 -0.06 l
0.37 -0.07 l
0.37 -0.07 l
0.37 -0.07 l
0.37 -0.08 l
0.37 -0.08 l
0.37 -0.08 l
0.37 -0.07 l
0.37 -0.08 l
0.36 -0.07 l
0.37 -0.07 l
0.37 -0.06 l
0.37 -0.06 l
0.37 -0.06 l
0.37 -0.05 l
0.37 -0.04 l
0.37 -0.03 l
0.37 -0.03 l
0.37 -0.03 l
0.37 -0.01 l
0.37 -0.02 l
0.37 0 l
0.37 -0.01 l
0.37 0.01 l
0.37 0 l
0.37 0.01 l
0.37 0.02 l
0.37 0.01 l
143.23 125.73 lineto
0.37 0.02 l
0.37 0.01 l
0.37 0.01 l
0.37 0.01 l
0.36 0 l
0.37 -0.01 l
0.37 -0.01 l
0.37 -0.02 l
0.37 -0.02 l
0.37 -0.04 l
0.37 -0.05 l
0.37 -0.06 l
0.37 -0.07 l
0.37 -0.09 l
0.37 -0.10 l
0.37 -0.12 l
0.37 -0.12 l
0.37 -0.15 l
0.37 -0.17 l
0.37 -0.17 l
0.37 -0.20 l
0.37 -0.21 l
0.37 -0.23 l
0.37 -0.24 l
0.37 -0.27 l
0.37 -0.27 l
0.37 -0.29 l
0.37 -0.31 l
0.36 -0.32 l
0.37 -0.34 l
0.37 -0.34 l
0.37 -0.36 l
0.37 -0.37 l
0.37 -0.38 l
0.37 -0.39 l
0.37 -0.40 l
0.37 -0.40 l
0.37 -0.41 l
0.37 -0.42 l
0.37 -0.42 l
0.37 -0.42 l
0.37 -0.42 l
0.37 -0.43 l
0.37 -0.42 l
0.37 -0.43 l
0.37 -0.42 l
0.37 -0.42 l
0.37 -0.42 l
0.37 -0.42 l
0.37 -0.41 l
0.37 -0.40 l
0.37 -0.40 l
0.36 -0.40 l
0.37 -0.39 l
0.37 -0.38 l
0.37 -0.38 l
0.37 -0.38 l
0.37 -0.36 l
0.37 -0.37 l
0.37 -0.36 l
0.37 -0.35 l
0.37 -0.35 l
0.37 -0.34 l
0.37 -0.35 l
0.37 -0.34 l
0.37 -0.34 l
0.37 -0.33 l
0.37 -0.34 l
0.37 -0.34 l
0.37 -0.33 l
0.37 -0.34 l
0.37 -0.34 l
0.37 -0.35 l
0.37 -0.34 l
0.37 -0.35 l
0.37 -0.36 l
0.36 -0.36 l
0.37 -0.37 l
0.37 -0.37 l
0.37 -0.38 l
0.37 -0.39 l
0.37 -0.39 l
0.37 -0.41 l
0.37 -0.41 l
0.37 -0.42 l
0.37 -0.43 l
0.37 -0.44 l
0.37 -0.45 l
0.37 -0.45 l
0.37 -0.47 l
0.37 -0.47 l
0.37 -0.48 l
0.37 -0.49 l
0.37 -0.50 l
0.37 -0.50 l
0.37 -0.52 l
0.37 -0.52 l
0.37 -0.52 l
0.37 -0.53 l
180.19 93.68 lineto
0.36 -0.55 l
0.37 -0.54 l
0.37 -0.56 l
0.37 -0.55 l
0.37 -0.56 l
0.37 -0.56 l
0.37 -0.56 l
0.37 -0.57 l
0.37 -0.56 l
0.37 -0.57 l
0.37 -0.56 l
0.37 -0.57 l
0.37 -0.56 l
0.37 -0.56 l
0.37 -0.56 l
0.37 -0.56 l
0.37 -0.55 l
0.37 -0.55 l
0.37 -0.54 l
0.37 -0.54 l
0.37 -0.53 l
0.37 -0.53 l
0.37 -0.53 l
0.37 -0.51 l
0.36 -0.51 l
0.37 -0.51 l
0.37 -0.49 l
0.37 -0.49 l
0.37 -0.48 l
0.37 -0.48 l
0.37 -0.46 l
0.37 -0.46 l
0.37 -0.45 l
0.37 -0.44 l
0.37 -0.43 l
0.37 -0.43 l
0.37 -0.41 l
0.37 -0.40 l
0.37 -0.40 l
0.37 -0.39 l
0.37 -0.38 l
0.37 -0.36 l
0.37 -0.36 l
0.37 -0.35 l
0.37 -0.34 l
0.37 -0.33 l
0.37 -0.32 l
0.37 -0.31 l
0.36 -0.30 l
0.37 -0.29 l
0.37 -0.29 l
0.37 -0.27 l
0.37 -0.26 l
0.37 -0.26 l
0.37 -0.24 l
0.37 -0.24 l
0.37 -0.23 l
0.37 -0.21 l
0.37 -0.21 l
0.37 -0.21 l
0.37 -0.19 l
0.37 -0.18 l
0.37 -0.18 l
0.37 -0.17 l
0.37 -0.16 l
0.37 -0.15 l
0.37 -0.15 l
0.37 -0.14 l
0.37 -0.13 l
0.37 -0.12 l
0.37 -0.12 l
0.37 -0.11 l
0.36 -0.11 l
0.37 -0.10 l
0.37 -0.10 l
0.37 -0.08 l
0.37 -0.09 l
0.37 -0.08 l
0.37 -0.07 l
0.37 -0.07 l
0.37 -0.06 l
0.37 -0.06 l
0.37 -0.06 l
0.37 -0.05 l
0.37 -0.05 l
0.37 -0.05 l
0.37 -0.04 l
0.37 -0.04 l
0.37 -0.04 l
0.37 -0.03 l
0.37 -0.03 l
0.37 -0.03 l
0.37 -0.02 l
0.37 -0.03 l
0.37 -0.02 l
0.37 -0.02 l
0.36 -0.02 l
0.37 -0.02 l
0.37 -0.01 l
217.14 64.26 lineto
0.37 -0.01 l
0.37 -0.01 l
0.37 -0.01 l
0.37 -0.01 l
0.37 -0.01 l
0.37 -0.01 l
0.37 -0.01 l
0.37 0 l
0.37 -0.01 l
0.37 0 l
0.37 -0.01 l
o
274.00 60.96 424.90 146.75 cl
0 0 0 srgb
0.75 setlinewidth
[] 0 setdash
1 setlinecap
1 setlinejoin
10.00 setmiterlimit
355.55 116.62 2.24 c p1
351.18 112.36 2.24 c p1
336.95 103.85 2.24 c p1
356.44 116.62 2.24 c p1
382.64 132.22 2.24 c p1
321.03 91.08 2.24 c p1
352.05 113.78 2.24 c p1
361.95 119.45 2.24 c p1
337.90 103.85 2.24 c p1
388.64 133.64 2.24 c p1
326.32 95.34 2.24 c p1
391.10 135.06 2.24 c p1
330.89 99.60 2.24 c p1
350.32 110.94 2.24 c p1
310.27 85.41 2.24 c p1
357.33 116.62 2.24 c p1
352.92 113.78 2.24 c p1
301.58 75.48 2.24 c p1
322.44 93.92 2.24 c p1
362.92 119.45 2.24 c p1
345.11 106.69 2.24 c p1
377.88 129.38 2.24 c p1
338.83 103.85 2.24 c p1
380.95 130.80 2.24 c p1
331.95 99.60 2.24 c p1
419.31 143.57 2.24 c p1
370.23 122.29 2.24 c p1
345.99 108.11 2.24 c p1
339.76 103.85 2.24 c p1
346.86 108.11 2.24 c p1
360.07 118.04 2.24 c p1
397.32 136.48 2.24 c p1
364.89 120.87 2.24 c p1
334.01 101.01 2.24 c p1
365.91 120.87 2.24 c p1
371.39 122.29 2.24 c p1
342.47 105.27 2.24 c p1
323.79 93.92 2.24 c p1
327.52 98.18 2.24 c p1
343.36 105.27 2.24 c p1
316.26 88.25 2.24 c p1
332.99 99.60 2.24 c p1
373.82 127.97 2.24 c p1
335.01 102.43 2.24 c p1
384.46 132.22 2.24 c p1
297.29 74.06 2.24 c p1
386.45 132.22 2.24 c p1
349.45 109.53 2.24 c p1
304.97 82.57 2.24 c p1
366.95 120.87 2.24 c p1
291.23 69.81 2.24 c p1
372.58 126.55 2.24 c p1
340.67 103.85 2.24 c p1
314.44 86.83 2.24 c p1
375.11 127.97 2.24 c p1
368.01 120.87 2.24 c p1
401.61 139.31 2.24 c p1
325.08 93.92 2.24 c p1
407.68 140.73 2.24 c p1
347.72 108.11 2.24 c p1
317.95 89.67 2.24 c p1
335.99 102.43 2.24 c p1
369.11 120.87 2.24 c p1
328.68 98.18 2.24 c p1
341.57 103.85 2.24 c p1
376.46 127.97 2.24 c p1
393.94 135.06 2.24 c p1
358.24 116.62 2.24 c p1
312.46 85.41 2.24 c p1
359.15 116.62 2.24 c p1
344.24 105.27 2.24 c p1
363.90 119.45 2.24 c p1
361.01 118.04 2.24 c p1
319.54 89.67 2.24 c p1
329.80 98.18 2.24 c p1
307.81 82.57 2.24 c p1
348.59 108.11 2.24 c p1
353.79 113.78 2.24 c p1
354.67 113.78 2.24 c p1
279.59 64.13 2.24 c p1
379.37 129.38 2.24 c p1
0.00 0.00 450.00 391.50 cl
0 0 0 srgb
0.75 setlinewidth
[] 0 setdash
1 setlinecap
1 setlinejoin
10.00 setmiterlimit
np
293.61 60.96 m
111.68 0 l
o
np
293.61 60.96 m
0 -5.98 l
o
np
321.53 60.96 m
0 -5.98 l
o
np
349.45 60.96 m
0 -5.98 l
o
np
377.37 60.96 m
0 -5.98 l
o
np
405.29 60.96 m
0 -5.98 l
o
/Font1 findfont 10 s
293.61 39.44 (-2) .5 0 t
321.53 39.44 (-1) .5 0 t
349.45 39.44 (0) .5 0 t
377.37 39.44 (1) .5 0 t
405.29 39.44 (2) .5 0 t
np
274.00 74.06 m
0 70.93 l
o
np
274.00 74.06 m
-5.97 0 l
o
np
274.00 88.25 m
-5.97 0 l
o
np
274.00 102.43 m
-5.97 0 l
o
np
274.00 116.62 m
-5.97 0 l
o
np
274.00 130.80 m
-5.97 0 l
o
np
274.00 144.99 m
-5.97 0 l
o
259.66 74.06 (-20) .5 90 t
259.66 102.43 (0) .5 90 t
259.66 130.80 (20) .5 90 t
np
274.00 60.96 m
150.90 0 l
0 85.79 l
-150.90 0 l
0 -85.79 l
o
225.00 0.00 450.00 195.75 cl
/Font2 findfont 12 s
0 0 0 srgb
272.09 166.94 (Har) 0 ta
-0.240 (den +/- Normal QQ Plot) tb gr
/Font1 findfont 10 s
349.45 15.54 (Theoretical Quantiles) .5 0 t
235.76 103.85 (Sample Quantiles) .5 90 t
274.00 60.96 424.90 146.75 cl
0 0 0 srgb
0.75 setlinewidth
[] 0 setdash
1 setlinecap
1 setlinejoin
10.00 setmiterlimit
np
274.00 67.61 m
150.90 85.25 l
o
ep
%%Trailer
%%Pages: 1
%%EOF
