%!PS-Adobe-3.0 EPSF-3.0
%%DocumentNeededResources: font Helvetica
%%+ font Helvetica-Bold
%%+ font Helvetica-Oblique
%%+ font Helvetica-BoldOblique
%%+ font Symbol
%%Title: R Graphics Output
%%Creator: R Software
%%Pages: (atend)
%%BoundingBox: 0 0 450 392
%%EndComments
%%BeginProlog
/bp  { gs sRGB gs } def
% begin .ps.prolog
/gs  { gsave } bind def
/gr  { grestore } bind def
/ep  { showpage gr gr } bind def
/m   { moveto } bind def
/l  { rlineto } bind def
/np  { newpath } bind def
/cp  { closepath } bind def
/f   { fill } bind def
/o   { stroke } bind def
/c   { newpath 0 360 arc } bind def
/r   { 4 2 roll moveto 1 copy 3 -1 roll exch 0 exch rlineto 0 rlineto -1 mul 0 exch rlineto closepath } bind def
/p1  { stroke } bind def
/p2  { gsave bg fill grestore newpath } bind def
/p3  { gsave bg fill grestore stroke } bind def
/p6  { gsave bg eofill grestore newpath } bind def
/p7  { gsave bg eofill grestore stroke } bind def
/t   { 5 -2 roll moveto gsave rotate
       1 index stringwidth pop
       mul neg 0 rmoveto show grestore } bind def
/ta  { 4 -2 roll moveto gsave rotate show } bind def
/tb  { 2 -1 roll 0 rmoveto show } bind def
/cl  { grestore gsave newpath 3 index 3 index moveto 1 index
       4 -1 roll lineto  exch 1 index lineto lineto
       closepath clip newpath } bind def
/rgb { setrgbcolor } bind def
/s   { scalefont setfont } bind def
% end   .ps.prolog
/sRGB { [ /CIEBasedABC
          << /DecodeLMN
               [ { dup 0.03928 le
                        {12.92321 div}
                        {0.055 add 1.055 div 2.4 exp }
                     ifelse
                 } bind dup dup
               ]
             /MatrixLMN [0.412457 0.212673 0.019334
                         0.357576 0.715152 0.119192
                         0.180437 0.072175 0.950301]
             /WhitePoint [0.9505 1.0 1.0890]
           >>
         ] setcolorspace } bind def
/srgb { setcolor } bind def
%%IncludeResource: font Helvetica
/Helvetica findfont
dup length dict begin
  {1 index /FID ne {def} {pop pop} ifelse} forall
  /Encoding ISOLatin1Encoding def
  currentdict
  end
/Font1 exch definefont pop
%%IncludeResource: font Helvetica-Bold
/Helvetica-Bold findfont
dup length dict begin
  {1 index /FID ne {def} {pop pop} ifelse} forall
  /Encoding ISOLatin1Encoding def
  currentdict
  end
/Font2 exch definefont pop
%%IncludeResource: font Helvetica-Oblique
/Helvetica-Oblique findfont
dup length dict begin
  {1 index /FID ne {def} {pop pop} ifelse} forall
  /Encoding ISOLatin1Encoding def
  currentdict
  end
/Font3 exch definefont pop
%%IncludeResource: font Helvetica-BoldOblique
/Helvetica-BoldOblique findfont
dup length dict begin
  {1 index /FID ne {def} {pop pop} ifelse} forall
  /Encoding ISOLatin1Encoding def
  currentdict
  end
/Font4 exch definefont pop
%%IncludeResource: font Symbol
/Symbol findfont
dup length dict begin
  {1 index /FID ne {def} {pop pop} ifelse} forall
  currentdict
  end
/Font5 exch definefont pop
%%EndProlog
%%Page: 1 1
bp
/bg { 1 1 1 srgb } def
0.00 0.00 450.00 391.50 r p2
49.00 256.71 199.90 342.50 cl
0.00 195.75 225.00 391.50 cl
/Font2 findfont 12 s
0 0 0 srgb
41.59 362.69 (W) 0 ta
-0.420 (estbr) tb
-0.240 (ook P) tb
-0.480 (oints 2016-2017) tb gr
/Font1 findfont 10 s
110.56 211.29 (P) 0 ta
-0.500 (oints) tb gr
10.76 299.60 (probability) .5 90 t
0.00 0.00 450.00 391.50 cl
0 0 0 srgb
0.75 setlinewidth
[] 0 setdash
1 setlinecap
1 setlinejoin
10.00 setmiterlimit
np
67.29 256.71 m
127.02 0 l
o
np
67.29 256.71 m
0 -5.98 l
o
np
92.70 256.71 m
0 -5.98 l
o
np
118.10 256.71 m
0 -5.98 l
o
np
143.50 256.71 m
0 -5.98 l
o
np
168.91 256.71 m
0 -5.98 l
o
np
194.31 256.71 m
0 -5.98 l
o
/Font1 findfont 10 s
67.29 235.19 (10) .5 0 t
92.70 235.19 (20) .5 0 t
118.10 235.19 (30) .5 0 t
143.50 235.19 (40) .5 0 t
168.91 235.19 (50) .5 0 t
194.31 235.19 (60) .5 0 t
np
49.00 259.88 m
0 67.73 l
o
np
49.00 259.88 m
-5.97 0 l
o
np
49.00 276.82 m
-5.97 0 l
o
np
49.00 293.75 m
-5.97 0 l
o
np
49.00 310.68 m
-5.97 0 l
o
np
49.00 327.61 m
-5.97 0 l
o
34.66 259.88 (0.00) .5 90 t
34.66 293.75 (0.02) .5 90 t
34.66 327.61 (0.04) .5 90 t
49.00 256.71 199.90 342.50 cl
/bg { 0.6784 0.8471 0.9020 srgb } def
0 0 0 srgb
0.75 setlinewidth
[] 0 setdash
1 setlinecap
1 setlinejoin
10.00 setmiterlimit
54.59 259.88 12.70 4.18 r p3
67.29 259.88 12.70 12.54 r p3
80.00 259.88 12.70 33.45 r p3
92.70 259.88 12.70 37.63 r p3
105.40 259.88 12.70 79.44 r p3
118.10 259.88 12.70 58.53 r p3
130.80 259.88 12.70 41.81 r p3
143.50 259.88 12.70 37.63 r p3
156.21 259.88 12.70 20.90 r p3
168.91 259.88 12.70 4.18 r p3
181.61 259.88 12.70 8.36 r p3
1 0 0 srgb
np
26.96 259.91 m
0.37 0 l
0.37 0.01 l
0.38 0 l
0.37 0 l
0.37 0.01 l
0.37 0 l
0.37 0.01 l
0.37 0.01 l
0.38 0 l
0.37 0.01 l
0.37 0.01 l
0.37 0.01 l
0.37 0.01 l
0.37 0.01 l
0.38 0.01 l
0.37 0.02 l
0.37 0.01 l
0.37 0.02 l
0.37 0.01 l
0.37 0.02 l
0.37 0.02 l
0.38 0.02 l
0.37 0.02 l
0.37 0.03 l
0.37 0.02 l
0.37 0.03 l
0.37 0.03 l
0.38 0.03 l
0.37 0.03 l
0.37 0.03 l
0.37 0.04 l
0.37 0.03 l
0.37 0.04 l
0.38 0.04 l
0.37 0.04 l
0.37 0.05 l
0.37 0.04 l
0.37 0.05 l
0.37 0.05 l
0.38 0.05 l
0.37 0.05 l
0.37 0.05 l
0.37 0.06 l
0.37 0.05 l
0.37 0.06 l
0.38 0.06 l
0.37 0.05 l
0.37 0.06 l
0.37 0.06 l
0.37 0.07 l
0.37 0.06 l
0.38 0.06 l
0.37 0.06 l
0.37 0.06 l
0.37 0.07 l
0.37 0.06 l
0.37 0.06 l
0.38 0.06 l
0.37 0.06 l
0.37 0.06 l
0.37 0.06 l
0.37 0.06 l
0.37 0.06 l
0.37 0.06 l
0.38 0.05 l
0.37 0.06 l
0.37 0.05 l
0.37 0.06 l
0.37 0.05 l
0.37 0.05 l
0.38 0.05 l
0.37 0.06 l
0.37 0.05 l
0.37 0.05 l
0.37 0.05 l
0.37 0.05 l
0.38 0.05 l
0.37 0.05 l
0.37 0.05 l
0.37 0.06 l
0.37 0.05 l
0.37 0.06 l
0.38 0.06 l
0.37 0.06 l
0.37 0.07 l
0.37 0.07 l
0.37 0.07 l
0.37 0.08 l
0.38 0.08 l
0.37 0.08 l
0.37 0.10 l
0.37 0.10 l
0.37 0.10 l
0.37 0.11 l
0.38 0.12 l
0.37 0.13 l
0.37 0.14 l
0.37 0.14 l
0.37 0.15 l
64.12 264.97 lineto
0.38 0.17 l
0.37 0.19 l
0.37 0.19 l
0.37 0.20 l
0.37 0.21 l
0.37 0.22 l
0.37 0.24 l
0.38 0.24 l
0.37 0.26 l
0.37 0.27 l
0.37 0.28 l
0.37 0.28 l
0.37 0.31 l
0.38 0.31 l
0.37 0.32 l
0.37 0.34 l
0.37 0.34 l
0.37 0.36 l
0.37 0.37 l
0.38 0.38 l
0.37 0.38 l
0.37 0.40 l
0.37 0.41 l
0.37 0.41 l
0.37 0.43 l
0.38 0.43 l
0.37 0.44 l
0.37 0.45 l
0.37 0.46 l
0.37 0.46 l
0.37 0.47 l
0.38 0.47 l
0.37 0.48 l
0.37 0.48 l
0.37 0.49 l
0.37 0.49 l
0.37 0.50 l
0.38 0.49 l
0.37 0.50 l
0.37 0.50 l
0.37 0.50 l
0.37 0.50 l
0.37 0.50 l
0.38 0.50 l
0.37 0.50 l
0.37 0.49 l
0.37 0.49 l
0.37 0.50 l
0.37 0.48 l
0.37 0.49 l
0.38 0.48 l
0.37 0.48 l
0.37 0.47 l
0.37 0.47 l
0.37 0.47 l
0.37 0.46 l
0.38 0.45 l
0.37 0.45 l
0.37 0.45 l
0.37 0.44 l
0.37 0.43 l
0.37 0.44 l
0.38 0.42 l
0.37 0.43 l
0.37 0.41 l
0.37 0.42 l
0.37 0.41 l
0.37 0.41 l
0.38 0.41 l
0.37 0.41 l
0.37 0.40 l
0.37 0.41 l
0.37 0.40 l
0.37 0.41 l
0.38 0.41 l
0.37 0.41 l
0.37 0.41 l
0.37 0.41 l
0.37 0.42 l
0.37 0.43 l
0.38 0.42 l
0.37 0.44 l
0.37 0.44 l
0.37 0.45 l
0.37 0.46 l
0.37 0.47 l
0.38 0.47 l
0.37 0.49 l
0.37 0.49 l
0.37 0.51 l
0.37 0.52 l
0.37 0.53 l
0.37 0.54 l
0.38 0.54 l
0.37 0.57 l
0.37 0.57 l
0.37 0.58 l
0.37 0.60 l
0.37 0.60 l
101.29 307.77 lineto
0.37 0.63 l
0.37 0.63 l
0.37 0.64 l
0.37 0.65 l
0.37 0.66 l
0.38 0.66 l
0.37 0.67 l
0.37 0.66 l
0.37 0.68 l
0.37 0.67 l
0.37 0.67 l
0.38 0.67 l
0.37 0.66 l
0.37 0.66 l
0.37 0.66 l
0.37 0.64 l
0.37 0.64 l
0.38 0.62 l
0.37 0.61 l
0.37 0.60 l
0.37 0.58 l
0.37 0.57 l
0.37 0.54 l
0.38 0.53 l
0.37 0.50 l
0.37 0.48 l
0.37 0.46 l
0.37 0.42 l
0.37 0.40 l
0.38 0.38 l
0.37 0.35 l
0.37 0.31 l
0.37 0.29 l
0.37 0.26 l
0.37 0.22 l
0.37 0.20 l
0.38 0.16 l
0.37 0.13 l
0.37 0.10 l
0.37 0.06 l
0.37 0.04 l
0.37 0 l
0.38 -0.03 l
0.37 -0.05 l
0.37 -0.09 l
0.37 -0.12 l
0.37 -0.15 l
0.37 -0.17 l
0.38 -0.21 l
0.37 -0.23 l
0.37 -0.25 l
0.37 -0.28 l
0.37 -0.31 l
0.37 -0.32 l
0.38 -0.35 l
0.37 -0.36 l
0.37 -0.39 l
0.37 -0.41 l
0.37 -0.42 l
0.37 -0.44 l
0.38 -0.45 l
0.37 -0.46 l
0.37 -0.48 l
0.37 -0.49 l
0.37 -0.50 l
0.37 -0.51 l
0.38 -0.52 l
0.37 -0.52 l
0.37 -0.53 l
0.37 -0.54 l
0.37 -0.54 l
0.37 -0.54 l
0.38 -0.55 l
0.37 -0.54 l
0.37 -0.55 l
0.37 -0.55 l
0.37 -0.55 l
0.37 -0.55 l
0.37 -0.55 l
0.38 -0.54 l
0.37 -0.55 l
0.37 -0.54 l
0.37 -0.53 l
0.37 -0.54 l
0.37 -0.53 l
0.38 -0.52 l
0.37 -0.52 l
0.37 -0.52 l
0.37 -0.51 l
0.37 -0.51 l
0.37 -0.50 l
0.38 -0.49 l
0.37 -0.49 l
0.37 -0.48 l
0.37 -0.47 l
0.37 -0.47 l
0.37 -0.46 l
0.38 -0.46 l
0.37 -0.44 l
138.45 302.72 lineto
0.37 -0.43 l
0.37 -0.43 l
0.37 -0.42 l
0.38 -0.40 l
0.37 -0.41 l
0.37 -0.39 l
0.37 -0.39 l
0.37 -0.37 l
0.37 -0.38 l
0.38 -0.36 l
0.37 -0.35 l
0.37 -0.35 l
0.37 -0.34 l
0.37 -0.33 l
0.37 -0.32 l
0.38 -0.32 l
0.37 -0.30 l
0.37 -0.30 l
0.37 -0.30 l
0.37 -0.28 l
0.37 -0.28 l
0.37 -0.28 l
0.38 -0.26 l
0.37 -0.26 l
0.37 -0.26 l
0.37 -0.25 l
0.37 -0.25 l
0.37 -0.24 l
0.38 -0.24 l
0.37 -0.23 l
0.37 -0.23 l
0.37 -0.23 l
0.37 -0.23 l
0.37 -0.22 l
0.38 -0.23 l
0.37 -0.22 l
0.37 -0.22 l
0.37 -0.23 l
0.37 -0.22 l
0.37 -0.23 l
0.38 -0.23 l
0.37 -0.23 l
0.37 -0.24 l
0.37 -0.23 l
0.37 -0.24 l
0.37 -0.25 l
0.38 -0.25 l
0.37 -0.26 l
0.37 -0.26 l
0.37 -0.27 l
0.37 -0.27 l
0.37 -0.28 l
0.38 -0.29 l
0.37 -0.29 l
0.37 -0.30 l
0.37 -0.31 l
0.37 -0.31 l
0.37 -0.32 l
0.38 -0.33 l
0.37 -0.34 l
0.37 -0.34 l
0.37 -0.35 l
0.37 -0.35 l
0.37 -0.36 l
0.37 -0.37 l
0.38 -0.37 l
0.37 -0.38 l
0.37 -0.38 l
0.37 -0.39 l
0.37 -0.39 l
0.37 -0.40 l
0.38 -0.40 l
0.37 -0.41 l
0.37 -0.40 l
0.37 -0.41 l
0.37 -0.41 l
0.37 -0.41 l
0.38 -0.41 l
0.37 -0.41 l
0.37 -0.41 l
0.37 -0.41 l
0.37 -0.41 l
0.37 -0.40 l
0.38 -0.40 l
0.37 -0.40 l
0.37 -0.39 l
0.37 -0.39 l
0.37 -0.38 l
0.37 -0.38 l
0.38 -0.37 l
0.37 -0.36 l
0.37 -0.36 l
0.37 -0.34 l
0.37 -0.34 l
0.37 -0.33 l
0.38 -0.32 l
0.37 -0.32 l
0.37 -0.30 l
0.37 -0.29 l
175.61 270.32 lineto
0.37 -0.28 l
0.38 -0.26 l
0.37 -0.25 l
0.37 -0.24 l
0.37 -0.23 l
0.37 -0.23 l
0.37 -0.21 l
0.37 -0.20 l
0.38 -0.19 l
0.37 -0.18 l
0.37 -0.17 l
0.37 -0.17 l
0.37 -0.15 l
0.37 -0.15 l
0.38 -0.14 l
0.37 -0.13 l
0.37 -0.13 l
0.37 -0.12 l
0.37 -0.11 l
0.37 -0.11 l
0.38 -0.10 l
0.37 -0.10 l
0.37 -0.10 l
0.37 -0.09 l
0.37 -0.10 l
0.37 -0.08 l
0.38 -0.09 l
0.37 -0.09 l
0.37 -0.08 l
0.37 -0.09 l
0.37 -0.08 l
0.37 -0.09 l
0.38 -0.09 l
0.37 -0.08 l
0.37 -0.09 l
0.37 -0.09 l
0.37 -0.10 l
0.37 -0.09 l
0.38 -0.10 l
0.37 -0.10 l
0.37 -0.10 l
0.37 -0.11 l
0.37 -0.10 l
0.37 -0.11 l
0.38 -0.11 l
0.37 -0.11 l
0.37 -0.12 l
0.37 -0.11 l
0.37 -0.12 l
0.37 -0.12 l
0.37 -0.12 l
0.38 -0.12 l
0.37 -0.12 l
0.37 -0.12 l
0.37 -0.13 l
0.37 -0.12 l
0.37 -0.12 l
0.38 -0.12 l
0.37 -0.12 l
0.37 -0.12 l
0.37 -0.12 l
0.37 -0.11 l
0.37 -0.11 l
0.38 -0.12 l
0.37 -0.10 l
0.37 -0.11 l
0.37 -0.10 l
0.37 -0.11 l
0.37 -0.09 l
0.38 -0.10 l
0.37 -0.09 l
0.37 -0.09 l
0.37 -0.08 l
0.37 -0.09 l
0.37 -0.07 l
0.38 -0.08 l
0.37 -0.07 l
0.37 -0.07 l
0.37 -0.06 l
0.37 -0.07 l
0.37 -0.05 l
0.38 -0.06 l
0.37 -0.05 l
0.37 -0.05 l
0.37 -0.05 l
0.37 -0.04 l
0.37 -0.04 l
0.38 -0.04 l
0.37 -0.03 l
0.37 -0.04 l
0.37 -0.03 l
0.37 -0.03 l
0.37 -0.02 l
0.37 -0.03 l
0.38 -0.02 l
0.37 -0.02 l
0.37 -0.02 l
0.37 -0.02 l
0.37 -0.01 l
212.77 260.01 lineto
0.38 -0.01 l
0.37 -0.01 l
0.37 -0.01 l
0.37 -0.01 l
0.37 -0.01 l
0.37 -0.01 l
0.38 -0.01 l
0.37 0 l
0.37 -0.01 l
0.37 -0.01 l
0.37 0 l
o
274.00 256.71 424.90 342.50 cl
0 0 0 srgb
0.75 setlinewidth
[] 0 setdash
1 setlinecap
1 setlinejoin
10.00 setmiterlimit
352.05 300.35 2.24 c p1
401.61 328.83 2.24 c p1
355.55 301.85 2.24 c p1
360.07 304.85 2.24 c p1
316.26 282.36 2.24 c p1
339.76 294.36 2.24 c p1
297.29 273.37 2.24 c p1
361.95 306.35 2.24 c p1
343.36 295.85 2.24 c p1
372.58 313.84 2.24 c p1
356.44 301.85 2.24 c p1
346.86 297.35 2.24 c p1
347.72 297.35 2.24 c p1
349.45 298.85 2.24 c p1
359.15 303.35 2.24 c p1
350.32 298.85 2.24 c p1
362.92 306.35 2.24 c p1
304.97 277.87 2.24 c p1
332.99 292.86 2.24 c p1
361.01 304.85 2.24 c p1
340.67 294.36 2.24 c p1
352.92 300.35 2.24 c p1
334.01 292.86 2.24 c p1
364.89 307.84 2.24 c p1
317.95 282.36 2.24 c p1
335.01 292.86 2.24 c p1
331.95 291.36 2.24 c p1
386.45 321.33 2.24 c p1
375.11 315.34 2.24 c p1
379.37 319.83 2.24 c p1
351.18 298.85 2.24 c p1
344.24 295.85 2.24 c p1
321.03 283.86 2.24 c p1
307.81 277.87 2.24 c p1
348.59 297.35 2.24 c p1
357.33 301.85 2.24 c p1
393.94 325.83 2.24 c p1
353.79 300.35 2.24 c p1
322.44 283.86 2.24 c p1
327.52 288.36 2.24 c p1
323.79 283.86 2.24 c p1
363.90 306.35 2.24 c p1
328.68 288.36 2.24 c p1
335.99 292.86 2.24 c p1
366.95 309.34 2.24 c p1
336.95 292.86 2.24 c p1
380.95 319.83 2.24 c p1
319.54 282.36 2.24 c p1
337.90 292.86 2.24 c p1
341.57 294.36 2.24 c p1
368.01 309.34 2.24 c p1
376.46 315.34 2.24 c p1
338.83 292.86 2.24 c p1
345.11 295.85 2.24 c p1
388.64 322.83 2.24 c p1
310.27 277.87 2.24 c p1
369.11 309.34 2.24 c p1
312.46 277.87 2.24 c p1
373.82 313.84 2.24 c p1
377.88 316.84 2.24 c p1
382.64 319.83 2.24 c p1
391.10 324.33 2.24 c p1
345.99 295.85 2.24 c p1
419.31 339.32 2.24 c p1
325.08 286.86 2.24 c p1
358.24 301.85 2.24 c p1
330.89 289.86 2.24 c p1
329.80 288.36 2.24 c p1
342.47 294.36 2.24 c p1
301.58 274.87 2.24 c p1
314.44 279.37 2.24 c p1
370.23 310.84 2.24 c p1
365.91 307.84 2.24 c p1
407.68 337.82 2.24 c p1
354.67 300.35 2.24 c p1
371.39 312.34 2.24 c p1
291.23 270.37 2.24 c p1
384.46 319.83 2.24 c p1
326.32 286.86 2.24 c p1
397.32 327.33 2.24 c p1
279.59 259.88 2.24 c p1
0.00 0.00 450.00 391.50 cl
0 0 0 srgb
0.75 setlinewidth
[] 0 setdash
1 setlinecap
1 setlinejoin
10.00 setmiterlimit
np
293.61 256.71 m
111.68 0 l
o
np
293.61 256.71 m
0 -5.98 l
o
np
321.53 256.71 m
0 -5.98 l
o
np
349.45 256.71 m
0 -5.98 l
o
np
377.37 256.71 m
0 -5.98 l
o
np
405.29 256.71 m
0 -5.98 l
o
/Font1 findfont 10 s
293.61 235.19 (-2) .5 0 t
321.53 235.19 (-1) .5 0 t
349.45 235.19 (0) .5 0 t
377.37 235.19 (1) .5 0 t
405.29 235.19 (2) .5 0 t
np
274.00 267.38 m
0 74.94 l
o
np
274.00 267.38 m
-5.97 0 l
o
np
274.00 282.36 m
-5.97 0 l
o
np
274.00 297.35 m
-5.97 0 l
o
np
274.00 312.34 m
-5.97 0 l
o
np
274.00 327.33 m
-5.97 0 l
o
np
274.00 342.32 m
-5.97 0 l
o
259.66 267.38 (10) .5 90 t
259.66 297.35 (30) .5 90 t
259.66 327.33 (50) .5 90 t
np
274.00 256.71 m
150.90 0 l
0 85.79 l
-150.90 0 l
0 -85.79 l
o
225.00 195.75 450.00 391.50 cl
/Font2 findfont 12 s
0 0 0 srgb
274.44 362.69 (W) 0 ta
-0.420 (estbr) tb
-0.240 (ook P) tb
-0.480 (oints QQ Plot) tb gr
/Font1 findfont 10 s
349.45 211.29 (Theoretical Quantiles) .5 0 t
235.76 299.60 (Sample Quantiles) .5 90 t
274.00 256.71 424.90 342.50 cl
0 0 0 srgb
0.75 setlinewidth
[] 0 setdash
1 setlinecap
1 setlinejoin
10.00 setmiterlimit
np
274.00 260.57 m
150.90 78.06 l
o
49.00 60.96 199.90 146.75 cl
0.00 0.00 225.00 195.75 cl
/Font2 findfont 12 s
0 0 0 srgb
51.92 166.94 (Har) 0 ta
-0.240 (den P) tb
-0.480 (oints 2016-2017) tb gr
/Font1 findfont 10 s
110.56 15.54 (P) 0 ta
-0.500 (oints) tb gr
10.76 103.85 (probability) .5 90 t
0.00 0.00 450.00 391.50 cl
0 0 0 srgb
0.75 setlinewidth
[] 0 setdash
1 setlinecap
1 setlinejoin
10.00 setmiterlimit
np
54.59 60.96 m
124.20 0 l
o
np
54.59 60.96 m
0 -5.98 l
o
np
85.64 60.96 m
0 -5.98 l
o
np
116.69 60.96 m
0 -5.98 l
o
np
147.74 60.96 m
0 -5.98 l
o
np
178.79 60.96 m
0 -5.98 l
o
/Font1 findfont 10 s
54.59 39.44 (10) .5 0 t
85.64 39.44 (20) .5 0 t
116.69 39.44 (30) .5 0 t
147.74 39.44 (40) .5 0 t
178.79 39.44 (50) .5 0 t
np
49.00 64.13 m
0 73.12 l
o
np
49.00 64.13 m
-5.97 0 l
o
np
49.00 78.76 m
-5.97 0 l
o
np
49.00 93.38 m
-5.97 0 l
o
np
49.00 108.00 m
-5.97 0 l
o
np
49.00 122.63 m
-5.97 0 l
o
np
49.00 137.25 m
-5.97 0 l
o
34.66 64.13 (0.00) .5 90 t
34.66 93.38 (0.02) .5 90 t
34.66 122.63 (0.04) .5 90 t
49.00 60.96 199.90 146.75 cl
/bg { 0.6784 0.8471 0.9020 srgb } def
0 0 0 srgb
0.75 setlinewidth
[] 0 setdash
1 setlinecap
1 setlinejoin
10.00 setmiterlimit
54.59 64.13 15.52 25.28 r p3
70.12 64.13 15.52 25.28 r p3
85.64 64.13 15.52 43.33 r p3
101.17 64.13 15.52 79.44 r p3
116.69 64.13 15.52 46.94 r p3
132.21 64.13 15.52 50.55 r p3
147.74 64.13 15.52 14.44 r p3
163.26 64.13 15.52 0.00 r p3
178.79 64.13 15.52 7.22 r p3
1 0 0 srgb
np
26.02 64.16 m
0.37 0.01 l
0.37 0 l
0.38 0 l
0.37 0.01 l
0.37 0 l
0.37 0.01 l
0.38 0.01 l
0.37 0 l
0.37 0.01 l
0.38 0.01 l
0.37 0.01 l
0.37 0.01 l
0.38 0.02 l
0.37 0.01 l
0.37 0.01 l
0.38 0.02 l
0.37 0.02 l
0.37 0.02 l
0.38 0.02 l
0.37 0.02 l
0.37 0.02 l
0.37 0.03 l
0.38 0.03 l
0.37 0.03 l
0.37 0.03 l
0.38 0.03 l
0.37 0.04 l
0.37 0.04 l
0.38 0.05 l
0.37 0.04 l
0.37 0.05 l
0.38 0.06 l
0.37 0.06 l
0.37 0.06 l
0.38 0.06 l
0.37 0.07 l
0.37 0.07 l
0.37 0.08 l
0.38 0.09 l
0.37 0.08 l
0.37 0.10 l
0.38 0.10 l
0.37 0.10 l
0.37 0.11 l
0.38 0.12 l
0.37 0.12 l
0.37 0.13 l
0.38 0.13 l
0.37 0.14 l
0.37 0.15 l
0.37 0.16 l
0.38 0.16 l
0.37 0.17 l
0.37 0.18 l
0.38 0.19 l
0.37 0.19 l
0.37 0.21 l
0.38 0.21 l
0.37 0.21 l
0.37 0.23 l
0.38 0.24 l
0.37 0.24 l
0.37 0.26 l
0.38 0.26 l
0.37 0.27 l
0.37 0.28 l
0.37 0.29 l
0.38 0.30 l
0.37 0.31 l
0.37 0.31 l
0.38 0.33 l
0.37 0.33 l
0.37 0.34 l
0.38 0.35 l
0.37 0.36 l
0.37 0.36 l
0.38 0.37 l
0.37 0.39 l
0.37 0.38 l
0.38 0.39 l
0.37 0.40 l
0.37 0.41 l
0.37 0.41 l
0.38 0.41 l
0.37 0.42 l
0.37 0.43 l
0.38 0.42 l
0.37 0.43 l
0.37 0.43 l
0.38 0.44 l
0.37 0.43 l
0.37 0.43 l
0.38 0.44 l
0.37 0.43 l
0.37 0.43 l
0.38 0.43 l
0.37 0.42 l
0.37 0.42 l
0.37 0.42 l
63.33 83.33 lineto
0.37 0.40 l
0.37 0.40 l
0.38 0.39 l
0.37 0.39 l
0.37 0.37 l
0.38 0.37 l
0.37 0.36 l
0.37 0.35 l
0.38 0.34 l
0.37 0.32 l
0.37 0.32 l
0.38 0.31 l
0.37 0.29 l
0.37 0.29 l
0.37 0.27 l
0.38 0.26 l
0.37 0.25 l
0.37 0.23 l
0.38 0.23 l
0.37 0.21 l
0.37 0.21 l
0.38 0.19 l
0.37 0.18 l
0.37 0.17 l
0.38 0.16 l
0.37 0.16 l
0.37 0.14 l
0.37 0.14 l
0.38 0.12 l
0.37 0.13 l
0.37 0.11 l
0.38 0.11 l
0.37 0.11 l
0.37 0.10 l
0.38 0.10 l
0.37 0.09 l
0.37 0.10 l
0.38 0.10 l
0.37 0.10 l
0.37 0.10 l
0.38 0.10 l
0.37 0.11 l
0.37 0.11 l
0.37 0.12 l
0.38 0.13 l
0.37 0.14 l
0.37 0.14 l
0.38 0.16 l
0.37 0.17 l
0.37 0.17 l
0.38 0.20 l
0.37 0.21 l
0.37 0.22 l
0.38 0.23 l
0.37 0.26 l
0.37 0.28 l
0.38 0.28 l
0.37 0.31 l
0.37 0.33 l
0.37 0.35 l
0.38 0.36 l
0.37 0.39 l
0.37 0.41 l
0.38 0.42 l
0.37 0.45 l
0.37 0.47 l
0.38 0.49 l
0.37 0.50 l
0.37 0.53 l
0.38 0.55 l
0.37 0.56 l
0.37 0.58 l
0.38 0.61 l
0.37 0.61 l
0.37 0.64 l
0.37 0.65 l
0.38 0.66 l
0.37 0.68 l
0.37 0.68 l
0.38 0.70 l
0.37 0.71 l
0.37 0.72 l
0.38 0.73 l
0.37 0.73 l
0.37 0.73 l
0.38 0.74 l
0.37 0.75 l
0.37 0.74 l
0.37 0.74 l
0.38 0.74 l
0.37 0.74 l
0.37 0.73 l
0.38 0.72 l
0.37 0.72 l
0.37 0.71 l
0.38 0.70 l
0.37 0.68 l
0.37 0.68 l
0.38 0.66 l
100.64 121.57 lineto
0.37 0.63 l
0.38 0.61 l
0.37 0.60 l
0.37 0.57 l
0.37 0.56 l
0.38 0.53 l
0.37 0.52 l
0.37 0.49 l
0.38 0.47 l
0.37 0.45 l
0.37 0.41 l
0.38 0.40 l
0.37 0.38 l
0.37 0.35 l
0.38 0.32 l
0.37 0.30 l
0.37 0.28 l
0.38 0.24 l
0.37 0.22 l
0.37 0.20 l
0.37 0.17 l
0.38 0.14 l
0.37 0.12 l
0.37 0.10 l
0.38 0.06 l
0.37 0.05 l
0.37 0.02 l
0.38 -0.01 l
0.37 -0.03 l
0.37 -0.06 l
0.38 -0.07 l
0.37 -0.11 l
0.37 -0.12 l
0.38 -0.15 l
0.37 -0.17 l
0.37 -0.20 l
0.37 -0.21 l
0.38 -0.23 l
0.37 -0.26 l
0.37 -0.27 l
0.38 -0.30 l
0.37 -0.31 l
0.37 -0.33 l
0.38 -0.35 l
0.37 -0.36 l
0.37 -0.38 l
0.38 -0.40 l
0.37 -0.40 l
0.37 -0.43 l
0.37 -0.43 l
0.38 -0.45 l
0.37 -0.45 l
0.37 -0.47 l
0.38 -0.47 l
0.37 -0.48 l
0.37 -0.48 l
0.38 -0.49 l
0.37 -0.50 l
0.37 -0.49 l
0.38 -0.50 l
0.37 -0.50 l
0.37 -0.50 l
0.38 -0.49 l
0.37 -0.50 l
0.37 -0.48 l
0.37 -0.49 l
0.38 -0.47 l
0.37 -0.47 l
0.37 -0.45 l
0.38 -0.45 l
0.37 -0.44 l
0.37 -0.42 l
0.38 -0.42 l
0.37 -0.39 l
0.37 -0.38 l
0.38 -0.37 l
0.37 -0.35 l
0.37 -0.34 l
0.38 -0.31 l
0.37 -0.31 l
0.37 -0.28 l
0.37 -0.26 l
0.38 -0.25 l
0.37 -0.23 l
0.37 -0.21 l
0.38 -0.19 l
0.37 -0.19 l
0.37 -0.15 l
0.38 -0.15 l
0.37 -0.13 l
0.37 -0.11 l
0.38 -0.10 l
0.37 -0.09 l
0.37 -0.08 l
0.38 -0.06 l
0.37 -0.06 l
0.37 -0.05 l
0.37 -0.05 l
0.38 -0.04 l
137.95 109.15 lineto
0.37 -0.03 l
0.38 -0.04 l
0.37 -0.04 l
0.37 -0.04 l
0.38 -0.04 l
0.37 -0.06 l
0.37 -0.06 l
0.38 -0.08 l
0.37 -0.09 l
0.37 -0.10 l
0.38 -0.12 l
0.37 -0.13 l
0.37 -0.16 l
0.37 -0.17 l
0.38 -0.19 l
0.37 -0.22 l
0.37 -0.25 l
0.38 -0.26 l
0.37 -0.29 l
0.37 -0.33 l
0.38 -0.34 l
0.37 -0.37 l
0.37 -0.41 l
0.38 -0.43 l
0.37 -0.45 l
0.37 -0.48 l
0.37 -0.52 l
0.38 -0.54 l
0.37 -0.56 l
0.37 -0.60 l
0.38 -0.62 l
0.37 -0.64 l
0.37 -0.66 l
0.38 -0.70 l
0.37 -0.70 l
0.37 -0.73 l
0.38 -0.75 l
0.37 -0.76 l
0.37 -0.78 l
0.38 -0.79 l
0.37 -0.81 l
0.37 -0.81 l
0.37 -0.82 l
0.38 -0.83 l
0.37 -0.83 l
0.37 -0.84 l
0.38 -0.83 l
0.37 -0.84 l
0.37 -0.83 l
0.38 -0.83 l
0.37 -0.82 l
0.37 -0.81 l
0.38 -0.81 l
0.37 -0.80 l
0.37 -0.78 l
0.38 -0.76 l
0.37 -0.76 l
0.37 -0.74 l
0.37 -0.71 l
0.38 -0.71 l
0.37 -0.68 l
0.37 -0.66 l
0.38 -0.64 l
0.37 -0.63 l
0.37 -0.59 l
0.38 -0.58 l
0.37 -0.55 l
0.37 -0.53 l
0.38 -0.50 l
0.37 -0.49 l
0.37 -0.46 l
0.38 -0.43 l
0.37 -0.41 l
0.37 -0.39 l
0.37 -0.36 l
0.38 -0.34 l
0.37 -0.32 l
0.37 -0.30 l
0.38 -0.27 l
0.37 -0.26 l
0.37 -0.23 l
0.38 -0.22 l
0.37 -0.19 l
0.37 -0.17 l
0.38 -0.16 l
0.37 -0.14 l
0.37 -0.12 l
0.37 -0.11 l
0.38 -0.09 l
0.37 -0.07 l
0.37 -0.07 l
0.38 -0.05 l
0.37 -0.04 l
0.37 -0.02 l
0.38 -0.02 l
0.37 0 l
0.37 0 l
0.38 0.01 l
0.37 0.02 l
175.26 67.62 lineto
0.38 0.03 l
0.37 0.04 l
0.37 0.04 l
0.37 0.04 l
0.38 0.05 l
0.37 0.05 l
0.37 0.06 l
0.38 0.05 l
0.37 0.06 l
0.37 0.05 l
0.38 0.06 l
0.37 0.05 l
0.37 0.05 l
0.38 0.05 l
0.37 0.05 l
0.37 0.05 l
0.38 0.04 l
0.37 0.04 l
0.37 0.03 l
0.37 0.03 l
0.38 0.02 l
0.37 0.02 l
0.37 0.02 l
0.38 0.01 l
0.37 0 l
0.37 0 l
0.38 0 l
0.37 -0.02 l
0.37 -0.01 l
0.38 -0.03 l
0.37 -0.02 l
0.37 -0.04 l
0.38 -0.04 l
0.37 -0.04 l
0.37 -0.05 l
0.37 -0.06 l
0.38 -0.06 l
0.37 -0.06 l
0.37 -0.07 l
0.38 -0.07 l
0.37 -0.08 l
0.37 -0.08 l
0.38 -0.09 l
0.37 -0.08 l
0.37 -0.09 l
0.38 -0.09 l
0.37 -0.10 l
0.37 -0.09 l
0.38 -0.10 l
0.37 -0.10 l
0.37 -0.10 l
0.37 -0.10 l
0.38 -0.10 l
0.37 -0.10 l
0.37 -0.10 l
0.38 -0.10 l
0.37 -0.10 l
0.37 -0.09 l
0.38 -0.10 l
0.37 -0.10 l
0.37 -0.09 l
0.38 -0.09 l
0.37 -0.09 l
0.37 -0.09 l
0.37 -0.08 l
0.38 -0.09 l
0.37 -0.08 l
0.37 -0.08 l
0.38 -0.07 l
0.37 -0.08 l
0.37 -0.07 l
0.38 -0.06 l
0.37 -0.07 l
0.37 -0.06 l
0.38 -0.06 l
0.37 -0.06 l
0.37 -0.05 l
0.38 -0.05 l
0.37 -0.05 l
0.37 -0.05 l
0.37 -0.04 l
0.38 -0.04 l
0.37 -0.04 l
0.37 -0.04 l
0.38 -0.03 l
0.37 -0.03 l
0.37 -0.03 l
0.38 -0.03 l
0.37 -0.03 l
0.37 -0.02 l
0.38 -0.03 l
0.37 -0.02 l
0.37 -0.02 l
0.38 -0.01 l
0.37 -0.02 l
0.37 -0.02 l
0.37 -0.01 l
0.38 -0.01 l
0.37 -0.02 l
212.57 64.23 lineto
0.38 -0.01 l
0.37 -0.01 l
0.37 0 l
0.38 -0.01 l
0.37 -0.01 l
0.37 0 l
0.38 -0.01 l
0.37 -0.01 l
0.37 0 l
0.38 0 l
0.37 -0.01 l
o
274.00 60.96 424.90 146.75 cl
0 0 0 srgb
0.75 setlinewidth
[] 0 setdash
1 setlinecap
1 setlinejoin
10.00 setmiterlimit
364.89 108.47 2.24 c p1
336.95 93.69 2.24 c p1
345.11 97.39 2.24 c p1
391.10 121.40 2.24 c p1
351.18 101.08 2.24 c p1
352.05 101.08 2.24 c p1
359.15 104.77 2.24 c p1
329.80 90.00 2.24 c p1
332.99 91.84 2.24 c p1
361.01 106.62 2.24 c p1
291.23 69.67 2.24 c p1
337.90 93.69 2.24 c p1
356.44 102.93 2.24 c p1
345.99 97.39 2.24 c p1
347.72 99.23 2.24 c p1
327.52 88.15 2.24 c p1
371.39 115.86 2.24 c p1
338.83 93.69 2.24 c p1
348.59 99.23 2.24 c p1
322.44 82.61 2.24 c p1
370.23 114.01 2.24 c p1
334.01 91.84 2.24 c p1
323.79 84.45 2.24 c p1
317.95 78.91 2.24 c p1
369.11 112.16 2.24 c p1
307.81 73.37 2.24 c p1
349.45 99.23 2.24 c p1
346.86 97.39 2.24 c p1
357.33 102.93 2.24 c p1
342.47 95.54 2.24 c p1
312.46 75.22 2.24 c p1
360.07 104.77 2.24 c p1
365.91 108.47 2.24 c p1
352.92 101.08 2.24 c p1
419.31 143.57 2.24 c p1
328.68 88.15 2.24 c p1
339.76 93.69 2.24 c p1
301.58 71.52 2.24 c p1
380.95 119.55 2.24 c p1
382.64 119.55 2.24 c p1
361.95 106.62 2.24 c p1
343.36 95.54 2.24 c p1
325.08 86.30 2.24 c p1
384.46 119.55 2.24 c p1
372.58 115.86 2.24 c p1
314.44 77.06 2.24 c p1
350.32 99.23 2.24 c p1
340.67 93.69 2.24 c p1
353.79 101.08 2.24 c p1
407.68 139.87 2.24 c p1
310.27 73.37 2.24 c p1
279.59 64.13 2.24 c p1
393.94 121.40 2.24 c p1
401.61 123.25 2.24 c p1
335.01 91.84 2.24 c p1
354.67 101.08 2.24 c p1
386.45 119.55 2.24 c p1
373.82 115.86 2.24 c p1
297.29 69.67 2.24 c p1
330.89 90.00 2.24 c p1
335.99 91.84 2.24 c p1
341.57 93.69 2.24 c p1
362.92 106.62 2.24 c p1
377.88 117.71 2.24 c p1
366.95 110.32 2.24 c p1
321.03 80.76 2.24 c p1
375.11 115.86 2.24 c p1
319.54 78.91 2.24 c p1
397.32 121.40 2.24 c p1
388.64 119.55 2.24 c p1
379.37 117.71 2.24 c p1
376.46 115.86 2.24 c p1
326.32 86.30 2.24 c p1
331.95 90.00 2.24 c p1
355.55 101.08 2.24 c p1
316.26 77.06 2.24 c p1
358.24 102.93 2.24 c p1
363.90 106.62 2.24 c p1
368.01 110.32 2.24 c p1
304.97 71.52 2.24 c p1
344.24 95.54 2.24 c p1
0.00 0.00 450.00 391.50 cl
0 0 0 srgb
0.75 setlinewidth
[] 0 setdash
1 setlinecap
1 setlinejoin
10.00 setmiterlimit
np
293.61 60.96 m
111.68 0 l
o
np
293.61 60.96 m
0 -5.98 l
o
np
321.53 60.96 m
0 -5.98 l
o
np
349.45 60.96 m
0 -5.98 l
o
np
377.37 60.96 m
0 -5.98 l
o
np
405.29 60.96 m
0 -5.98 l
o
/Font1 findfont 10 s
293.61 39.44 (-2) .5 0 t
321.53 39.44 (-1) .5 0 t
349.45 39.44 (0) .5 0 t
377.37 39.44 (1) .5 0 t
405.29 39.44 (2) .5 0 t
np
274.00 64.13 m
0 73.90 l
o
np
274.00 64.13 m
-5.97 0 l
o
np
274.00 82.61 m
-5.97 0 l
o
np
274.00 101.08 m
-5.97 0 l
o
np
274.00 119.55 m
-5.97 0 l
o
np
274.00 138.03 m
-5.97 0 l
o
259.66 64.13 (10) .5 90 t
259.66 101.08 (30) .5 90 t
259.66 138.03 (50) .5 90 t
np
274.00 60.96 m
150.90 0 l
0 85.79 l
-150.90 0 l
0 -85.79 l
o
225.00 0.00 450.00 195.75 cl
/Font2 findfont 12 s
0 0 0 srgb
284.77 166.94 (Har) 0 ta
-0.240 (den P) tb
-0.480 (oints QQ Plot) tb gr
/Font1 findfont 10 s
349.45 15.54 (Theoretical Quantiles) .5 0 t
235.76 103.85 (Sample Quantiles) .5 90 t
274.00 60.96 424.90 146.75 cl
0 0 0 srgb
0.75 setlinewidth
[] 0 setdash
1 setlinecap
1 setlinejoin
10.00 setmiterlimit
np
274.00 59.45 m
150.90 81.41 l
o
ep
%%Trailer
%%Pages: 1
%%EOF
