%!PS-Adobe-3.0 EPSF-3.0
%%DocumentNeededResources: font Helvetica
%%+ font Helvetica-Bold
%%+ font Helvetica-Oblique
%%+ font Helvetica-BoldOblique
%%+ font Symbol
%%Title: R Graphics Output
%%Creator: R Software
%%Pages: (atend)
%%BoundingBox: 0 0 487 424
%%EndComments
%%BeginProlog
/bp  { gs sRGB gs } def
% begin .ps.prolog
/gs  { gsave } bind def
/gr  { grestore } bind def
/ep  { showpage gr gr } bind def
/m   { moveto } bind def
/l  { rlineto } bind def
/np  { newpath } bind def
/cp  { closepath } bind def
/f   { fill } bind def
/o   { stroke } bind def
/c   { newpath 0 360 arc } bind def
/r   { 4 2 roll moveto 1 copy 3 -1 roll exch 0 exch rlineto 0 rlineto -1 mul 0 exch rlineto closepath } bind def
/p1  { stroke } bind def
/p2  { gsave bg fill grestore newpath } bind def
/p3  { gsave bg fill grestore stroke } bind def
/p6  { gsave bg eofill grestore newpath } bind def
/p7  { gsave bg eofill grestore stroke } bind def
/t   { 5 -2 roll moveto gsave rotate
       1 index stringwidth pop
       mul neg 0 rmoveto show grestore } bind def
/ta  { 4 -2 roll moveto gsave rotate show } bind def
/tb  { 2 -1 roll 0 rmoveto show } bind def
/cl  { grestore gsave newpath 3 index 3 index moveto 1 index
       4 -1 roll lineto  exch 1 index lineto lineto
       closepath clip newpath } bind def
/rgb { setrgbcolor } bind def
/s   { scalefont setfont } bind def
% end   .ps.prolog
/sRGB { [ /CIEBasedABC
          << /DecodeLMN
               [ { dup 0.03928 le
                        {12.92321 div}
                        {0.055 add 1.055 div 2.4 exp }
                     ifelse
                 } bind dup dup
               ]
             /MatrixLMN [0.412457 0.212673 0.019334
                         0.357576 0.715152 0.119192
                         0.180437 0.072175 0.950301]
             /WhitePoint [0.9505 1.0 1.0890]
           >>
         ] setcolorspace } bind def
/srgb { setcolor } bind def
%%IncludeResource: font Helvetica
/Helvetica findfont
dup length dict begin
  {1 index /FID ne {def} {pop pop} ifelse} forall
  /Encoding ISOLatin1Encoding def
  currentdict
  end
/Font1 exch definefont pop
%%IncludeResource: font Helvetica-Bold
/Helvetica-Bold findfont
dup length dict begin
  {1 index /FID ne {def} {pop pop} ifelse} forall
  /Encoding ISOLatin1Encoding def
  currentdict
  end
/Font2 exch definefont pop
%%IncludeResource: font Helvetica-Oblique
/Helvetica-Oblique findfont
dup length dict begin
  {1 index /FID ne {def} {pop pop} ifelse} forall
  /Encoding ISOLatin1Encoding def
  currentdict
  end
/Font3 exch definefont pop
%%IncludeResource: font Helvetica-BoldOblique
/Helvetica-BoldOblique findfont
dup length dict begin
  {1 index /FID ne {def} {pop pop} ifelse} forall
  /Encoding ISOLatin1Encoding def
  currentdict
  end
/Font4 exch definefont pop
%%IncludeResource: font Symbol
/Symbol findfont
dup length dict begin
  {1 index /FID ne {def} {pop pop} ifelse} forall
  currentdict
  end
/Font5 exch definefont pop
%%EndProlog
%%Page: 1 1
bp
/bg { 1 1 1 srgb } def
0.00 0.00 487.50 423.75 r p2
49.00 272.83 218.65 374.75 cl
0.00 211.88 243.75 423.75 cl
/Font2 findfont 12 s
0 0 0 srgb
47.95 394.94 (W) 0 ta
-0.420 (estbr) tb
-0.240 (ook Assists 2016-2017) tb gr
/Font1 findfont 10 s
119.93 227.41 (P) 0 ta
-0.500 (oints) tb gr
10.76 323.79 (probability) .5 90 t
0.00 0.00 487.50 423.75 cl
0 0 0 srgb
0.75 setlinewidth
[] 0 setdash
1 setlinecap
1 setlinejoin
10.00 setmiterlimit
np
55.29 272.83 m
142.80 0 l
o
np
55.29 272.83 m
0 -5.98 l
o
np
90.99 272.83 m
0 -5.98 l
o
np
126.69 272.83 m
0 -5.98 l
o
np
162.39 272.83 m
0 -5.98 l
o
np
198.09 272.83 m
0 -5.98 l
o
/Font1 findfont 10 s
55.29 251.32 (0) .5 0 t
90.99 251.32 (5) .5 0 t
126.69 251.32 (10) .5 0 t
162.39 251.32 (15) .5 0 t
198.09 251.32 (20) .5 0 t
np
49.00 276.61 m
0 91.72 l
o
np
49.00 276.61 m
-5.97 0 l
o
np
49.00 291.89 m
-5.97 0 l
o
np
49.00 307.18 m
-5.97 0 l
o
np
49.00 322.47 m
-5.97 0 l
o
np
49.00 337.76 m
-5.97 0 l
o
np
49.00 353.04 m
-5.97 0 l
o
np
49.00 368.33 m
-5.97 0 l
o
34.66 276.61 (0.00) .5 90 t
34.66 307.18 (0.04) .5 90 t
34.66 337.76 (0.08) .5 90 t
34.66 368.33 (0.12) .5 90 t
49.00 272.83 218.65 374.75 cl
/bg { 0.6784 0.8471 0.9020 srgb } def
0 0 0 srgb
0.75 setlinewidth
[] 0 setdash
1 setlinecap
1 setlinejoin
10.00 setmiterlimit
55.29 276.61 14.28 4.72 r p3
69.57 276.61 14.28 18.87 r p3
83.85 276.61 14.28 33.03 r p3
98.13 276.61 14.28 56.62 r p3
112.41 276.61 14.28 94.37 r p3
126.69 276.61 14.28 70.78 r p3
140.97 276.61 14.28 56.62 r p3
155.25 276.61 14.28 28.31 r p3
169.53 276.61 14.28 9.44 r p3
183.81 276.61 14.28 4.72 r p3
198.09 276.61 14.28 4.72 r p3
1 0 0 srgb
np
25.42 276.64 m
0.42 0 l
0.43 0 l
0.42 0.01 l
0.42 0 l
0.43 0.01 l
0.42 0.01 l
0.43 0.01 l
0.42 0 l
0.43 0.01 l
0.42 0.01 l
0.42 0.02 l
0.43 0.01 l
0.42 0.01 l
0.43 0.02 l
0.42 0.01 l
0.43 0.02 l
0.42 0.02 l
0.42 0.02 l
0.43 0.02 l
0.42 0.03 l
0.43 0.02 l
0.42 0.03 l
0.43 0.03 l
0.42 0.03 l
0.42 0.03 l
0.43 0.04 l
0.42 0.04 l
0.43 0.04 l
0.42 0.04 l
0.43 0.04 l
0.42 0.05 l
0.42 0.05 l
0.43 0.05 l
0.42 0.05 l
0.43 0.06 l
0.42 0.05 l
0.43 0.06 l
0.42 0.06 l
0.42 0.07 l
0.43 0.06 l
0.42 0.07 l
0.43 0.07 l
0.42 0.07 l
0.43 0.07 l
0.42 0.07 l
0.42 0.07 l
0.43 0.07 l
0.42 0.08 l
0.43 0.07 l
0.42 0.07 l
0.43 0.08 l
0.42 0.07 l
0.42 0.07 l
0.43 0.07 l
0.42 0.07 l
0.43 0.07 l
0.42 0.07 l
0.43 0.07 l
0.42 0.06 l
0.42 0.06 l
0.43 0.06 l
0.42 0.06 l
0.43 0.06 l
0.42 0.06 l
0.43 0.05 l
0.42 0.05 l
0.43 0.05 l
0.42 0.05 l
0.42 0.04 l
0.43 0.05 l
0.42 0.04 l
0.43 0.04 l
0.42 0.05 l
0.43 0.04 l
0.42 0.04 l
0.42 0.04 l
0.43 0.05 l
0.42 0.04 l
0.43 0.05 l
0.42 0.05 l
0.43 0.06 l
0.42 0.06 l
0.42 0.06 l
0.43 0.07 l
0.42 0.07 l
0.43 0.08 l
0.42 0.09 l
0.43 0.09 l
0.42 0.11 l
0.42 0.11 l
0.43 0.12 l
0.42 0.14 l
0.43 0.14 l
0.42 0.16 l
0.43 0.16 l
0.42 0.18 l
0.42 0.19 l
0.43 0.21 l
0.42 0.22 l
67.85 282.70 lineto
0.42 0.25 l
0.43 0.26 l
0.42 0.27 l
0.42 0.30 l
0.43 0.30 l
0.42 0.32 l
0.43 0.34 l
0.42 0.35 l
0.43 0.36 l
0.42 0.38 l
0.42 0.39 l
0.43 0.41 l
0.42 0.42 l
0.43 0.43 l
0.42 0.44 l
0.43 0.45 l
0.42 0.47 l
0.42 0.47 l
0.43 0.49 l
0.42 0.49 l
0.43 0.50 l
0.42 0.51 l
0.43 0.51 l
0.42 0.52 l
0.42 0.52 l
0.43 0.53 l
0.42 0.53 l
0.43 0.53 l
0.42 0.54 l
0.43 0.53 l
0.42 0.53 l
0.43 0.54 l
0.42 0.53 l
0.42 0.52 l
0.43 0.53 l
0.42 0.52 l
0.43 0.51 l
0.42 0.51 l
0.43 0.51 l
0.42 0.50 l
0.42 0.49 l
0.43 0.49 l
0.42 0.48 l
0.43 0.47 l
0.42 0.47 l
0.43 0.46 l
0.42 0.46 l
0.42 0.45 l
0.43 0.44 l
0.42 0.44 l
0.43 0.43 l
0.42 0.43 l
0.43 0.42 l
0.42 0.43 l
0.42 0.42 l
0.43 0.42 l
0.42 0.41 l
0.43 0.42 l
0.42 0.42 l
0.43 0.42 l
0.42 0.43 l
0.42 0.43 l
0.43 0.43 l
0.42 0.44 l
0.43 0.45 l
0.42 0.45 l
0.43 0.46 l
0.42 0.48 l
0.42 0.48 l
0.43 0.49 l
0.42 0.51 l
0.43 0.52 l
0.42 0.54 l
0.43 0.54 l
0.42 0.57 l
0.42 0.58 l
0.43 0.59 l
0.42 0.61 l
0.43 0.63 l
0.42 0.64 l
0.43 0.66 l
0.42 0.68 l
0.42 0.70 l
0.43 0.71 l
0.42 0.72 l
0.43 0.75 l
0.42 0.75 l
0.43 0.78 l
0.42 0.78 l
0.42 0.81 l
0.43 0.81 l
0.42 0.83 l
0.43 0.84 l
0.42 0.85 l
0.43 0.86 l
0.42 0.87 l
0.43 0.88 l
0.42 0.89 l
0.42 0.89 l
110.28 335.81 lineto
0.42 0.90 l
0.43 0.90 l
0.42 0.91 l
0.43 0.90 l
0.42 0.91 l
0.42 0.90 l
0.43 0.90 l
0.42 0.90 l
0.43 0.88 l
0.42 0.89 l
0.43 0.87 l
0.42 0.86 l
0.42 0.85 l
0.43 0.83 l
0.42 0.82 l
0.43 0.81 l
0.42 0.78 l
0.43 0.77 l
0.42 0.75 l
0.42 0.72 l
0.43 0.70 l
0.42 0.68 l
0.43 0.64 l
0.42 0.62 l
0.43 0.59 l
0.42 0.56 l
0.42 0.53 l
0.43 0.49 l
0.42 0.46 l
0.43 0.43 l
0.42 0.38 l
0.43 0.35 l
0.42 0.32 l
0.42 0.27 l
0.43 0.24 l
0.42 0.19 l
0.43 0.17 l
0.42 0.10 l
0.43 0.08 l
0.42 0.04 l
0.42 0 l
0.43 -0.05 l
0.42 -0.08 l
0.43 -0.12 l
0.42 -0.16 l
0.43 -0.20 l
0.42 -0.22 l
0.42 -0.26 l
0.43 -0.31 l
0.42 -0.33 l
0.43 -0.36 l
0.42 -0.39 l
0.43 -0.43 l
0.42 -0.44 l
0.42 -0.47 l
0.43 -0.50 l
0.42 -0.52 l
0.43 -0.53 l
0.42 -0.56 l
0.43 -0.57 l
0.42 -0.59 l
0.42 -0.60 l
0.43 -0.61 l
0.42 -0.63 l
0.43 -0.64 l
0.42 -0.64 l
0.43 -0.65 l
0.42 -0.65 l
0.43 -0.66 l
0.42 -0.66 l
0.42 -0.67 l
0.43 -0.66 l
0.42 -0.67 l
0.43 -0.67 l
0.42 -0.66 l
0.43 -0.67 l
0.42 -0.66 l
0.42 -0.66 l
0.43 -0.66 l
0.42 -0.66 l
0.43 -0.65 l
0.42 -0.66 l
0.43 -0.65 l
0.42 -0.64 l
0.42 -0.65 l
0.43 -0.64 l
0.42 -0.64 l
0.43 -0.64 l
0.42 -0.64 l
0.43 -0.63 l
0.42 -0.64 l
0.42 -0.63 l
0.43 -0.64 l
0.42 -0.63 l
0.43 -0.64 l
0.42 -0.63 l
0.43 -0.64 l
0.42 -0.64 l
0.42 -0.64 l
152.71 328.43 lineto
0.42 -0.65 l
0.43 -0.64 l
0.42 -0.64 l
0.43 -0.65 l
0.42 -0.64 l
0.42 -0.65 l
0.43 -0.65 l
0.42 -0.65 l
0.43 -0.66 l
0.42 -0.65 l
0.43 -0.66 l
0.42 -0.65 l
0.42 -0.66 l
0.43 -0.65 l
0.42 -0.66 l
0.43 -0.66 l
0.42 -0.65 l
0.43 -0.66 l
0.42 -0.65 l
0.42 -0.65 l
0.43 -0.65 l
0.42 -0.65 l
0.43 -0.65 l
0.42 -0.64 l
0.43 -0.64 l
0.42 -0.64 l
0.42 -0.64 l
0.43 -0.63 l
0.42 -0.63 l
0.43 -0.62 l
0.42 -0.62 l
0.43 -0.62 l
0.42 -0.62 l
0.43 -0.61 l
0.42 -0.60 l
0.42 -0.60 l
0.43 -0.60 l
0.42 -0.60 l
0.43 -0.59 l
0.42 -0.58 l
0.43 -0.58 l
0.42 -0.58 l
0.42 -0.57 l
0.43 -0.56 l
0.42 -0.57 l
0.43 -0.55 l
0.42 -0.56 l
0.43 -0.54 l
0.42 -0.54 l
0.42 -0.54 l
0.43 -0.53 l
0.42 -0.53 l
0.43 -0.52 l
0.42 -0.51 l
0.43 -0.50 l
0.42 -0.51 l
0.42 -0.49 l
0.43 -0.48 l
0.42 -0.48 l
0.43 -0.47 l
0.42 -0.47 l
0.43 -0.45 l
0.42 -0.45 l
0.42 -0.44 l
0.43 -0.43 l
0.42 -0.42 l
0.43 -0.41 l
0.42 -0.40 l
0.43 -0.39 l
0.42 -0.39 l
0.42 -0.37 l
0.43 -0.36 l
0.42 -0.36 l
0.43 -0.34 l
0.42 -0.34 l
0.43 -0.32 l
0.42 -0.31 l
0.42 -0.31 l
0.43 -0.29 l
0.42 -0.28 l
0.43 -0.28 l
0.42 -0.27 l
0.43 -0.25 l
0.42 -0.24 l
0.42 -0.24 l
0.43 -0.23 l
0.42 -0.22 l
0.43 -0.21 l
0.42 -0.20 l
0.43 -0.19 l
0.42 -0.19 l
0.42 -0.17 l
0.43 -0.17 l
0.42 -0.16 l
0.43 -0.16 l
0.42 -0.14 l
0.43 -0.14 l
0.42 -0.13 l
0.42 -0.13 l
195.14 280.99 lineto
0.42 -0.11 l
0.43 -0.10 l
0.42 -0.10 l
0.43 -0.09 l
0.42 -0.09 l
0.43 -0.08 l
0.42 -0.08 l
0.42 -0.07 l
0.43 -0.06 l
0.42 -0.06 l
0.43 -0.05 l
0.42 -0.05 l
0.43 -0.04 l
0.42 -0.04 l
0.42 -0.04 l
0.43 -0.03 l
0.42 -0.03 l
0.43 -0.02 l
0.42 -0.02 l
0.43 -0.02 l
0.42 -0.02 l
0.42 -0.01 l
0.43 -0.01 l
0.42 -0.01 l
0.43 0 l
0.42 -0.01 l
0.43 -0.01 l
0.42 0 l
0.42 -0.01 l
0.43 0 l
0.42 -0.01 l
0.43 -0.01 l
0.42 0 l
0.43 -0.01 l
0.42 -0.01 l
0.42 -0.02 l
0.43 -0.01 l
0.42 -0.02 l
0.43 -0.02 l
0.42 -0.02 l
0.43 -0.03 l
0.42 -0.03 l
0.42 -0.03 l
0.43 -0.03 l
0.42 -0.04 l
0.43 -0.04 l
0.42 -0.05 l
0.43 -0.04 l
0.42 -0.05 l
0.42 -0.06 l
0.43 -0.05 l
0.42 -0.06 l
0.43 -0.06 l
0.42 -0.06 l
0.43 -0.07 l
0.42 -0.06 l
0.42 -0.07 l
0.43 -0.07 l
0.42 -0.07 l
0.43 -0.07 l
0.42 -0.07 l
0.43 -0.08 l
0.42 -0.07 l
0.42 -0.07 l
0.43 -0.07 l
0.42 -0.08 l
0.43 -0.07 l
0.42 -0.07 l
0.43 -0.06 l
0.42 -0.07 l
0.43 -0.07 l
0.42 -0.06 l
0.42 -0.07 l
0.43 -0.06 l
0.42 -0.06 l
0.43 -0.05 l
0.42 -0.06 l
0.43 -0.05 l
0.42 -0.05 l
0.42 -0.05 l
0.43 -0.05 l
0.42 -0.04 l
0.43 -0.04 l
0.42 -0.04 l
0.43 -0.04 l
0.42 -0.04 l
0.42 -0.03 l
0.43 -0.03 l
0.42 -0.03 l
0.43 -0.03 l
0.42 -0.02 l
0.43 -0.03 l
0.42 -0.02 l
0.42 -0.02 l
0.43 -0.02 l
0.42 -0.02 l
0.43 -0.01 l
0.42 -0.02 l
0.43 -0.01 l
237.57 276.72 lineto
0.42 -0.02 l
0.43 -0.01 l
0.42 -0.01 l
0.43 0 l
0.42 -0.01 l
0.43 -0.01 l
0.42 -0.01 l
0.42 0 l
0.43 -0.01 l
0.42 0 l
0.43 0 l
o
292.75 272.83 462.40 374.75 cl
0 0 0 srgb
0.75 setlinewidth
[] 0 setdash
1 setlinecap
1 setlinejoin
10.00 setmiterlimit
361.34 315.21 2.24 c p1
368.72 319.50 2.24 c p1
421.63 345.24 2.24 c p1
330.76 298.05 2.24 c p1
369.72 319.50 2.24 c p1
351.57 310.92 2.24 c p1
381.47 323.79 2.24 c p1
345.62 306.63 2.24 c p1
362.44 315.21 2.24 c p1
424.40 345.24 2.24 c p1
352.92 310.92 2.24 c p1
363.52 315.21 2.24 c p1
397.25 332.37 2.24 c p1
414.89 340.95 2.24 c p1
398.45 332.37 2.24 c p1
364.59 315.21 2.24 c p1
431.40 349.53 2.24 c p1
416.94 340.95 2.24 c p1
404.98 336.66 2.24 c p1
382.45 323.79 2.24 c p1
389.52 328.08 2.24 c p1
390.57 328.08 2.24 c p1
370.72 319.50 2.24 c p1
340.26 302.34 2.24 c p1
342.16 302.34 2.24 c p1
333.52 298.05 2.24 c p1
456.12 370.97 2.24 c p1
347.21 306.63 2.24 c p1
348.73 306.63 2.24 c p1
383.44 323.79 2.24 c p1
419.17 340.95 2.24 c p1
384.43 323.79 2.24 c p1
299.04 276.61 2.24 c p1
406.43 336.66 2.24 c p1
343.94 302.34 2.24 c p1
354.22 310.92 2.24 c p1
335.99 298.05 2.24 c p1
385.43 323.79 2.24 c p1
407.94 336.66 2.24 c p1
391.63 328.08 2.24 c p1
392.71 328.08 2.24 c p1
371.71 319.50 2.24 c p1
318.93 293.76 2.24 c p1
399.67 332.37 2.24 c p1
372.70 319.50 2.24 c p1
373.68 319.50 2.24 c p1
312.12 289.47 2.24 c p1
374.66 319.50 2.24 c p1
409.53 336.66 2.24 c p1
355.48 310.92 2.24 c p1
393.82 328.08 2.24 c p1
356.71 310.92 2.24 c p1
365.64 315.21 2.24 c p1
386.44 323.79 2.24 c p1
357.91 310.92 2.24 c p1
323.76 293.76 2.24 c p1
394.94 328.08 2.24 c p1
436.22 349.53 2.24 c p1
387.45 323.79 2.24 c p1
375.63 319.50 2.24 c p1
327.57 293.76 2.24 c p1
366.68 315.21 2.24 c p1
338.22 298.05 2.24 c p1
367.70 315.21 2.24 c p1
400.94 332.37 2.24 c p1
411.21 336.66 2.24 c p1
443.04 358.10 2.24 c p1
427.59 345.24 2.24 c p1
376.61 319.50 2.24 c p1
350.18 306.63 2.24 c p1
412.99 336.66 2.24 c p1
402.24 332.37 2.24 c p1
377.58 319.50 2.24 c p1
388.48 323.79 2.24 c p1
396.08 328.08 2.24 c p1
378.55 319.50 2.24 c p1
403.58 332.37 2.24 c p1
379.52 319.50 2.24 c p1
359.07 310.92 2.24 c p1
380.50 319.50 2.24 c p1
360.22 310.92 2.24 c p1
0.00 0.00 487.50 423.75 cl
0 0 0 srgb
0.75 setlinewidth
[] 0 setdash
1 setlinecap
1 setlinejoin
10.00 setmiterlimit
np
314.80 272.83 m
125.56 0 l
o
np
314.80 272.83 m
0 -5.98 l
o
np
346.19 272.83 m
0 -5.98 l
o
np
377.58 272.83 m
0 -5.98 l
o
np
408.97 272.83 m
0 -5.98 l
o
np
440.36 272.83 m
0 -5.98 l
o
/Font1 findfont 10 s
314.80 251.32 (-2) .5 0 t
346.19 251.32 (-1) .5 0 t
377.58 251.32 (0) .5 0 t
408.97 251.32 (1) .5 0 t
440.36 251.32 (2) .5 0 t
np
292.75 276.61 m
0 85.78 l
o
np
292.75 276.61 m
-5.97 0 l
o
np
292.75 298.05 m
-5.97 0 l
o
np
292.75 319.50 m
-5.97 0 l
o
np
292.75 340.95 m
-5.97 0 l
o
np
292.75 362.39 m
-5.97 0 l
o
278.41 276.61 (0) .5 90 t
278.41 298.05 (5) .5 90 t
278.41 319.50 (10) .5 90 t
278.41 340.95 (15) .5 90 t
278.41 362.39 (20) .5 90 t
np
292.75 272.83 m
169.65 0 l
0 101.92 l
-169.65 0 l
0 -101.92 l
o
243.75 211.88 487.50 423.75 cl
/Font2 findfont 12 s
0 0 0 srgb
277.22 394.94 (W) 0 ta
-0.420 (estbr) tb
-0.240 (ook Assists Normal QQ Plot) tb gr
/Font1 findfont 10 s
377.58 227.41 (Theoretical Quantiles) .5 0 t
254.51 323.79 (Sample Quantiles) .5 90 t
292.75 272.83 462.40 374.75 cl
0 0 0 srgb
0.75 setlinewidth
[] 0 setdash
1 setlinecap
1 setlinejoin
10.00 setmiterlimit
np
292.75 278.68 m
169.65 85.93 l
o
49.00 60.96 218.65 162.87 cl
0.00 0.00 243.75 211.88 cl
/Font2 findfont 12 s
0 0 0 srgb
58.29 183.07 (Har) 0 ta
-0.240 (den Assists 2016-2017) tb gr
/Font1 findfont 10 s
119.93 15.54 (P) 0 ta
-0.500 (oints) tb gr
10.76 111.91 (probability) .5 90 t
0.00 0.00 487.50 423.75 cl
0 0 0 srgb
0.75 setlinewidth
[] 0 setdash
1 setlinecap
1 setlinejoin
10.00 setmiterlimit
np
55.29 60.96 m
157.08 0 l
o
np
55.29 60.96 m
0 -5.98 l
o
np
77.73 60.96 m
0 -5.98 l
o
np
100.17 60.96 m
0 -5.98 l
o
np
122.61 60.96 m
0 -5.98 l
o
np
145.05 60.96 m
0 -5.98 l
o
np
167.49 60.96 m
0 -5.98 l
o
np
189.93 60.96 m
0 -5.98 l
o
np
212.37 60.96 m
0 -5.98 l
o
/Font1 findfont 10 s
55.29 39.44 (4) .5 0 t
77.73 39.44 (6) .5 0 t
100.17 39.44 (8) .5 0 t
122.61 39.44 (10) .5 0 t
145.05 39.44 (12) .5 0 t
167.49 39.44 (14) .5 0 t
189.93 39.44 (16) .5 0 t
212.37 39.44 (18) .5 0 t
np
49.00 64.73 m
0 93.05 l
o
np
49.00 64.73 m
-5.97 0 l
o
np
49.00 78.02 m
-5.97 0 l
o
np
49.00 91.32 m
-5.97 0 l
o
np
49.00 104.61 m
-5.97 0 l
o
np
49.00 117.90 m
-5.97 0 l
o
np
49.00 131.20 m
-5.97 0 l
o
np
49.00 144.49 m
-5.97 0 l
o
np
49.00 157.78 m
-5.97 0 l
o
34.66 64.73 (0.00) .5 90 t
34.66 104.61 (0.06) .5 90 t
34.66 144.49 (0.12) .5 90 t
49.00 60.96 218.65 162.87 cl
/bg { 0.6784 0.8471 0.9020 srgb } def
0 0 0 srgb
0.75 setlinewidth
[] 0 setdash
1 setlinecap
1 setlinejoin
10.00 setmiterlimit
55.29 64.73 22.44 12.31 r p3
77.73 64.73 22.44 53.34 r p3
100.17 64.73 22.44 69.75 r p3
122.61 64.73 22.44 94.37 r p3
145.05 64.73 22.44 57.44 r p3
167.49 64.73 22.44 28.72 r p3
189.93 64.73 22.44 16.41 r p3
1 0 0 srgb
np
20.09 64.77 m
0.42 0 l
0.43 0 l
0.42 0.01 l
0.42 0 l
0.43 0.01 l
0.42 0.01 l
0.42 0 l
0.43 0.01 l
0.42 0.01 l
0.42 0.01 l
0.43 0.01 l
0.42 0.01 l
0.42 0.01 l
0.43 0.01 l
0.42 0.01 l
0.42 0.02 l
0.43 0.01 l
0.42 0.02 l
0.42 0.02 l
0.43 0.02 l
0.42 0.02 l
0.42 0.02 l
0.42 0.02 l
0.43 0.02 l
0.42 0.03 l
0.42 0.03 l
0.43 0.03 l
0.42 0.03 l
0.42 0.03 l
0.43 0.03 l
0.42 0.04 l
0.42 0.04 l
0.43 0.04 l
0.42 0.04 l
0.42 0.04 l
0.43 0.05 l
0.42 0.05 l
0.42 0.05 l
0.43 0.05 l
0.42 0.05 l
0.42 0.06 l
0.43 0.05 l
0.42 0.06 l
0.42 0.06 l
0.43 0.07 l
0.42 0.06 l
0.42 0.07 l
0.42 0.07 l
0.43 0.07 l
0.42 0.07 l
0.42 0.07 l
0.43 0.07 l
0.42 0.08 l
0.42 0.08 l
0.43 0.07 l
0.42 0.08 l
0.42 0.08 l
0.43 0.08 l
0.42 0.09 l
0.42 0.08 l
0.43 0.08 l
0.42 0.08 l
0.42 0.09 l
0.43 0.08 l
0.42 0.09 l
0.42 0.08 l
0.43 0.09 l
0.42 0.08 l
0.42 0.09 l
0.42 0.08 l
0.43 0.09 l
0.42 0.08 l
0.42 0.09 l
0.43 0.08 l
0.42 0.09 l
0.42 0.09 l
0.43 0.08 l
0.42 0.09 l
0.42 0.09 l
0.43 0.09 l
0.42 0.09 l
0.42 0.09 l
0.43 0.09 l
0.42 0.09 l
0.42 0.10 l
0.43 0.10 l
0.42 0.10 l
0.42 0.10 l
0.43 0.11 l
0.42 0.11 l
0.42 0.11 l
0.43 0.12 l
0.42 0.12 l
0.42 0.13 l
0.42 0.13 l
0.43 0.14 l
0.42 0.14 l
0.42 0.15 l
0.43 0.16 l
62.41 71.15 lineto
0.42 0.17 l
0.43 0.18 l
0.42 0.19 l
0.42 0.19 l
0.43 0.21 l
0.42 0.21 l
0.42 0.22 l
0.43 0.24 l
0.42 0.24 l
0.42 0.26 l
0.43 0.26 l
0.42 0.28 l
0.42 0.29 l
0.43 0.30 l
0.42 0.31 l
0.42 0.33 l
0.42 0.33 l
0.43 0.35 l
0.42 0.36 l
0.42 0.37 l
0.43 0.39 l
0.42 0.40 l
0.42 0.41 l
0.43 0.43 l
0.42 0.43 l
0.42 0.45 l
0.43 0.47 l
0.42 0.47 l
0.42 0.49 l
0.43 0.50 l
0.42 0.52 l
0.42 0.52 l
0.43 0.54 l
0.42 0.55 l
0.42 0.56 l
0.43 0.58 l
0.42 0.58 l
0.42 0.60 l
0.43 0.60 l
0.42 0.62 l
0.42 0.63 l
0.42 0.63 l
0.43 0.64 l
0.42 0.66 l
0.42 0.66 l
0.43 0.67 l
0.42 0.68 l
0.42 0.69 l
0.43 0.69 l
0.42 0.69 l
0.42 0.71 l
0.43 0.70 l
0.42 0.71 l
0.42 0.72 l
0.43 0.72 l
0.42 0.71 l
0.42 0.72 l
0.43 0.73 l
0.42 0.72 l
0.42 0.72 l
0.43 0.72 l
0.42 0.71 l
0.42 0.72 l
0.42 0.71 l
0.43 0.70 l
0.42 0.70 l
0.42 0.70 l
0.43 0.69 l
0.42 0.68 l
0.42 0.68 l
0.43 0.66 l
0.42 0.66 l
0.42 0.65 l
0.43 0.64 l
0.42 0.63 l
0.42 0.62 l
0.43 0.61 l
0.42 0.60 l
0.42 0.59 l
0.43 0.57 l
0.42 0.57 l
0.42 0.56 l
0.43 0.54 l
0.42 0.53 l
0.42 0.52 l
0.43 0.52 l
0.42 0.50 l
0.42 0.49 l
0.42 0.49 l
0.43 0.47 l
0.42 0.47 l
0.42 0.46 l
0.43 0.45 l
0.42 0.45 l
0.42 0.44 l
0.43 0.44 l
0.42 0.43 l
0.42 0.43 l
0.43 0.43 l
104.73 123.21 lineto
0.42 0.42 l
0.43 0.43 l
0.42 0.43 l
0.42 0.43 l
0.43 0.43 l
0.42 0.44 l
0.42 0.44 l
0.43 0.45 l
0.42 0.45 l
0.42 0.46 l
0.42 0.46 l
0.43 0.47 l
0.42 0.48 l
0.42 0.49 l
0.43 0.49 l
0.42 0.50 l
0.42 0.52 l
0.43 0.51 l
0.42 0.53 l
0.42 0.53 l
0.43 0.55 l
0.42 0.55 l
0.42 0.55 l
0.43 0.57 l
0.42 0.56 l
0.42 0.58 l
0.43 0.58 l
0.42 0.58 l
0.42 0.59 l
0.43 0.59 l
0.42 0.59 l
0.42 0.59 l
0.43 0.59 l
0.42 0.59 l
0.42 0.59 l
0.42 0.59 l
0.43 0.58 l
0.42 0.58 l
0.42 0.58 l
0.43 0.56 l
0.42 0.56 l
0.42 0.56 l
0.43 0.54 l
0.42 0.53 l
0.42 0.53 l
0.43 0.51 l
0.42 0.50 l
0.42 0.49 l
0.43 0.48 l
0.42 0.46 l
0.42 0.45 l
0.43 0.44 l
0.42 0.41 l
0.42 0.41 l
0.43 0.39 l
0.42 0.37 l
0.42 0.35 l
0.42 0.35 l
0.43 0.32 l
0.42 0.31 l
0.42 0.29 l
0.43 0.27 l
0.42 0.26 l
0.42 0.23 l
0.43 0.23 l
0.42 0.20 l
0.42 0.19 l
0.43 0.17 l
0.42 0.15 l
0.42 0.13 l
0.43 0.12 l
0.42 0.10 l
0.42 0.08 l
0.43 0.07 l
0.42 0.05 l
0.42 0.02 l
0.43 0.01 l
0.42 0 l
0.42 -0.02 l
0.43 -0.05 l
0.42 -0.06 l
0.42 -0.07 l
0.42 -0.10 l
0.43 -0.12 l
0.42 -0.13 l
0.42 -0.15 l
0.43 -0.17 l
0.42 -0.19 l
0.42 -0.21 l
0.43 -0.23 l
0.42 -0.25 l
0.42 -0.27 l
0.43 -0.29 l
0.42 -0.31 l
0.42 -0.32 l
0.43 -0.35 l
0.42 -0.37 l
0.42 -0.39 l
0.43 -0.40 l
147.05 150.76 lineto
0.42 -0.45 l
0.43 -0.47 l
0.42 -0.49 l
0.42 -0.50 l
0.42 -0.53 l
0.43 -0.55 l
0.42 -0.56 l
0.42 -0.58 l
0.43 -0.60 l
0.42 -0.62 l
0.42 -0.63 l
0.43 -0.65 l
0.42 -0.67 l
0.42 -0.68 l
0.43 -0.70 l
0.42 -0.71 l
0.42 -0.72 l
0.43 -0.74 l
0.42 -0.74 l
0.42 -0.76 l
0.43 -0.77 l
0.42 -0.77 l
0.42 -0.79 l
0.43 -0.79 l
0.42 -0.80 l
0.42 -0.80 l
0.43 -0.81 l
0.42 -0.80 l
0.42 -0.82 l
0.42 -0.81 l
0.43 -0.81 l
0.42 -0.81 l
0.42 -0.81 l
0.43 -0.81 l
0.42 -0.81 l
0.42 -0.80 l
0.43 -0.79 l
0.42 -0.79 l
0.42 -0.79 l
0.43 -0.77 l
0.42 -0.77 l
0.42 -0.76 l
0.43 -0.75 l
0.42 -0.75 l
0.42 -0.73 l
0.43 -0.73 l
0.42 -0.71 l
0.42 -0.71 l
0.43 -0.69 l
0.42 -0.68 l
0.42 -0.68 l
0.42 -0.66 l
0.43 -0.65 l
0.42 -0.64 l
0.42 -0.63 l
0.43 -0.62 l
0.42 -0.62 l
0.42 -0.60 l
0.43 -0.59 l
0.42 -0.58 l
0.42 -0.58 l
0.43 -0.56 l
0.42 -0.56 l
0.42 -0.55 l
0.43 -0.54 l
0.42 -0.54 l
0.42 -0.53 l
0.43 -0.52 l
0.42 -0.51 l
0.42 -0.51 l
0.43 -0.51 l
0.42 -0.49 l
0.42 -0.50 l
0.43 -0.48 l
0.42 -0.49 l
0.42 -0.47 l
0.42 -0.47 l
0.43 -0.47 l
0.42 -0.46 l
0.42 -0.46 l
0.43 -0.45 l
0.42 -0.45 l
0.42 -0.44 l
0.43 -0.44 l
0.42 -0.43 l
0.42 -0.43 l
0.43 -0.42 l
0.42 -0.42 l
0.42 -0.41 l
0.43 -0.41 l
0.42 -0.40 l
0.42 -0.39 l
0.43 -0.38 l
0.42 -0.39 l
0.42 -0.37 l
0.43 -0.37 l
0.42 -0.36 l
0.42 -0.36 l
0.42 -0.35 l
189.37 90.70 lineto
0.42 -0.34 l
0.42 -0.33 l
0.43 -0.32 l
0.42 -0.32 l
0.42 -0.32 l
0.43 -0.31 l
0.42 -0.30 l
0.42 -0.30 l
0.43 -0.30 l
0.42 -0.29 l
0.42 -0.29 l
0.43 -0.29 l
0.42 -0.28 l
0.42 -0.28 l
0.43 -0.28 l
0.42 -0.28 l
0.42 -0.28 l
0.43 -0.28 l
0.42 -0.28 l
0.42 -0.28 l
0.43 -0.28 l
0.42 -0.28 l
0.42 -0.29 l
0.42 -0.28 l
0.43 -0.29 l
0.42 -0.30 l
0.42 -0.29 l
0.43 -0.30 l
0.42 -0.30 l
0.42 -0.31 l
0.43 -0.31 l
0.42 -0.32 l
0.42 -0.32 l
0.43 -0.32 l
0.42 -0.33 l
0.42 -0.33 l
0.43 -0.34 l
0.42 -0.34 l
0.42 -0.34 l
0.43 -0.34 l
0.42 -0.35 l
0.42 -0.35 l
0.43 -0.35 l
0.42 -0.36 l
0.42 -0.35 l
0.42 -0.36 l
0.43 -0.36 l
0.42 -0.35 l
0.42 -0.36 l
0.43 -0.35 l
0.42 -0.35 l
0.42 -0.35 l
0.43 -0.35 l
0.42 -0.34 l
0.42 -0.34 l
0.43 -0.34 l
0.42 -0.33 l
0.42 -0.33 l
0.43 -0.32 l
0.42 -0.31 l
0.42 -0.31 l
0.43 -0.30 l
0.42 -0.30 l
0.42 -0.29 l
0.43 -0.28 l
0.42 -0.27 l
0.42 -0.27 l
0.43 -0.25 l
0.42 -0.25 l
0.42 -0.24 l
0.42 -0.23 l
0.43 -0.22 l
0.42 -0.22 l
0.42 -0.21 l
0.43 -0.19 l
0.42 -0.19 l
0.42 -0.18 l
0.43 -0.18 l
0.42 -0.16 l
0.42 -0.16 l
0.43 -0.15 l
0.42 -0.14 l
0.42 -0.13 l
0.43 -0.13 l
0.42 -0.12 l
0.42 -0.11 l
0.43 -0.11 l
0.42 -0.10 l
0.42 -0.09 l
0.43 -0.09 l
0.42 -0.08 l
0.42 -0.08 l
0.42 -0.07 l
0.43 -0.06 l
0.42 -0.07 l
0.42 -0.05 l
0.43 -0.06 l
0.42 -0.05 l
0.42 -0.04 l
231.69 65.16 lineto
0.42 -0.04 l
0.42 -0.03 l
0.43 -0.04 l
0.42 -0.03 l
0.42 -0.02 l
0.43 -0.03 l
0.42 -0.02 l
0.42 -0.02 l
0.43 -0.02 l
0.42 -0.02 l
0.42 -0.02 l
o
292.75 60.96 462.40 162.87 cl
0 0 0 srgb
0.75 setlinewidth
[] 0 setdash
1 setlinecap
1 setlinejoin
10.00 setmiterlimit
431.40 159.10 2.24 c p1
335.99 93.77 2.24 c p1
338.22 93.77 2.24 c p1
412.99 144.58 2.24 c p1
414.89 144.58 2.24 c p1
370.72 115.54 2.24 c p1
416.94 144.58 2.24 c p1
419.17 144.58 2.24 c p1
393.82 130.06 2.24 c p1
351.57 101.03 2.24 c p1
394.94 130.06 2.24 c p1
406.43 137.32 2.24 c p1
357.91 108.28 2.24 c p1
371.71 115.54 2.24 c p1
421.63 144.58 2.24 c p1
359.07 108.28 2.24 c p1
360.22 108.28 2.24 c p1
323.76 86.51 2.24 c p1
396.08 130.06 2.24 c p1
352.92 101.03 2.24 c p1
327.57 86.51 2.24 c p1
330.76 86.51 2.24 c p1
381.47 122.80 2.24 c p1
427.59 151.84 2.24 c p1
372.70 115.54 2.24 c p1
407.94 137.32 2.24 c p1
397.25 130.06 2.24 c p1
398.45 130.06 2.24 c p1
333.52 86.51 2.24 c p1
409.53 137.32 2.24 c p1
436.22 159.10 2.24 c p1
382.45 122.80 2.24 c p1
373.68 115.54 2.24 c p1
361.34 108.28 2.24 c p1
443.04 159.10 2.24 c p1
362.44 108.28 2.24 c p1
383.44 122.80 2.24 c p1
363.52 108.28 2.24 c p1
374.66 115.54 2.24 c p1
364.59 108.28 2.24 c p1
384.43 122.80 2.24 c p1
354.22 101.03 2.24 c p1
375.63 115.54 2.24 c p1
365.64 108.28 2.24 c p1
340.26 93.77 2.24 c p1
376.61 115.54 2.24 c p1
366.68 108.28 2.24 c p1
385.43 122.80 2.24 c p1
386.44 122.80 2.24 c p1
399.67 130.06 2.24 c p1
342.16 93.77 2.24 c p1
343.94 93.77 2.24 c p1
345.62 93.77 2.24 c p1
355.48 101.03 2.24 c p1
400.94 130.06 2.24 c p1
347.21 93.77 2.24 c p1
348.73 93.77 2.24 c p1
387.45 122.80 2.24 c p1
411.21 137.32 2.24 c p1
367.70 108.28 2.24 c p1
388.48 122.80 2.24 c p1
356.71 101.03 2.24 c p1
377.58 115.54 2.24 c p1
389.52 122.80 2.24 c p1
312.12 79.25 2.24 c p1
402.24 130.06 2.24 c p1
378.55 115.54 2.24 c p1
403.58 130.06 2.24 c p1
379.52 115.54 2.24 c p1
368.72 108.28 2.24 c p1
380.50 115.54 2.24 c p1
456.12 159.10 2.24 c p1
390.57 122.80 2.24 c p1
404.98 130.06 2.24 c p1
299.04 64.73 2.24 c p1
350.18 93.77 2.24 c p1
369.72 108.28 2.24 c p1
391.63 122.80 2.24 c p1
424.40 144.58 2.24 c p1
318.93 79.25 2.24 c p1
392.71 122.80 2.24 c p1
0.00 0.00 487.50 423.75 cl
0 0 0 srgb
0.75 setlinewidth
[] 0 setdash
1 setlinecap
1 setlinejoin
10.00 setmiterlimit
np
314.80 60.96 m
125.56 0 l
o
np
314.80 60.96 m
0 -5.98 l
o
np
346.19 60.96 m
0 -5.98 l
o
np
377.58 60.96 m
0 -5.98 l
o
np
408.97 60.96 m
0 -5.98 l
o
np
440.36 60.96 m
0 -5.98 l
o
/Font1 findfont 10 s
314.80 39.44 (-2) .5 0 t
346.19 39.44 (-1) .5 0 t
377.58 39.44 (0) .5 0 t
408.97 39.44 (1) .5 0 t
440.36 39.44 (2) .5 0 t
np
292.75 64.73 m
0 87.11 l
o
np
292.75 64.73 m
-5.97 0 l
o
np
292.75 79.25 m
-5.97 0 l
o
np
292.75 93.77 m
-5.97 0 l
o
np
292.75 108.28 m
-5.97 0 l
o
np
292.75 122.80 m
-5.97 0 l
o
np
292.75 137.32 m
-5.97 0 l
o
np
292.75 151.84 m
-5.97 0 l
o
278.41 64.73 (4) .5 90 t
278.41 79.25 (6) .5 90 t
278.41 93.77 (8) .5 90 t
278.41 122.80 (12) .5 90 t
278.41 151.84 (16) .5 90 t
np
292.75 60.96 m
169.65 0 l
0 101.91 l
-169.65 0 l
0 -101.91 l
o
243.75 0.00 487.50 211.88 cl
/Font2 findfont 12 s
0 0 0 srgb
287.55 183.07 (Har) 0 ta
-0.240 (den Assists Normal QQ Plot) tb gr
/Font1 findfont 10 s
377.58 15.54 (Theoretical Quantiles) .5 0 t
254.51 111.91 (Sample Quantiles) .5 90 t
292.75 60.96 462.40 162.87 cl
0 0 0 srgb
0.75 setlinewidth
[] 0 setdash
1 setlinecap
1 setlinejoin
10.00 setmiterlimit
np
292.75 57.38 m
169.65 116.33 l
o
ep
%%Trailer
%%Pages: 1
%%EOF
