Museum,Performance
1,Total visitors
2,Paying visitors
3,Funds raised
4,Big shows
5,Funds raised
6,Total visitors
7,Total visitors
8,Big shows
9,Members
10,Funds raised
11,Funds raised
12,Members
13,Big shows
14,Paying visitors
15,Paying visitors
16,Paying visitors
17,Total visitors
18,Big shows
19,Big shows
20,Total visitors
21,Funds raised
22,Total visitors
23,Members
24,Paying visitors
25,Big shows
26,Funds raised
27,Members
28,Total visitors
29,Funds raised
30,Total visitors
