BOREHOLE,RATIO
UMRB-1,3.75
UMRB-1,4.05
UMRB-1,3.81
UMRB-1,3.23
UMRB-1,3.13
UMRB-1,3.3
UMRB-1,3.21
UMRB-2,3.32
UMRB-2,4.09
UMRB-2,3.9
UMRB-2,5.06
UMRB-2,3.85
UMRB-2,3.88
UMRB-3,4.06
UMRB-3,4.56
UMRB-3,3.6
UMRB-3,3.27
UMRB-3,4.09
UMRB-3,3.38
UMRB-3,3.37
SWRA,2.73
SWRA,2.95
SWRA,2.25
SD,2.73
SD,2.55
SD,3.06
