%!PS-Adobe-3.0 EPSF-3.0
%%DocumentNeededResources: font Helvetica
%%+ font Helvetica-Bold
%%+ font Helvetica-Oblique
%%+ font Helvetica-BoldOblique
%%+ font Symbol
%%Title: R Graphics Output
%%Creator: R Software
%%Pages: (atend)
%%BoundingBox: 0 0 646 400
%%EndComments
%%BeginProlog
/bp  { gs sRGB gs } def
% begin .ps.prolog
/gs  { gsave } bind def
/gr  { grestore } bind def
/ep  { showpage gr gr } bind def
/m   { moveto } bind def
/l  { rlineto } bind def
/np  { newpath } bind def
/cp  { closepath } bind def
/f   { fill } bind def
/o   { stroke } bind def
/c   { newpath 0 360 arc } bind def
/r   { 4 2 roll moveto 1 copy 3 -1 roll exch 0 exch rlineto 0 rlineto -1 mul 0 exch rlineto closepath } bind def
/p1  { stroke } bind def
/p2  { gsave bg fill grestore newpath } bind def
/p3  { gsave bg fill grestore stroke } bind def
/p6  { gsave bg eofill grestore newpath } bind def
/p7  { gsave bg eofill grestore stroke } bind def
/t   { 5 -2 roll moveto gsave rotate
       1 index stringwidth pop
       mul neg 0 rmoveto show grestore } bind def
/ta  { 4 -2 roll moveto gsave rotate show } bind def
/tb  { 2 -1 roll 0 rmoveto show } bind def
/cl  { grestore gsave newpath 3 index 3 index moveto 1 index
       4 -1 roll lineto  exch 1 index lineto lineto
       closepath clip newpath } bind def
/rgb { setrgbcolor } bind def
/s   { scalefont setfont } bind def
% end   .ps.prolog
/sRGB { [ /CIEBasedABC
          << /DecodeLMN
               [ { dup 0.03928 le
                        {12.92321 div}
                        {0.055 add 1.055 div 2.4 exp }
                     ifelse
                 } bind dup dup
               ]
             /MatrixLMN [0.412457 0.212673 0.019334
                         0.357576 0.715152 0.119192
                         0.180437 0.072175 0.950301]
             /WhitePoint [0.9505 1.0 1.0890]
           >>
         ] setcolorspace } bind def
/srgb { setcolor } bind def
%%IncludeResource: font Helvetica
/Helvetica findfont
dup length dict begin
  {1 index /FID ne {def} {pop pop} ifelse} forall
  /Encoding ISOLatin1Encoding def
  currentdict
  end
/Font1 exch definefont pop
%%IncludeResource: font Helvetica-Bold
/Helvetica-Bold findfont
dup length dict begin
  {1 index /FID ne {def} {pop pop} ifelse} forall
  /Encoding ISOLatin1Encoding def
  currentdict
  end
/Font2 exch definefont pop
%%IncludeResource: font Helvetica-Oblique
/Helvetica-Oblique findfont
dup length dict begin
  {1 index /FID ne {def} {pop pop} ifelse} forall
  /Encoding ISOLatin1Encoding def
  currentdict
  end
/Font3 exch definefont pop
%%IncludeResource: font Helvetica-BoldOblique
/Helvetica-BoldOblique findfont
dup length dict begin
  {1 index /FID ne {def} {pop pop} ifelse} forall
  /Encoding ISOLatin1Encoding def
  currentdict
  end
/Font4 exch definefont pop
%%IncludeResource: font Symbol
/Symbol findfont
dup length dict begin
  {1 index /FID ne {def} {pop pop} ifelse} forall
  currentdict
  end
/Font5 exch definefont pop
%%EndProlog
%%Page: 1 1
bp
/bg { 1 1 1 srgb } def
0.00 0.00 645.75 399.75 r p2
0.00 0.00 645.75 399.75 cl
0.00 0.00 645.75 399.75 cl
/bg { 1 0.4980 0.3137 srgb } def
0 0 0 srgb
0.75 setlinewidth
[] 0 setdash
1 setlinecap
1 setlinejoin
10.00 setmiterlimit
79.65 76.09 39.63 1.05 r p3
127.21 76.09 39.63 10.50 r p3
174.77 76.09 39.63 47.25 r p3
222.33 76.09 39.63 126.01 r p3
269.90 76.09 39.63 220.52 r p3
317.46 76.09 39.63 264.62 r p3
365.02 76.09 39.63 220.52 r p3
412.58 76.09 39.63 126.01 r p3
460.14 76.09 39.63 47.25 r p3
507.70 76.09 39.63 10.50 r p3
555.27 76.09 39.63 1.05 r p3
0.00 0.00 645.75 399.75 cl
/Font1 findfont 12 s
0 0 0 srgb
99.47 47.52 (0) .5 0 t
147.03 47.52 (1) .5 0 t
194.59 47.52 (2) .5 0 t
242.15 47.52 (3) .5 0 t
289.71 47.52 (4) .5 0 t
337.27 47.52 (5) .5 0 t
384.84 47.52 (6) .5 0 t
432.40 47.52 (7) .5 0 t
479.96 47.52 (8) .5 0 t
527.52 47.52 (9) .5 0 t
575.08 47.52 (10) .5 0 t
0.00 0.00 645.75 399.75 cl
/Font2 findfont 14 s
0 0 0 srgb
231.46 365.20 (Guessing on a T) 0 ta
-1.120 (rue/F) tb
-0.280 (alse Exam) tb gr
/Font1 findfont 12 s
292.93 18.72 (Correct Answ) 0 ta
-0.120 (ers) tb gr
12.96 207.07 (Probability) .5 90 t
0.00 0.00 645.75 399.75 cl
0 0 0 srgb
0.75 setlinewidth
[] 0 setdash
1 setlinecap
1 setlinejoin
10.00 setmiterlimit
np
59.04 76.09 m
0 215.06 l
o
np
59.04 76.09 m
-7.20 0 l
o
np
59.04 129.85 m
-7.20 0 l
o
np
59.04 183.62 m
-7.20 0 l
o
np
59.04 237.38 m
-7.20 0 l
o
np
59.04 291.15 m
-7.20 0 l
o
/Font1 findfont 12 s
41.76 76.09 (0.00) .5 90 t
41.76 129.85 (0.05) .5 90 t
41.76 183.62 (0.10) .5 90 t
41.76 237.38 (0.15) .5 90 t
41.76 291.15 (0.20) .5 90 t
ep
%%Trailer
%%Pages: 1
%%EOF
