%!PS-Adobe-3.0 EPSF-3.0
%%DocumentNeededResources: font Helvetica
%%+ font Helvetica-Bold
%%+ font Helvetica-Oblique
%%+ font Helvetica-BoldOblique
%%+ font Symbol
%%Title: R Graphics Output
%%Creator: R Software
%%Pages: (atend)
%%BoundingBox: 0 0 450 278
%%EndComments
%%BeginProlog
/bp  { gs sRGB gs } def
% begin .ps.prolog
/gs  { gsave } bind def
/gr  { grestore } bind def
/ep  { showpage gr gr } bind def
/m   { moveto } bind def
/l  { rlineto } bind def
/np  { newpath } bind def
/cp  { closepath } bind def
/f   { fill } bind def
/o   { stroke } bind def
/c   { newpath 0 360 arc } bind def
/r   { 4 2 roll moveto 1 copy 3 -1 roll exch 0 exch rlineto 0 rlineto -1 mul 0 exch rlineto closepath } bind def
/p1  { stroke } bind def
/p2  { gsave bg fill grestore newpath } bind def
/p3  { gsave bg fill grestore stroke } bind def
/p6  { gsave bg eofill grestore newpath } bind def
/p7  { gsave bg eofill grestore stroke } bind def
/t   { 5 -2 roll moveto gsave rotate
       1 index stringwidth pop
       mul neg 0 rmoveto show grestore } bind def
/ta  { 4 -2 roll moveto gsave rotate show } bind def
/tb  { 2 -1 roll 0 rmoveto show } bind def
/cl  { grestore gsave newpath 3 index 3 index moveto 1 index
       4 -1 roll lineto  exch 1 index lineto lineto
       closepath clip newpath } bind def
/rgb { setrgbcolor } bind def
/s   { scalefont setfont } bind def
% end   .ps.prolog
/sRGB { [ /CIEBasedABC
          << /DecodeLMN
               [ { dup 0.03928 le
                        {12.92321 div}
                        {0.055 add 1.055 div 2.4 exp }
                     ifelse
                 } bind dup dup
               ]
             /MatrixLMN [0.412457 0.212673 0.019334
                         0.357576 0.715152 0.119192
                         0.180437 0.072175 0.950301]
             /WhitePoint [0.9505 1.0 1.0890]
           >>
         ] setcolorspace } bind def
/srgb { setcolor } bind def
%%IncludeResource: font Helvetica
/Helvetica findfont
dup length dict begin
  {1 index /FID ne {def} {pop pop} ifelse} forall
  /Encoding ISOLatin1Encoding def
  currentdict
  end
/Font1 exch definefont pop
%%IncludeResource: font Helvetica-Bold
/Helvetica-Bold findfont
dup length dict begin
  {1 index /FID ne {def} {pop pop} ifelse} forall
  /Encoding ISOLatin1Encoding def
  currentdict
  end
/Font2 exch definefont pop
%%IncludeResource: font Helvetica-Oblique
/Helvetica-Oblique findfont
dup length dict begin
  {1 index /FID ne {def} {pop pop} ifelse} forall
  /Encoding ISOLatin1Encoding def
  currentdict
  end
/Font3 exch definefont pop
%%IncludeResource: font Helvetica-BoldOblique
/Helvetica-BoldOblique findfont
dup length dict begin
  {1 index /FID ne {def} {pop pop} ifelse} forall
  /Encoding ISOLatin1Encoding def
  currentdict
  end
/Font4 exch definefont pop
%%IncludeResource: font Symbol
/Symbol findfont
dup length dict begin
  {1 index /FID ne {def} {pop pop} ifelse} forall
  currentdict
  end
/Font5 exch definefont pop
%%EndProlog
%%Page: 1 1
bp
/bg { 1 1 1 srgb } def
0.00 0.00 450.00 277.50 r p2
0.00 0.00 450.00 277.50 cl
0.00 0.00 450.00 277.50 cl
/bg { 1 0.4980 0.3137 srgb } def
0 0 0 srgb
0.75 setlinewidth
[] 0 setdash
1 setlinecap
1 setlinejoin
10.00 setmiterlimit
72.40 74.88 25.69 143.58 r p3
103.23 74.88 25.69 71.79 r p3
134.06 74.88 25.69 35.90 r p3
164.89 74.88 25.69 17.95 r p3
195.72 74.88 25.69 8.97 r p3
226.55 74.88 25.69 4.49 r p3
257.38 74.88 25.69 2.24 r p3
288.22 74.88 25.69 1.12 r p3
319.05 74.88 25.69 0.56 r p3
349.88 74.88 25.69 0.28 r p3
380.71 74.88 25.69 0.14 r p3
0.00 0.00 450.00 277.50 cl
/Font1 findfont 12 s
0 0 0 srgb
85.25 47.52 (1) .5 0 t
116.08 47.52 (2) .5 0 t
146.91 47.52 (3) .5 0 t
177.74 47.52 (4) .5 0 t
208.57 47.52 (5) .5 0 t
239.40 47.52 (6) .5 0 t
270.23 47.52 (7) .5 0 t
301.06 47.52 (8) .5 0 t
331.89 47.52 (9) .5 0 t
362.72 47.52 (10) .5 0 t
393.55 47.52 (11) .5 0 t
0.00 0.00 450.00 277.50 cl
/Font2 findfont 14 s
0 0 0 srgb
64.37 242.95 (Pr) 0 ta
-0.280 (obability Distrib) tb
-0.280 (ution of the Fir) tb
-0.210 (st Heads Appearing) tb gr
/Font1 findfont 12 s
239.40 18.72 (Number of Flips) .5 0 t
12.96 145.95 (Probability) .5 90 t
0.00 0.00 450.00 277.50 cl
0 0 0 srgb
0.75 setlinewidth
[] 0 setdash
1 setlinecap
1 setlinejoin
10.00 setmiterlimit
np
59.04 74.88 m
0 143.58 l
o
np
59.04 74.88 m
-7.20 0 l
o
np
59.04 103.59 m
-7.20 0 l
o
np
59.04 132.31 m
-7.20 0 l
o
np
59.04 161.03 m
-7.20 0 l
o
np
59.04 189.74 m
-7.20 0 l
o
np
59.04 218.46 m
-7.20 0 l
o
/Font1 findfont 12 s
41.76 74.88 (0.0) .5 90 t
41.76 103.59 (0.1) .5 90 t
41.76 132.31 (0.2) .5 90 t
41.76 161.03 (0.3) .5 90 t
41.76 189.74 (0.4) .5 90 t
41.76 218.46 (0.5) .5 90 t
ep
%%Trailer
%%Pages: 1
%%EOF
