%!PS-Adobe-3.0 EPSF-3.0
%%DocumentNeededResources: font Helvetica
%%+ font Helvetica-Bold
%%+ font Helvetica-Oblique
%%+ font Helvetica-BoldOblique
%%+ font Symbol
%%Title: R Graphics Output
%%Creator: R Software
%%Pages: (atend)
%%BoundingBox: 0 0 450 278
%%EndComments
%%BeginProlog
/bp  { gs sRGB gs } def
% begin .ps.prolog
/gs  { gsave } bind def
/gr  { grestore } bind def
/ep  { showpage gr gr } bind def
/m   { moveto } bind def
/l  { rlineto } bind def
/np  { newpath } bind def
/cp  { closepath } bind def
/f   { fill } bind def
/o   { stroke } bind def
/c   { newpath 0 360 arc } bind def
/r   { 4 2 roll moveto 1 copy 3 -1 roll exch 0 exch rlineto 0 rlineto -1 mul 0 exch rlineto closepath } bind def
/p1  { stroke } bind def
/p2  { gsave bg fill grestore newpath } bind def
/p3  { gsave bg fill grestore stroke } bind def
/p6  { gsave bg eofill grestore newpath } bind def
/p7  { gsave bg eofill grestore stroke } bind def
/t   { 5 -2 roll moveto gsave rotate
       1 index stringwidth pop
       mul neg 0 rmoveto show grestore } bind def
/ta  { 4 -2 roll moveto gsave rotate show } bind def
/tb  { 2 -1 roll 0 rmoveto show } bind def
/cl  { grestore gsave newpath 3 index 3 index moveto 1 index
       4 -1 roll lineto  exch 1 index lineto lineto
       closepath clip newpath } bind def
/rgb { setrgbcolor } bind def
/s   { scalefont setfont } bind def
% end   .ps.prolog
/sRGB { [ /CIEBasedABC
          << /DecodeLMN
               [ { dup 0.03928 le
                        {12.92321 div}
                        {0.055 add 1.055 div 2.4 exp }
                     ifelse
                 } bind dup dup
               ]
             /MatrixLMN [0.412457 0.212673 0.019334
                         0.357576 0.715152 0.119192
                         0.180437 0.072175 0.950301]
             /WhitePoint [0.9505 1.0 1.0890]
           >>
         ] setcolorspace } bind def
/srgb { setcolor } bind def
%%IncludeResource: font Helvetica
/Helvetica findfont
dup length dict begin
  {1 index /FID ne {def} {pop pop} ifelse} forall
  /Encoding ISOLatin1Encoding def
  currentdict
  end
/Font1 exch definefont pop
%%IncludeResource: font Helvetica-Bold
/Helvetica-Bold findfont
dup length dict begin
  {1 index /FID ne {def} {pop pop} ifelse} forall
  /Encoding ISOLatin1Encoding def
  currentdict
  end
/Font2 exch definefont pop
%%IncludeResource: font Helvetica-Oblique
/Helvetica-Oblique findfont
dup length dict begin
  {1 index /FID ne {def} {pop pop} ifelse} forall
  /Encoding ISOLatin1Encoding def
  currentdict
  end
/Font3 exch definefont pop
%%IncludeResource: font Helvetica-BoldOblique
/Helvetica-BoldOblique findfont
dup length dict begin
  {1 index /FID ne {def} {pop pop} ifelse} forall
  /Encoding ISOLatin1Encoding def
  currentdict
  end
/Font4 exch definefont pop
%%IncludeResource: font Symbol
/Symbol findfont
dup length dict begin
  {1 index /FID ne {def} {pop pop} ifelse} forall
  currentdict
  end
/Font5 exch definefont pop
%%EndProlog
%%Page: 1 1
bp
/bg { 1 1 1 srgb } def
0.00 0.00 450.00 277.50 r p2
0.00 0.00 450.00 277.50 cl
0.00 0.00 450.00 277.50 cl
/bg { 0 0 1 srgb } def
0 0 0 srgb
0.75 setlinewidth
[] 0 setdash
1 setlinecap
1 setlinejoin
10.00 setmiterlimit
72.40 74.88 35.53 13.85 r p3
115.04 74.88 35.53 64.61 r p3
157.68 74.88 35.53 129.23 r p3
200.31 74.88 35.53 143.58 r p3
/bg { 1 0 0 srgb } def
242.95 74.88 35.53 95.72 r p3
285.59 74.88 35.53 38.29 r p3
328.23 74.88 35.53 8.51 r p3
370.87 74.88 35.53 0.81 r p3
0.00 0.00 450.00 277.50 cl
/Font1 findfont 12 s
0 0 0 srgb
90.17 47.52 (0) .5 0 t
132.80 47.52 (1) .5 0 t
175.44 47.52 (2) .5 0 t
218.08 47.52 (3) .5 0 t
260.72 47.52 (4) .5 0 t
303.36 47.52 (5) .5 0 t
346.00 47.52 (6) .5 0 t
388.63 47.52 (7) .5 0 t
0.00 0.00 450.00 277.50 cl
/Font2 findfont 14 s
0 0 0 srgb
202.06 242.95 (NB) 0 ta
-0.420 (A Finals) tb gr
/Font1 findfont 12 s
172.71 18.72 (Games W) 0 ta
-0.360 (on b) tb
-0.240 (y the Ca) tb
-0.240 (vs) tb gr
12.96 145.95 (Probability) .5 90 t
0.00 0.00 450.00 277.50 cl
0 0 0 srgb
0.75 setlinewidth
[] 0 setdash
1 setlinecap
1 setlinejoin
10.00 setmiterlimit
np
59.04 74.88 m
0 123.65 l
o
np
59.04 74.88 m
-7.20 0 l
o
np
59.04 99.61 m
-7.20 0 l
o
np
59.04 124.34 m
-7.20 0 l
o
np
59.04 149.07 m
-7.20 0 l
o
np
59.04 173.80 m
-7.20 0 l
o
np
59.04 198.53 m
-7.20 0 l
o
/Font1 findfont 12 s
41.76 74.88 (0.00) .5 90 t
41.76 124.34 (0.10) .5 90 t
41.76 173.80 (0.20) .5 90 t
ep
%%Trailer
%%Pages: 1
%%EOF
